%!PS-Adobe-3.0 EPSF-3.0
%%Creator: cairo 1.14.10 (http://cairographics.org)
%%CreationDate: Thu Feb 15 19:08:44 2018
%%Pages: 1
%%DocumentData: Clean7Bit
%%LanguageLevel: 2
%%BoundingBox: 0 -1 292 43
%%EndComments
%%BeginProlog
save
50 dict begin
/q { gsave } bind def
/Q { grestore } bind def
/cm { 6 array astore concat } bind def
/w { setlinewidth } bind def
/J { setlinecap } bind def
/j { setlinejoin } bind def
/M { setmiterlimit } bind def
/d { setdash } bind def
/m { moveto } bind def
/l { lineto } bind def
/c { curveto } bind def
/h { closepath } bind def
/re { exch dup neg 3 1 roll 5 3 roll moveto 0 rlineto
      0 exch rlineto 0 rlineto closepath } bind def
/S { stroke } bind def
/f { fill } bind def
/f* { eofill } bind def
/n { newpath } bind def
/W { clip } bind def
/W* { eoclip } bind def
/BT { } bind def
/ET { } bind def
/pdfmark where { pop globaldict /?pdfmark /exec load put }
    { globaldict begin /?pdfmark /pop load def /pdfmark
    /cleartomark load def end } ifelse
/BDC { mark 3 1 roll /BDC pdfmark } bind def
/EMC { mark /EMC pdfmark } bind def
/cairo_store_point { /cairo_point_y exch def /cairo_point_x exch def } def
/Tj { show currentpoint cairo_store_point } bind def
/TJ {
  {
    dup
    type /stringtype eq
    { show } { -0.001 mul 0 cairo_font_matrix dtransform rmoveto } ifelse
  } forall
  currentpoint cairo_store_point
} bind def
/cairo_selectfont { cairo_font_matrix aload pop pop pop 0 0 6 array astore
    cairo_font exch selectfont cairo_point_x cairo_point_y moveto } bind def
/Tf { pop /cairo_font exch def /cairo_font_matrix where
      { pop cairo_selectfont } if } bind def
/Td { matrix translate cairo_font_matrix matrix concatmatrix dup
      /cairo_font_matrix exch def dup 4 get exch 5 get cairo_store_point
      /cairo_font where { pop cairo_selectfont } if } bind def
/Tm { 2 copy 8 2 roll 6 array astore /cairo_font_matrix exch def
      cairo_store_point /cairo_font where { pop cairo_selectfont } if } bind def
/g { setgray } bind def
/rg { setrgbcolor } bind def
/d1 { setcachedevice } bind def
/cairo_flush_ascii85_file { cairo_ascii85_file status { cairo_ascii85_file flushfile } if } def
/cairo_image { image cairo_flush_ascii85_file } def
/cairo_imagemask { imagemask cairo_flush_ascii85_file } def
%%EndProlog
%%BeginSetup
%%EndSetup
%%Page: 1 1
%%BeginPageSetup
%%PageBoundingBox: 0 -1 292 43
%%EndPageSetup
q 0 -1 292 44 rectclip q
0 g
40.969 17.556 m 40.688 16.716 40.285 15.826 40.328 14.896 c 41.117 14.486
 42.418 14.65 43.625 14.65 c 44.844 14.65 46.18 14.478 46.977 14.896 c 47.059
 15.822 46.613 16.666 46.336 17.509 c 45.469 20.13 44.797 22.72 43.773 25.142
 c 43.77 25.169 43.766 25.201 43.723 25.189 c 42.699 22.72 41.809 20.103
 40.969 17.556 c h
44.363 34.744 m 45.344 33.943 46.625 34.181 47.32 34.744 c 49.406 36.443
 48.355 41.263 45.496 40.802 c 43.227 40.435 42.469 36.302 44.363 34.744
 c h
48.305 32.724 m 50.648 25.431 53.379 17.58 56.035 10.072 c 56.438 8.935
 56.883 7.638 57.367 6.33 c 58.039 4.498 58.492 2.9 60.617 2.685 c 60.387
 2.119 60.508 1.209 60.566 0.716 c 56.484 0.877 51.934 0.869 47.91 0.666
 c 47.512 0.955 47.375 1.873 47.715 2.341 c 48.559 2.806 50.324 2.419 50.668
 3.275 c 50.898 3.849 50.402 4.966 50.227 5.541 c 49.734 7.154 49.418 8.119
 48.895 9.775 c 48.734 10.291 48.504 11.451 48.109 11.748 c 47.406 12.271
 44.879 11.994 43.824 11.994 c 43.113 11.994 42.352 11.994 41.559 11.994
 c 40.891 11.994 39.875 12.111 39.441 11.892 c 39.039 11.693 38.84 10.685
 38.602 9.923 c 38.109 8.334 37.75 7.341 37.223 5.689 c 37.047 5.138 36.57
 4.021 36.781 3.423 c 37.109 2.482 39 2.841 40.031 2.388 c 40.332 1.982 
40.371 1.048 39.98 0.716 c 36.496 0.853 32.449 0.775 28.949 0.716 c 28.535
 1.017 28.512 1.986 28.852 2.388 c 30.133 2.533 31.559 2.709 32.301 3.474
 c 33.074 4.271 33.504 5.701 33.973 6.873 c 35.395 10.416 36.805 14.298 
38.109 17.853 c 39.984 22.959 41.844 27.779 43.527 32.627 c 41.59 33.505
 40.109 34.994 40.082 37.455 c 40.047 40.544 42.379 42.552 45.352 42.771
 c 48.832 43.029 51.578 40.728 51.605 37.552 c 51.621 35.154 50.223 33.544
 48.305 32.724 c f
0.09375 w
0 J
0 j
[] 0.0 d
4 M q 1 0 0 1 0 42.83746 cm
40.969 -25.281 m 40.688 -26.121 40.285 -27.012 40.328 -27.941 c 41.117 
-28.352 42.418 -28.188 43.625 -28.188 c 44.844 -28.188 46.18 -28.359 46.977
 -27.941 c 47.059 -27.016 46.613 -26.172 46.336 -25.328 c 45.469 -22.707
 44.797 -20.117 43.773 -17.695 c 43.77 -17.668 43.766 -17.637 43.723 -17.648
 c 42.699 -20.117 41.809 -22.734 40.969 -25.281 c h
44.363 -8.094 m 45.344 -8.895 46.625 -8.656 47.32 -8.094 c 49.406 -6.395
 48.355 -1.574 45.496 -2.035 c 43.227 -2.402 42.469 -6.535 44.363 -8.094
 c h
48.305 -10.113 m 50.648 -17.406 53.379 -25.258 56.035 -32.766 c 56.438 
-33.902 56.883 -35.199 57.367 -36.508 c 58.039 -38.34 58.492 -39.938 60.617
 -40.152 c 60.387 -40.719 60.508 -41.629 60.566 -42.121 c 56.484 -41.961
 51.934 -41.969 47.91 -42.172 c 47.512 -41.883 47.375 -40.965 47.715 -40.496
 c 48.559 -40.031 50.324 -40.418 50.668 -39.562 c 50.898 -38.988 50.402 
-37.871 50.227 -37.297 c 49.734 -35.684 49.418 -34.719 48.895 -33.062 c 
48.734 -32.547 48.504 -31.387 48.109 -31.09 c 47.406 -30.566 44.879 -30.844
 43.824 -30.844 c 43.113 -30.844 42.352 -30.844 41.559 -30.844 c 40.891 
-30.844 39.875 -30.727 39.441 -30.945 c 39.039 -31.145 38.84 -32.152 38.602
 -32.914 c 38.109 -34.504 37.75 -35.496 37.223 -37.148 c 37.047 -37.699 
36.57 -38.816 36.781 -39.414 c 37.109 -40.355 39 -39.996 40.031 -40.449 
c 40.332 -40.855 40.371 -41.789 39.98 -42.121 c 36.496 -41.984 32.449 -42.062
 28.949 -42.121 c 28.535 -41.82 28.512 -40.852 28.852 -40.449 c 30.133 -40.305
 31.559 -40.129 32.301 -39.363 c 33.074 -38.566 33.504 -37.137 33.973 -35.965
 c 35.395 -32.422 36.805 -28.539 38.109 -24.984 c 39.984 -19.879 41.844 
-15.059 43.527 -10.211 c 41.59 -9.332 40.109 -7.844 40.082 -5.383 c 40.047
 -2.293 42.379 -0.285 45.352 -0.066 c 48.832 0.191 51.578 -2.109 51.605 
-5.285 c 51.621 -7.684 50.223 -9.293 48.305 -10.113 c S Q
11.371 16.623 m 10.926 16.025 11.172 13.912 11.172 13.373 c 11.172 10.052
 10.734 5.716 12.258 4.013 c 13.641 2.466 17.152 2.716 18.707 3.869 c 21.883
 6.216 21.668 12.709 19.051 15.244 c 17.887 16.373 15.465 17.423 12.156 
16.966 c 11.703 16.904 11.586 16.912 11.371 16.623 c h
11.516 30.955 m 11.125 30.564 11.172 29.322 11.172 28.341 c 11.172 26.115
 11.172 24.623 11.172 22.384 c 11.172 21.537 11.012 19.869 11.32 19.529 
c 11.555 19.267 12.211 19.302 12.504 19.283 c 13.941 19.177 15.398 19.31
 16.344 19.673 c 19.109 20.744 20.348 24.099 19.152 27.552 c 18.305 29.99
 16.359 31.384 13.191 31.298 c 12.652 31.283 11.859 31.291 11.516 30.955
 c h
20.777 18.791 m 21.434 18.24 22.422 18.181 23.289 17.853 c 25.66 16.955
 27.66 15.24 28.41 12.634 c 29.621 8.416 27.734 4.709 25.059 2.931 c 22.273
 1.08 18.09 0.615 13.637 0.615 c 11.457 0.619 9.195 0.814 6.938 0.814 c 
4.664 0.814 2.422 0.72 0.289 0.716 c 0.02 1.127 -0.043 2.002 0.191 2.291
 c 0.402 2.556 1.328 2.603 1.965 2.732 c 2.652 2.877 3.352 3.119 3.688 3.521
 c 4.605 4.627 4.328 7.916 4.328 10.021 c 4.328 16.123 4.34 21.779 4.277
 27.798 c 4.266 28.888 4.156 30.232 3.637 30.705 c 3.016 31.275 1.488 31.138
 0.684 31.447 c 0.453 31.834 0.305 32.607 0.633 32.97 c 0.973 33.341 2.078
 33.232 2.801 33.267 c 5.012 33.373 7.656 33.466 9.746 33.564 c 18.016 33.947
 26.941 33.349 26.832 25.435 c 26.793 22.423 25.039 20.767 22.941 19.775
 c 22.25 19.443 21.402 19.38 20.777 18.791 c f
q 1 0 0 1 0 42.83746 cm
11.371 -26.215 m 10.926 -26.812 11.172 -28.926 11.172 -29.465 c 11.172 
-32.785 10.734 -37.121 12.258 -38.824 c 13.641 -40.371 17.152 -40.121 18.707
 -38.969 c 21.883 -36.621 21.668 -30.129 19.051 -27.594 c 17.887 -26.465
 15.465 -25.414 12.156 -25.871 c 11.703 -25.934 11.586 -25.926 11.371 -26.215
 c h
11.516 -11.883 m 11.125 -12.273 11.172 -13.516 11.172 -14.496 c 11.172 
-16.723 11.172 -18.215 11.172 -20.453 c 11.172 -21.301 11.012 -22.969 11.32
 -23.309 c 11.555 -23.57 12.211 -23.535 12.504 -23.555 c 13.941 -23.66 15.398
 -23.527 16.344 -23.164 c 19.109 -22.094 20.348 -18.738 19.152 -15.285 c
 18.305 -12.848 16.359 -11.453 13.191 -11.539 c 12.652 -11.555 11.859 -11.547
 11.516 -11.883 c h
20.777 -24.047 m 21.434 -24.598 22.422 -24.656 23.289 -24.984 c 25.66 -25.883
 27.66 -27.598 28.41 -30.203 c 29.621 -34.422 27.734 -38.129 25.059 -39.906
 c 22.273 -41.758 18.09 -42.223 13.637 -42.223 c 11.457 -42.219 9.195 -42.023
 6.938 -42.023 c 4.664 -42.023 2.422 -42.117 0.289 -42.121 c 0.02 -41.711
 -0.043 -40.836 0.191 -40.547 c 0.402 -40.281 1.328 -40.234 1.965 -40.105
 c 2.652 -39.961 3.352 -39.719 3.688 -39.316 c 4.605 -38.211 4.328 -34.922
 4.328 -32.816 c 4.328 -26.715 4.34 -21.059 4.277 -15.039 c 4.266 -13.949
 4.156 -12.605 3.637 -12.133 c 3.016 -11.562 1.488 -11.699 0.684 -11.391
 c 0.453 -11.004 0.305 -10.23 0.633 -9.867 c 0.973 -9.496 2.078 -9.605 2.801
 -9.57 c 5.012 -9.465 7.656 -9.371 9.746 -9.273 c 18.016 -8.891 26.941 -9.488
 26.832 -17.402 c 26.793 -20.414 25.039 -22.07 22.941 -23.062 c 22.25 -23.395
 21.402 -23.457 20.777 -24.047 c S Q
62.684 33.611 m 67.531 33.392 72.742 33.494 77.508 33.564 c 77.738 33.154
 77.883 32.349 77.559 31.986 c 77.277 31.677 76.215 31.669 75.832 31.591
 c 75.125 31.451 74.441 31.306 74.109 30.755 c 73.367 29.517 73.617 26.314
 73.617 24.404 c 73.617 19.423 73.617 15.752 73.617 10.81 c 73.617 7.896
 73.402 4.642 75.242 3.669 c 76.617 2.943 78.398 3.127 80.215 3.127 c 82.094
 3.13 83.672 3.263 84.797 4.013 c 85.598 4.548 86.383 5.521 86.961 6.427
 c 87.43 7.154 88.188 9.048 88.734 9.236 c 89.352 9.443 89.91 9.15 90.262
 8.744 c 89.934 5.673 89.16 3.048 88.145 0.666 c 79.77 0.916 70.531 0.837
 62.242 0.716 c 61.918 1.013 61.797 1.763 61.996 2.291 c 62.914 2.83 65.242
 2.416 65.934 3.377 c 66.832 4.615 66.527 7.732 66.527 9.923 c 66.527 14.529
 66.527 19.341 66.527 24.205 c 66.527 26.498 66.871 30.263 65.688 31.15 
c 65.301 31.439 64.668 31.544 64.062 31.642 c 63.578 31.72 62.586 31.798
 62.391 32.037 c 62.066 32.423 62.254 33.482 62.684 33.611 c f
q 1 0 0 1 0 42.83746 cm
62.684 -9.227 m 67.531 -9.445 72.742 -9.344 77.508 -9.273 c 77.738 -9.684
 77.883 -10.488 77.559 -10.852 c 77.277 -11.16 76.215 -11.168 75.832 -11.246
 c 75.125 -11.387 74.441 -11.531 74.109 -12.082 c 73.367 -13.32 73.617 -16.523
 73.617 -18.434 c 73.617 -23.414 73.617 -27.086 73.617 -32.027 c 73.617 
-34.941 73.402 -38.195 75.242 -39.168 c 76.617 -39.895 78.398 -39.711 80.215
 -39.711 c 82.094 -39.707 83.672 -39.574 84.797 -38.824 c 85.598 -38.289
 86.383 -37.316 86.961 -36.41 c 87.43 -35.684 88.188 -33.789 88.734 -33.602
 c 89.352 -33.395 89.91 -33.688 90.262 -34.094 c 89.934 -37.164 89.16 -39.789
 88.145 -42.172 c 79.77 -41.922 70.531 -42 62.242 -42.121 c 61.918 -41.824
 61.797 -41.074 61.996 -40.547 c 62.914 -40.008 65.242 -40.422 65.934 -39.461
 c 66.832 -38.223 66.527 -35.105 66.527 -32.914 c 66.527 -28.309 66.527 
-23.496 66.527 -18.633 c 66.527 -16.34 66.871 -12.574 65.688 -11.688 c 65.301
 -11.398 64.668 -11.293 64.062 -11.195 c 63.578 -11.117 62.586 -11.039 62.391
 -10.801 c 62.066 -10.414 62.254 -9.355 62.684 -9.227 c S Q
103.953 15.931 m 103.445 16.271 102.691 16.97 102.23 16.669 c 99.957 15.205
 98.633 12.15 99.375 9.037 c 100.016 6.337 102.266 4.334 105.383 4.162 c
 108.547 3.986 110.352 5.486 111.832 7.314 c 110.078 10.783 107.215 13.755
 103.953 15.931 c h
106.762 29.966 m 105.445 30.697 103.812 29.998 103.215 29.228 c 100.953
 26.334 103.828 22.041 106.266 21.4 c 108.297 22.736 109.449 28.474 106.762
 29.966 c h
108.535 19.919 m 111.512 18.169 113.738 15.669 115.82 13.025 c 117.027 
14.951 117.961 17.076 118.926 19.427 c 119.145 19.966 119.824 21.107 119.664
 21.841 c 119.574 22.248 119.051 22.435 118.68 22.533 c 118.258 22.642 117.617
 22.568 117.348 22.826 c 117.023 23.142 117.066 24.142 117.445 24.404 c 
117.918 24.728 119.648 24.502 120.5 24.502 c 123.551 24.502 126.648 24.677
 129.461 24.748 c 129.883 24.451 130.016 23.466 129.609 23.123 c 129.305
 22.865 128.613 22.919 128.086 22.826 c 124.227 22.158 122.723 18.794 120.844
 16.033 c 119.66 14.287 118.531 12.529 117.496 10.763 c 118.73 8.912 119.984
 6.248 122.078 4.951 c 124.309 3.564 128.223 3.927 130.203 5.294 c 130.539
 5.095 130.828 4.771 130.793 4.31 c 130.762 3.9 129.977 3.271 129.562 2.931
 c 128.117 1.755 126.32 0.908 124.191 0.47 c 120.812 -0.229 116.496 0.099
 114.887 2.095 c 114.145 3.013 113.824 3.873 113.211 4.9 c 112.566 4.544
 112.059 3.955 111.488 3.474 c 109.777 2.025 107.793 0.689 104.988 0.271
 c 99.02 -0.616 93.816 2.212 92.773 7.119 c 92.395 8.912 92.629 10.978 93.363
 12.584 c 94.711 15.513 97.246 17.4 100.211 18.642 c 98.781 20.115 97.273
 21.47 97.059 23.959 c 96.641 28.779 100.344 32.162 104.645 32.478 c 109.277
 32.822 113.355 30.134 113.016 25.388 c 112.797 22.373 110.57 21.302 108.535
 19.919 c f
q 1 0 0 1 0 42.83746 cm
103.953 -26.906 m 103.445 -26.566 102.691 -25.867 102.23 -26.168 c 99.957
 -27.633 98.633 -30.688 99.375 -33.801 c 100.016 -36.5 102.266 -38.504 105.383
 -38.676 c 108.547 -38.852 110.352 -37.352 111.832 -35.523 c 110.078 -32.055
 107.215 -29.082 103.953 -26.906 c h
106.762 -12.871 m 105.445 -12.141 103.812 -12.84 103.215 -13.609 c 100.953
 -16.504 103.828 -20.797 106.266 -21.438 c 108.297 -20.102 109.449 -14.363
 106.762 -12.871 c h
108.535 -22.918 m 111.512 -24.668 113.738 -27.168 115.82 -29.812 c 117.027
 -27.887 117.961 -25.762 118.926 -23.41 c 119.145 -22.871 119.824 -21.73
 119.664 -20.996 c 119.574 -20.59 119.051 -20.402 118.68 -20.305 c 118.258
 -20.195 117.617 -20.27 117.348 -20.012 c 117.023 -19.695 117.066 -18.695
 117.445 -18.434 c 117.918 -18.109 119.648 -18.336 120.5 -18.336 c 123.551
 -18.336 126.648 -18.16 129.461 -18.09 c 129.883 -18.387 130.016 -19.371
 129.609 -19.715 c 129.305 -19.973 128.613 -19.918 128.086 -20.012 c 124.227
 -20.68 122.723 -24.043 120.844 -26.805 c 119.66 -28.551 118.531 -30.309
 117.496 -32.074 c 118.73 -33.926 119.984 -36.59 122.078 -37.887 c 124.309
 -39.273 128.223 -38.91 130.203 -37.543 c 130.539 -37.742 130.828 -38.066
 130.793 -38.527 c 130.762 -38.938 129.977 -39.566 129.562 -39.906 c 128.117
 -41.082 126.32 -41.93 124.191 -42.367 c 120.812 -43.066 116.496 -42.738
 114.887 -40.742 c 114.145 -39.824 113.824 -38.965 113.211 -37.938 c 112.566
 -38.293 112.059 -38.883 111.488 -39.363 c 109.777 -40.812 107.793 -42.148
 104.988 -42.566 c 99.02 -43.453 93.816 -40.625 92.773 -35.719 c 92.395 
-33.926 92.629 -31.859 93.363 -30.254 c 94.711 -27.324 97.246 -25.438 100.211
 -24.195 c 98.781 -22.723 97.273 -21.367 97.059 -18.879 c 96.641 -14.059
 100.344 -10.676 104.645 -10.359 c 109.277 -10.016 113.355 -12.703 113.016
 -17.449 c 112.797 -20.465 110.57 -21.535 108.535 -22.918 c S Q
201.422 17.509 m 201.137 16.654 200.66 15.759 200.781 14.802 c 201.625 
14.462 202.902 14.603 204.082 14.603 c 205.258 14.603 206.543 14.459 207.383
 14.802 c 207.484 15.74 207.066 16.623 206.789 17.459 c 205.941 20.052 205.176
 22.611 204.23 25.095 c 204.227 25.123 204.223 25.15 204.18 25.142 c 203.094
 22.716 202.289 20.091 201.422 17.509 c h
207.43 34.205 m 208.484 34.224 208.488 33.306 208.809 32.232 c 210.133 
27.806 211.816 23.427 213.293 19.134 c 214.574 15.4 215.848 11.712 217.18
 7.955 c 217.805 6.201 218.281 4.4 219.398 3.177 c 218.902 2.701 218.742
 1.603 218.953 0.716 c 215.434 0.865 211.613 0.689 208.27 0.666 c 207.82
 0.939 207.762 1.88 208.121 2.291 c 209.016 2.724 210.832 2.357 211.125 
3.275 c 211.297 3.822 210.809 4.931 210.633 5.494 c 210.129 7.076 209.797
 8.166 209.301 9.728 c 209.094 10.388 208.84 11.466 208.516 11.697 c 207.844
 12.173 205.289 11.943 204.18 11.943 c 203.523 11.943 202.738 11.943 201.914
 11.943 c 201.238 11.943 200.18 12.041 199.797 11.794 c 199.43 11.56 199.223
 10.498 199.008 9.826 c 198.527 8.291 198.211 7.279 197.68 5.642 c 197.508
 5.107 196.984 4.087 197.188 3.377 c 197.438 2.498 199.621 2.693 200.488
 2.341 c 200.719 1.923 200.801 1.002 200.438 0.666 c 196.871 0.783 192.934
 0.709 189.359 0.666 c 188.969 0.955 188.984 1.931 189.258 2.341 c 191.094
 2.419 192.484 2.845 193.246 4.115 c 194.352 5.947 194.984 8.353 195.809
 10.517 c 197.855 15.888 199.773 21.423 201.914 26.818 c 202.5 28.291 203.082
 29.416 203.098 31.248 c 205.062 31.716 206.215 32.99 207.43 34.205 c f
q 1 0 0 1 0 42.83746 cm
201.422 -25.328 m 201.137 -26.184 200.66 -27.078 200.781 -28.035 c 201.625
 -28.375 202.902 -28.234 204.082 -28.234 c 205.258 -28.234 206.543 -28.379
 207.383 -28.035 c 207.484 -27.098 207.066 -26.215 206.789 -25.379 c 205.941
 -22.785 205.176 -20.227 204.23 -17.742 c 204.227 -17.715 204.223 -17.688
 204.18 -17.695 c 203.094 -20.121 202.289 -22.746 201.422 -25.328 c h
207.43 -8.633 m 208.484 -8.613 208.488 -9.531 208.809 -10.605 c 210.133
 -15.031 211.816 -19.41 213.293 -23.703 c 214.574 -27.438 215.848 -31.125
 217.18 -34.883 c 217.805 -36.637 218.281 -38.438 219.398 -39.66 c 218.902
 -40.137 218.742 -41.234 218.953 -42.121 c 215.434 -41.973 211.613 -42.148
 208.27 -42.172 c 207.82 -41.898 207.762 -40.957 208.121 -40.547 c 209.016
 -40.113 210.832 -40.48 211.125 -39.562 c 211.297 -39.016 210.809 -37.906
 210.633 -37.344 c 210.129 -35.762 209.797 -34.672 209.301 -33.109 c 209.094
 -32.449 208.84 -31.371 208.516 -31.141 c 207.844 -30.664 205.289 -30.895
 204.18 -30.895 c 203.523 -30.895 202.738 -30.895 201.914 -30.895 c 201.238
 -30.895 200.18 -30.797 199.797 -31.043 c 199.43 -31.277 199.223 -32.34 
199.008 -33.012 c 198.527 -34.547 198.211 -35.559 197.68 -37.195 c 197.508
 -37.73 196.984 -38.75 197.188 -39.461 c 197.438 -40.34 199.621 -40.145 
200.488 -40.496 c 200.719 -40.914 200.801 -41.836 200.438 -42.172 c 196.871
 -42.055 192.934 -42.129 189.359 -42.172 c 188.969 -41.883 188.984 -40.906
 189.258 -40.496 c 191.094 -40.418 192.484 -39.992 193.246 -38.723 c 194.352
 -36.891 194.984 -34.484 195.809 -32.32 c 197.855 -26.949 199.773 -21.414
 201.914 -16.02 c 202.5 -14.547 203.082 -13.422 203.098 -11.59 c 205.062
 -11.121 206.215 -9.848 207.43 -8.633 c S Q
142.918 16.525 m 142.477 15.857 142.723 13.919 142.723 13.373 c 142.723
 10.13 142.355 5.935 143.656 4.162 c 145.301 1.919 149.734 2.775 151.242
 4.755 c 152.234 6.06 152.691 8.037 152.621 10.123 c 152.547 12.236 151.801
 13.97 150.75 15.048 c 149.398 16.431 147.336 17.275 143.902 16.919 c 143.398
 16.865 143.168 16.904 142.918 16.525 c h
145.973 19.185 m 146.973 19.244 147.996 19.533 148.68 19.923 c 150.984 
21.236 151.844 25.072 150.602 27.951 c 149.832 29.724 148.059 31.084 145.773
 31.248 c 144.73 31.326 143.375 31.334 142.969 30.759 c 142.629 30.275 142.723
 29.06 142.723 28.099 c 142.723 27.044 142.723 26.048 142.723 25.193 c 142.723
 23.029 142.609 21.041 142.867 19.478 c 143.844 19.072 144.988 19.123 145.973
 19.185 c h
152.375 18.74 m 152.609 18.294 153.188 18.294 153.555 18.197 c 156.617 
17.4 159.043 15.634 159.957 12.584 c 161.207 8.419 159.277 4.587 156.656
 2.834 c 153.891 0.982 149.637 0.568 145.184 0.568 c 142.988 0.568 140.734
 0.767 138.484 0.767 c 136.223 0.767 133.988 0.627 131.836 0.666 c 131.59
 1.017 131.559 1.888 131.789 2.291 c 132.844 2.693 134.758 2.642 135.383
 3.623 c 136.148 4.822 135.875 8.248 135.875 10.22 c 135.875 14.935 135.875
 19.513 135.875 24.404 c 135.875 26.474 136.172 29.884 135.137 30.705 c 
134.48 31.228 133.027 31.052 132.281 31.396 c 131.984 31.736 131.883 32.654
 132.23 32.974 c 132.609 33.318 133.855 33.185 134.594 33.22 c 136.953 33.33
 139.816 33.408 142.082 33.517 c 148.172 33.798 154.559 33.306 157.051 29.869
 c 158.387 28.029 158.926 24.869 157.742 22.584 c 157.004 21.158 155.547
 20.009 153.949 19.431 c 153.441 19.248 152.746 19.291 152.375 18.74 c f
q 1 0 0 1 0 42.83746 cm
142.918 -26.312 m 142.477 -26.98 142.723 -28.918 142.723 -29.465 c 142.723
 -32.707 142.355 -36.902 143.656 -38.676 c 145.301 -40.918 149.734 -40.062
 151.242 -38.082 c 152.234 -36.777 152.691 -34.801 152.621 -32.715 c 152.547
 -30.602 151.801 -28.867 150.75 -27.789 c 149.398 -26.406 147.336 -25.562
 143.902 -25.918 c 143.398 -25.973 143.168 -25.934 142.918 -26.312 c h
145.973 -23.652 m 146.973 -23.594 147.996 -23.305 148.68 -22.914 c 150.984
 -21.602 151.844 -17.766 150.602 -14.887 c 149.832 -13.113 148.059 -11.754
 145.773 -11.59 c 144.73 -11.512 143.375 -11.504 142.969 -12.078 c 142.629
 -12.562 142.723 -13.777 142.723 -14.738 c 142.723 -15.793 142.723 -16.789
 142.723 -17.645 c 142.723 -19.809 142.609 -21.797 142.867 -23.359 c 143.844
 -23.766 144.988 -23.715 145.973 -23.652 c h
152.375 -24.098 m 152.609 -24.543 153.188 -24.543 153.555 -24.641 c 156.617
 -25.438 159.043 -27.203 159.957 -30.254 c 161.207 -34.418 159.277 -38.25
 156.656 -40.004 c 153.891 -41.855 149.637 -42.27 145.184 -42.27 c 142.988
 -42.27 140.734 -42.07 138.484 -42.07 c 136.223 -42.07 133.988 -42.211 131.836
 -42.172 c 131.59 -41.82 131.559 -40.949 131.789 -40.547 c 132.844 -40.145
 134.758 -40.195 135.383 -39.215 c 136.148 -38.016 135.875 -34.59 135.875
 -32.617 c 135.875 -27.902 135.875 -23.324 135.875 -18.434 c 135.875 -16.363
 136.172 -12.953 135.137 -12.133 c 134.48 -11.609 133.027 -11.785 132.281
 -11.441 c 131.984 -11.102 131.883 -10.184 132.23 -9.863 c 132.609 -9.52
 133.855 -9.652 134.594 -9.617 c 136.953 -9.508 139.816 -9.43 142.082 -9.32
 c 148.172 -9.039 154.559 -9.531 157.051 -12.969 c 158.387 -14.809 158.926
 -17.969 157.742 -20.254 c 157.004 -21.68 155.547 -22.828 153.949 -23.406
 c 153.441 -23.59 152.746 -23.547 152.375 -24.098 c S Q
172.418 30.955 m 171.934 30.416 172.07 28.634 172.07 27.853 c 172.07 25.712
 172.07 23.052 172.07 20.908 c 172.07 19.884 171.953 18.068 172.316 17.658
 c 172.945 16.947 176.121 17.146 177.195 17.509 c 179.531 18.302 180.625
 20.873 180.641 23.716 c 180.664 28.267 178.117 31.916 173.156 31.201 c 
172.871 31.158 172.582 31.138 172.418 30.955 c h
189.949 3.869 m 189.461 3.732 189.039 3.873 188.668 3.72 c 187.898 3.408
 187.414 1.853 187.734 0.619 c 182.305 1.318 180.133 5.638 178.078 9.877
 c 177.75 10.56 177.422 11.314 177.094 12.044 c 176.613 13.115 176.234 14.4
 175.176 14.849 c 174.684 15.06 172.641 15.287 172.219 14.802 c 171.859 
14.384 172.07 12.369 172.07 11.748 c 172.07 10.544 172.07 9.623 172.07 8.595
 c 172.07 6.662 171.891 3.912 172.91 3.13 c 173.699 2.521 175.016 2.72 176.012
 2.291 c 176.273 1.877 176.254 1.041 175.961 0.666 c 171.332 0.779 166.016
 0.783 161.387 0.666 c 161.062 0.978 161.055 1.927 161.336 2.291 c 162.371
 2.666 164.254 2.595 164.832 3.572 c 165.559 4.802 165.277 8.22 165.277 
10.169 c 165.277 14.72 165.277 19.502 165.277 24.205 c 165.277 26.306 165.562
 29.658 164.684 30.607 c 164.07 31.275 162.492 31.107 161.633 31.447 c 161.305
 31.939 161.383 32.787 161.73 33.021 c 162.121 33.287 163.418 33.236 164.043
 33.267 c 166.531 33.396 168.969 33.4 171.43 33.517 c 175.508 33.705 179.848
 33.416 182.758 32.283 c 185.844 31.084 188.477 28.263 188.176 23.763 c 
187.949 20.404 185.84 18.56 183.496 17.314 c 183.184 17.146 182.633 16.939
 182.562 16.673 c 182.422 16.15 182.996 15.31 183.25 14.802 c 185.18 10.959
 187.305 6.685 189.949 3.869 c f
q 1 0 0 1 0 42.83746 cm
172.418 -11.883 m 171.934 -12.422 172.07 -14.203 172.07 -14.984 c 172.07
 -17.125 172.07 -19.785 172.07 -21.93 c 172.07 -22.953 171.953 -24.77 172.316
 -25.18 c 172.945 -25.891 176.121 -25.691 177.195 -25.328 c 179.531 -24.535
 180.625 -21.965 180.641 -19.121 c 180.664 -14.57 178.117 -10.922 173.156
 -11.637 c 172.871 -11.68 172.582 -11.699 172.418 -11.883 c h
189.949 -38.969 m 189.461 -39.105 189.039 -38.965 188.668 -39.117 c 187.898
 -39.43 187.414 -40.984 187.734 -42.219 c 182.305 -41.52 180.133 -37.199
 178.078 -32.961 c 177.75 -32.277 177.422 -31.523 177.094 -30.793 c 176.613
 -29.723 176.234 -28.438 175.176 -27.988 c 174.684 -27.777 172.641 -27.551
 172.219 -28.035 c 171.859 -28.453 172.07 -30.469 172.07 -31.09 c 172.07
 -32.293 172.07 -33.215 172.07 -34.242 c 172.07 -36.176 171.891 -38.926 
172.91 -39.707 c 173.699 -40.316 175.016 -40.117 176.012 -40.547 c 176.273
 -40.961 176.254 -41.797 175.961 -42.172 c 171.332 -42.059 166.016 -42.055
 161.387 -42.172 c 161.062 -41.859 161.055 -40.91 161.336 -40.547 c 162.371
 -40.172 164.254 -40.242 164.832 -39.266 c 165.559 -38.035 165.277 -34.617
 165.277 -32.668 c 165.277 -28.117 165.277 -23.336 165.277 -18.633 c 165.277
 -16.531 165.562 -13.18 164.684 -12.23 c 164.07 -11.562 162.492 -11.73 161.633
 -11.391 c 161.305 -10.898 161.383 -10.051 161.73 -9.816 c 162.121 -9.551
 163.418 -9.602 164.043 -9.57 c 166.531 -9.441 168.969 -9.438 171.43 -9.32
 c 175.508 -9.133 179.848 -9.422 182.758 -10.555 c 185.844 -11.754 188.477
 -14.574 188.176 -19.074 c 187.949 -22.434 185.84 -24.277 183.496 -25.523
 c 183.184 -25.691 182.633 -25.898 182.562 -26.164 c 182.422 -26.688 182.996
 -27.527 183.25 -28.035 c 185.18 -31.879 187.305 -36.152 189.949 -38.969
 c S Q
231.414 33.564 m 232.32 31.021 234.02 28.986 235.699 26.916 c 237.105 25.181
 238.566 23.486 239.934 21.892 c 242.852 18.49 245.551 15.064 248.504 11.994
 c 248.762 14.654 248.648 18.06 248.648 21.548 c 248.648 23.127 248.609 
24.705 248.504 26.275 c 248.391 27.923 248.34 29.763 247.566 30.607 c 246.648
 31.615 245.164 31.478 243.676 31.841 c 243.406 32.224 243.414 33.127 243.676
 33.517 c 247.285 33.474 251.422 33.31 255.152 33.517 c 254.965 33.029 254.809
 32.306 254.953 31.642 c 253.973 31.462 252.871 31.068 252.441 30.263 c 
251.641 28.759 251.738 25.763 251.652 23.517 c 251.383 16.294 251.688 7.927
 251.703 1.209 c 251.441 0.841 251.043 0.627 250.523 0.419 c 250.113 0.259
 249.387 -0.049 248.895 0.076 c 248.512 0.173 247.961 1.267 247.617 1.752
 c 244.801 5.673 241.539 9.49 238.555 13.177 c 235.48 16.974 232.551 20.826
 229.344 24.502 c 228.906 25.009 228.488 25.564 227.918 25.88 c 227.578 
22.689 227.719 18.642 227.719 14.505 c 227.719 12.619 227.734 10.779 227.82
 8.794 c 227.891 7.068 228.012 4.65 228.707 3.72 c 229.578 2.544 231.336
 2.72 232.793 2.291 c 233.086 1.873 233.023 1.002 232.742 0.619 c 228.773
 0.775 224.48 0.849 220.531 0.619 c 220.246 0.99 220.184 1.884 220.48 2.291
 c 221.75 2.63 223.516 2.818 224.078 4.017 c 224.684 5.31 224.676 7.959 
224.766 9.974 c 225.008 15.357 224.871 21.068 224.816 26.474 c 224.797 28.349
 224.828 30.08 223.781 30.853 c 222.898 31.509 221.336 31.584 220.184 31.892
 c 219.945 32.341 219.922 33.408 220.48 33.564 c 220.766 33.642 221.414 
33.525 221.859 33.517 c 224.797 33.431 228.641 33.298 231.414 33.564 c f
q 1 0 0 1 0 42.83746 cm
231.414 -9.273 m 232.32 -11.816 234.02 -13.852 235.699 -15.922 c 237.105
 -17.656 238.566 -19.352 239.934 -20.945 c 242.852 -24.348 245.551 -27.773
 248.504 -30.844 c 248.762 -28.184 248.648 -24.777 248.648 -21.289 c 248.648
 -19.711 248.609 -18.133 248.504 -16.562 c 248.391 -14.914 248.34 -13.074
 247.566 -12.23 c 246.648 -11.223 245.164 -11.359 243.676 -10.996 c 243.406
 -10.613 243.414 -9.711 243.676 -9.32 c 247.285 -9.363 251.422 -9.527 255.152
 -9.32 c 254.965 -9.809 254.809 -10.531 254.953 -11.195 c 253.973 -11.375
 252.871 -11.77 252.441 -12.574 c 251.641 -14.078 251.738 -17.074 251.652
 -19.32 c 251.383 -26.543 251.688 -34.91 251.703 -41.629 c 251.441 -41.996
 251.043 -42.211 250.523 -42.418 c 250.113 -42.578 249.387 -42.887 248.895
 -42.762 c 248.512 -42.664 247.961 -41.57 247.617 -41.086 c 244.801 -37.164
 241.539 -33.348 238.555 -29.66 c 235.48 -25.863 232.551 -22.012 229.344
 -18.336 c 228.906 -17.828 228.488 -17.273 227.918 -16.957 c 227.578 -20.148
 227.719 -24.195 227.719 -28.332 c 227.719 -30.219 227.734 -32.059 227.82
 -34.043 c 227.891 -35.77 228.012 -38.188 228.707 -39.117 c 229.578 -40.293
 231.336 -40.117 232.793 -40.547 c 233.086 -40.965 233.023 -41.836 232.742
 -42.219 c 228.773 -42.062 224.48 -41.988 220.531 -42.219 c 220.246 -41.848
 220.184 -40.953 220.48 -40.547 c 221.75 -40.207 223.516 -40.02 224.078 
-38.82 c 224.684 -37.527 224.676 -34.879 224.766 -32.863 c 225.008 -27.48
 224.871 -21.77 224.816 -16.363 c 224.797 -14.488 224.828 -12.758 223.781
 -11.984 c 222.898 -11.328 221.336 -11.254 220.184 -10.945 c 219.945 -10.496
 219.922 -9.43 220.48 -9.273 c 220.766 -9.195 221.414 -9.312 221.859 -9.32
 c 224.797 -9.406 228.641 -9.539 231.414 -9.273 c S Q
267.363 30.607 m 266.957 30.002 267.066 28.482 267.066 27.556 c 267.066
 26.115 267.066 25.044 267.066 24.158 c 267.066 19.533 267.066 15.291 267.066
 10.666 c 267.066 8.259 266.961 5.916 267.758 4.56 c 269.016 2.416 273.277
 2.498 275.734 3.275 c 280.953 4.935 283.617 10.177 283.613 16.966 c 283.613
 21.65 282.289 25.353 279.973 27.705 c 277.777 29.931 273.898 31.669 269.09
 31.201 c 268.578 31.15 267.652 31.041 267.363 30.607 c h
255.891 0.666 m 255.586 1.201 255.508 1.916 255.793 2.244 c 256.008 2.49
 256.953 2.498 257.465 2.587 c 258.285 2.732 259.055 2.919 259.434 3.423
 c 260.273 4.533 259.977 8.205 259.977 10.123 c 259.977 15.236 259.977 19.326
 259.977 24.552 c 259.977 26.904 260.285 30.314 258.844 31.002 c 258.227
 31.298 256.828 31.123 256.48 31.544 c 256.289 31.779 256.234 32.627 256.48
 32.923 c 256.762 33.263 258.23 33.185 258.992 33.22 c 261.676 33.345 264.188
 33.38 267.066 33.517 c 274.996 33.884 282.125 32.759 286.273 29.181 c 288.309
 27.427 290.094 25.002 290.953 22.138 c 291.867 19.095 291.801 15.189 290.758
 11.943 c 288.887 6.13 284.312 2.564 278.051 1.209 c 274.699 0.482 271.086
 0.361 267.168 0.568 c 263.578 0.759 259.699 0.794 255.891 0.666 c f
q 1 0 0 1 0 42.83746 cm
267.363 -12.23 m 266.957 -12.836 267.066 -14.355 267.066 -15.281 c 267.066
 -16.723 267.066 -17.793 267.066 -18.68 c 267.066 -23.305 267.066 -27.547
 267.066 -32.172 c 267.066 -34.578 266.961 -36.922 267.758 -38.277 c 269.016
 -40.422 273.277 -40.34 275.734 -39.562 c 280.953 -37.902 283.617 -32.66
 283.613 -25.871 c 283.613 -21.188 282.289 -17.484 279.973 -15.133 c 277.777
 -12.906 273.898 -11.168 269.09 -11.637 c 268.578 -11.688 267.652 -11.797
 267.363 -12.23 c h
255.891 -42.172 m 255.586 -41.637 255.508 -40.922 255.793 -40.594 c 256.008
 -40.348 256.953 -40.34 257.465 -40.25 c 258.285 -40.105 259.055 -39.918
 259.434 -39.414 c 260.273 -38.305 259.977 -34.633 259.977 -32.715 c 259.977
 -27.602 259.977 -23.512 259.977 -18.285 c 259.977 -15.934 260.285 -12.523
 258.844 -11.836 c 258.227 -11.539 256.828 -11.715 256.48 -11.293 c 256.289
 -11.059 256.234 -10.211 256.48 -9.914 c 256.762 -9.574 258.23 -9.652 258.992
 -9.617 c 261.676 -9.492 264.188 -9.457 267.066 -9.32 c 274.996 -8.953 282.125
 -10.078 286.273 -13.656 c 288.309 -15.41 290.094 -17.836 290.953 -20.699
 c 291.867 -23.742 291.801 -27.648 290.758 -30.895 c 288.887 -36.707 284.312
 -40.273 278.051 -41.629 c 274.699 -42.355 271.086 -42.477 267.168 -42.27
 c 263.578 -42.078 259.699 -42.043 255.891 -42.172 c S Q
Q Q
showpage
%%Trailer
end restore
%%EOF
