%!PS-Adobe-3.0 EPSF-3.0
%%Creator: cairo 1.14.10 (http://cairographics.org)
%%CreationDate: Thu Feb 15 19:07:51 2018
%%Pages: 1
%%DocumentData: Clean7Bit
%%LanguageLevel: 2
%%BoundingBox: 0 -1 161 195
%%EndComments
%%BeginProlog
save
50 dict begin
/q { gsave } bind def
/Q { grestore } bind def
/cm { 6 array astore concat } bind def
/w { setlinewidth } bind def
/J { setlinecap } bind def
/j { setlinejoin } bind def
/M { setmiterlimit } bind def
/d { setdash } bind def
/m { moveto } bind def
/l { lineto } bind def
/c { curveto } bind def
/h { closepath } bind def
/re { exch dup neg 3 1 roll 5 3 roll moveto 0 rlineto
      0 exch rlineto 0 rlineto closepath } bind def
/S { stroke } bind def
/f { fill } bind def
/f* { eofill } bind def
/n { newpath } bind def
/W { clip } bind def
/W* { eoclip } bind def
/BT { } bind def
/ET { } bind def
/pdfmark where { pop globaldict /?pdfmark /exec load put }
    { globaldict begin /?pdfmark /pop load def /pdfmark
    /cleartomark load def end } ifelse
/BDC { mark 3 1 roll /BDC pdfmark } bind def
/EMC { mark /EMC pdfmark } bind def
/cairo_store_point { /cairo_point_y exch def /cairo_point_x exch def } def
/Tj { show currentpoint cairo_store_point } bind def
/TJ {
  {
    dup
    type /stringtype eq
    { show } { -0.001 mul 0 cairo_font_matrix dtransform rmoveto } ifelse
  } forall
  currentpoint cairo_store_point
} bind def
/cairo_selectfont { cairo_font_matrix aload pop pop pop 0 0 6 array astore
    cairo_font exch selectfont cairo_point_x cairo_point_y moveto } bind def
/Tf { pop /cairo_font exch def /cairo_font_matrix where
      { pop cairo_selectfont } if } bind def
/Td { matrix translate cairo_font_matrix matrix concatmatrix dup
      /cairo_font_matrix exch def dup 4 get exch 5 get cairo_store_point
      /cairo_font where { pop cairo_selectfont } if } bind def
/Tm { 2 copy 8 2 roll 6 array astore /cairo_font_matrix exch def
      cairo_store_point /cairo_font where { pop cairo_selectfont } if } bind def
/g { setgray } bind def
/rg { setrgbcolor } bind def
/d1 { setcachedevice } bind def
/cairo_flush_ascii85_file { cairo_ascii85_file status { cairo_ascii85_file flushfile } if } def
/cairo_image { image cairo_flush_ascii85_file } def
/cairo_imagemask { imagemask cairo_flush_ascii85_file } def
%%EndProlog
%%BeginSetup
%%EndSetup
%%Page: 1 1
%%BeginPageSetup
%%PageBoundingBox: 0 -1 161 195
%%EndPageSetup
q 0 -1 161 196 rectclip q
0 g
49.203 139.889 m 47.965 139.733 47.422 138.878 47.43 137.475 c 46.305 137.194
 46.09 135.475 46.445 134.174 c 45.324 135.182 45.109 137.311 44.672 139.049
 c 43.609 143.276 43.359 149.44 44.328 154.069 c 44.633 155.526 44.879 157.034
 46 157.565 c 47.312 158.19 47.805 157.268 48.219 156.335 c 48.441 155.827
 48.75 155.323 48.809 154.858 c 48.887 154.253 48.656 153.655 48.512 153.038
 c 47.582 148.963 48.379 143.381 49.203 139.889 c f
0.09375 w
0 J
0 j
[] 0.0 d
4 M q 1 0 0 1 0 194.549408 cm
49.203 -54.66 m 47.965 -54.816 47.422 -55.672 47.43 -57.074 c 46.305 -57.355
 46.09 -59.074 46.445 -60.375 c 45.324 -59.367 45.109 -57.238 44.672 -55.5
 c 43.609 -51.273 43.359 -45.109 44.328 -40.48 c 44.633 -39.023 44.879 -37.516
 46 -36.984 c 47.312 -36.359 47.805 -37.281 48.219 -38.215 c 48.441 -38.723
 48.75 -39.227 48.809 -39.691 c 48.887 -40.297 48.656 -40.895 48.512 -41.512
 c 47.582 -45.586 48.379 -51.168 49.203 -54.66 c S Q
117.508 125.952 m 117.91 127.276 118.254 129.917 116.77 130.284 c 116.863
 132.092 117.535 135.092 115.441 135.21 c 117.473 137.803 117.539 142.366
 118 146.534 c 121.09 147.401 122.801 144.401 122.973 141.612 c 123.281 
136.655 121.477 132.194 119.676 129.053 c 119.344 128.483 119.039 127.901
 118.688 127.378 c 118.336 126.85 117.961 126.331 117.508 125.952 c f
q 1 0 0 1 0 194.549408 cm
117.508 -68.598 m 117.91 -67.273 118.254 -64.633 116.77 -64.266 c 116.863
 -62.457 117.535 -59.457 115.441 -59.34 c 117.473 -56.746 117.539 -52.184
 118 -48.016 c 121.09 -47.148 122.801 -50.148 122.973 -52.938 c 123.281 
-57.895 121.477 -62.355 119.676 -65.496 c 119.344 -66.066 119.039 -66.648
 118.688 -67.172 c 118.336 -67.699 117.961 -68.219 117.508 -68.598 c S Q
42.949 144.663 m 43.242 141.37 44.129 138.534 44.969 135.651 c 45.082 135.253
 45.344 134.647 45.312 134.421 c 45.273 134.163 44.711 133.694 44.523 133.385
 c 43.836 132.253 43.855 129.999 44.77 128.956 c 44.582 128.643 44.285 128.616
 44.082 128.315 c 43.309 127.167 43.91 125.049 44.477 124.128 c 44.406 124.022
 44.184 124.331 44.082 124.475 c 42.203 127.003 40.281 130.003 39.156 133.338
 c 37.938 136.936 37.723 142.792 40.586 144.862 c 41.387 144.815 42.461 
145.116 42.949 144.663 c f
q 1 0 0 1 0 194.549408 cm
42.949 -49.887 m 43.242 -53.18 44.129 -56.016 44.969 -58.898 c 45.082 -59.297
 45.344 -59.902 45.312 -60.129 c 45.273 -60.387 44.711 -60.855 44.523 -61.164
 c 43.836 -62.297 43.855 -64.551 44.77 -65.594 c 44.582 -65.906 44.285 -65.934
 44.082 -66.234 c 43.309 -67.383 43.91 -69.5 44.477 -70.422 c 44.406 -70.527
 44.184 -70.219 44.082 -70.074 c 42.203 -67.547 40.281 -64.547 39.156 -61.211
 c 37.938 -57.613 37.723 -51.758 40.586 -49.688 c 41.387 -49.734 42.461 
-49.434 42.949 -49.887 c S Q
122.137 133.928 m 122.457 133.819 122.613 133.268 122.875 132.796 c 123.027
 132.522 123.273 132.284 123.32 132.108 c 123.457 131.549 123.293 130.44
 123.219 129.792 c 122.828 126.237 121.555 123.448 119.824 121.272 c 119.109
 120.378 118.277 119.506 117.461 118.956 c 117.379 119.671 117.605 120.588
 117.262 121.174 c 117.234 121.221 117.062 121.452 117.062 121.421 c 117.062
 121.503 117.441 121.94 117.508 122.108 c 117.801 122.862 117.793 124.057
 118 124.866 c 118.293 126.003 119.02 126.881 119.527 127.674 c 120.727 
129.557 121.863 131.358 122.137 133.78 c 122.137 133.831 122.137 133.878
 122.137 133.928 c f
q 1 0 0 1 0 194.549408 cm
122.137 -60.621 m 122.457 -60.73 122.613 -61.281 122.875 -61.754 c 123.027
 -62.027 123.273 -62.266 123.32 -62.441 c 123.457 -63 123.293 -64.109 123.219
 -64.758 c 122.828 -68.312 121.555 -71.102 119.824 -73.277 c 119.109 -74.172
 118.277 -75.043 117.461 -75.594 c 117.379 -74.879 117.605 -73.961 117.262
 -73.375 c 117.234 -73.328 117.062 -73.098 117.062 -73.129 c 117.062 -73.047
 117.441 -72.609 117.508 -72.441 c 117.801 -71.688 117.793 -70.492 118 -69.684
 c 118.293 -68.547 119.02 -67.668 119.527 -66.875 c 120.727 -64.992 121.863
 -63.191 122.137 -60.77 c 122.137 -60.719 122.137 -60.672 122.137 -60.621
 c S Q
44.082 123.487 m 43.512 122.147 44.309 120.733 44.918 119.944 c 44.871 
119.573 44.484 119.417 44.375 119.057 c 44.18 118.381 44.555 117.671 44.621
 116.987 c 43.047 118.21 41.473 119.983 40.141 122.108 c 38.895 124.1 37.773
 126.737 37.973 129.546 c 38.043 130.526 38.402 131.299 39.059 131.862 c
 40.57 128.909 41.738 125.612 44.082 123.487 c f
q 1 0 0 1 0 194.549408 cm
44.082 -71.062 m 43.512 -72.402 44.309 -73.816 44.918 -74.605 c 44.871 
-74.977 44.484 -75.133 44.375 -75.492 c 44.18 -76.168 44.555 -76.879 44.621
 -77.562 c 43.047 -76.34 41.473 -74.566 40.141 -72.441 c 38.895 -70.449 
37.773 -67.812 37.973 -65.004 c 38.043 -64.023 38.402 -63.25 39.059 -62.688
 c 40.57 -65.641 41.738 -68.938 44.082 -71.062 c S Q
83.332 125.311 m 80.289 125.628 78.465 124.299 76.191 123.686 c 76.188 
124.999 77.266 125.233 78.062 125.753 c 76.027 126.393 73.809 125.467 72.742
 124.671 c 72.93 126.03 74.957 126.885 76.879 126.788 c 78.051 126.729 80
 126.104 78.602 125.311 c 80.449 125.842 84.402 126.835 85.645 125.065 c
 84.039 124.546 82.219 124.358 80.82 123.635 c 80.449 123.448 80.234 123.104
 79.832 122.995 c 79.664 124.905 82.234 124.503 83.332 125.311 c f
q 1 0 0 1 0 194.549408 cm
83.332 -69.238 m 80.289 -68.922 78.465 -70.25 76.191 -70.863 c 76.188 -69.551
 77.266 -69.316 78.062 -68.797 c 76.027 -68.156 73.809 -69.082 72.742 -69.879
 c 72.93 -68.52 74.957 -67.664 76.879 -67.762 c 78.051 -67.82 80 -68.445
 78.602 -69.238 c 80.449 -68.707 84.402 -67.715 85.645 -69.484 c 84.039 
-70.004 82.219 -70.191 80.82 -70.914 c 80.449 -71.102 80.234 -71.445 79.832
 -71.555 c 79.664 -69.645 82.234 -70.047 83.332 -69.238 c S Q
123.07 125.952 m 125.961 125.713 126.457 122.311 125.535 119.745 c 123.742
 114.753 119.141 111.46 114.699 109.503 c 114.434 111.76 116.566 113.159
 115.539 115.413 c 115.988 116.307 116.801 116.838 117.016 117.971 c 120.297
 119.335 121.574 122.967 123.07 125.952 c f
q 1 0 0 1 0 194.549408 cm
123.07 -68.598 m 125.961 -68.836 126.457 -72.238 125.535 -74.805 c 123.742
 -79.797 119.141 -83.09 114.699 -85.047 c 114.434 -82.789 116.566 -81.391
 115.539 -79.137 c 115.988 -78.242 116.801 -77.711 117.016 -76.578 c 120.297
 -75.215 121.574 -71.582 123.07 -68.598 c S Q
47.527 109.846 m 47.266 109.452 46.891 109.171 46.988 108.417 c 44.57 109.354
 42.176 111.065 40.094 113.147 c 38.066 115.171 36.281 117.452 35.906 120.534
 c 35.844 121.042 35.867 121.487 35.953 121.913 c 36.09 122.546 36.441 123.628
 36.891 123.932 c 37.133 124.096 38.047 124.249 38.367 124.178 c 38.926 
124.049 38.871 123.155 39.059 122.749 c 39.266 122.303 39.691 121.897 39.992
 121.421 c 40.801 120.151 41.695 118.397 42.75 117.381 c 43.316 116.838 
44.301 116.546 44.723 115.854 c 44.871 115.608 45.309 114.702 45.363 114.428
 c 45.406 114.198 45.344 113.96 45.363 113.737 c 45.504 111.854 46.5 110.885
 47.527 109.846 c f
q 1 0 0 1 0 194.549408 cm
47.527 -84.703 m 47.266 -85.098 46.891 -85.379 46.988 -86.133 c 44.57 -85.195
 42.176 -83.484 40.094 -81.402 c 38.066 -79.379 36.281 -77.098 35.906 -74.016
 c 35.844 -73.508 35.867 -73.062 35.953 -72.637 c 36.09 -72.004 36.441 -70.922
 36.891 -70.617 c 37.133 -70.453 38.047 -70.301 38.367 -70.371 c 38.926 
-70.5 38.871 -71.395 39.059 -71.801 c 39.266 -72.246 39.691 -72.652 39.992
 -73.129 c 40.801 -74.398 41.695 -76.152 42.75 -77.168 c 43.316 -77.711 
44.301 -78.004 44.723 -78.695 c 44.871 -78.941 45.309 -79.848 45.363 -80.121
 c 45.406 -80.352 45.344 -80.59 45.363 -80.812 c 45.504 -82.695 46.5 -83.664
 47.527 -84.703 c S Q
91.75 121.272 m 90.832 120.901 89.273 120.553 88.156 120.975 c 88.352 121.831
 89.809 121.424 90.617 121.667 c 88.816 123.327 85.215 123.19 81.754 123.194
 c 84.137 124.147 89.801 124.046 91.309 122.358 c 91.547 122.088 91.727 
121.671 91.75 121.272 c f
q 1 0 0 1 0 194.549408 cm
91.75 -73.277 m 90.832 -73.648 89.273 -73.996 88.156 -73.574 c 88.352 -72.719
 89.809 -73.125 90.617 -72.883 c 88.816 -71.223 85.215 -71.359 81.754 -71.355
 c 84.137 -70.402 89.801 -70.504 91.309 -72.191 c 91.547 -72.461 91.727 
-72.879 91.75 -73.277 c S Q
68.508 121.518 m 69.562 121.956 70.031 123.241 71.66 122.948 c 71.781 122.116
 70.992 121.76 70.625 121.124 c 70.211 120.409 70.348 119.19 69.395 119.006
 c 69.391 120.241 69.918 120.944 70.328 121.764 c 68.934 121.631 68.488 
119.862 67.668 119.155 c 67.262 119.495 67.449 120.463 67.57 120.975 c 66.246
 120.284 65.855 118.225 65.305 116.592 c 64.496 117.104 65.02 118.69 65.109
 119.596 c 63.695 118.694 63.367 116.284 62.895 114.28 c 61.973 114.424 
62.219 115.737 62.105 116.69 c 60.57 115.913 61.141 113.026 60.43 111.421
 c 59.859 111.475 59.914 112.155 59.742 112.604 c 58.719 112.112 59.121 
110.116 59.102 108.764 c 58.516 109.155 58.371 110.237 58.41 111.128 c 58.461
 112.151 58.793 113.147 59.297 113.588 c 59.566 113.463 59.922 113.428 60.137
 113.245 c 60.527 115.268 60.609 117.596 62.648 117.971 c 62.758 117.655
 62.668 117.139 62.695 116.741 c 63.91 118.233 63.738 121.116 66.145 121.421
 c 66.25 120.479 65.574 120.315 65.551 119.499 c 66.668 120.682 67.102 122.975
 69.441 123.096 c 69.41 122.288 68.746 122.116 68.508 121.518 c f
q 1 0 0 1 0 194.549408 cm
68.508 -73.031 m 69.562 -72.594 70.031 -71.309 71.66 -71.602 c 71.781 -72.434
 70.992 -72.789 70.625 -73.426 c 70.211 -74.141 70.348 -75.359 69.395 -75.543
 c 69.391 -74.309 69.918 -73.605 70.328 -72.785 c 68.934 -72.918 68.488 
-74.688 67.668 -75.395 c 67.262 -75.055 67.449 -74.086 67.57 -73.574 c 66.246
 -74.266 65.855 -76.324 65.305 -77.957 c 64.496 -77.445 65.02 -75.859 65.109
 -74.953 c 63.695 -75.855 63.367 -78.266 62.895 -80.27 c 61.973 -80.125 
62.219 -78.812 62.105 -77.859 c 60.57 -78.637 61.141 -81.523 60.43 -83.129
 c 59.859 -83.074 59.914 -82.395 59.742 -81.945 c 58.719 -82.438 59.121 
-84.434 59.102 -85.785 c 58.516 -85.395 58.371 -84.312 58.41 -83.422 c 58.461
 -82.398 58.793 -81.402 59.297 -80.961 c 59.566 -81.086 59.922 -81.121 60.137
 -81.305 c 60.527 -79.281 60.609 -76.953 62.648 -76.578 c 62.758 -76.895
 62.668 -77.41 62.695 -77.809 c 63.91 -76.316 63.738 -73.434 66.145 -73.129
 c 66.25 -74.07 65.574 -74.234 65.551 -75.051 c 66.668 -73.867 67.102 -71.574
 69.441 -71.453 c 69.41 -72.262 68.746 -72.434 68.508 -73.031 c S Q
66.539 108.417 m 67.848 108.338 67.949 110.905 66.391 110.538 c 65.391 
110.299 65.535 108.479 66.539 108.417 c h
72.25 116.643 m 69.555 117.077 68.789 114.85 67.719 113.342 c 72.168 112.487
 68.285 105.397 64.766 107.483 c 63.98 106.612 61.07 106.085 61.367 108.272
 c 61.961 108.206 61.926 107.448 62.449 107.385 c 63.234 107.288 64.25 108.421
 64.715 109.01 c 66.402 111.135 66.965 114.768 68.949 116.444 c 69.5 116.913
 70.32 117.409 71.215 117.479 c 71.828 117.53 72.289 117.432 72.25 116.643
 c f
q 1 0 0 1 0 194.549408 cm
66.539 -86.133 m 67.848 -86.211 67.949 -83.645 66.391 -84.012 c 65.391 
-84.25 65.535 -86.07 66.539 -86.133 c h
72.25 -77.906 m 69.555 -77.473 68.789 -79.699 67.719 -81.207 c 72.168 -82.062
 68.285 -89.152 64.766 -87.066 c 63.98 -87.938 61.07 -88.465 61.367 -86.277
 c 61.961 -86.344 61.926 -87.102 62.449 -87.164 c 63.234 -87.262 64.25 -86.129
 64.715 -85.539 c 66.402 -83.414 66.965 -79.781 68.949 -78.105 c 69.5 -77.637
 70.32 -77.141 71.215 -77.07 c 71.828 -77.02 72.289 -77.117 72.25 -77.906
 c S Q
125.09 117.479 m 125.133 117.491 125.137 117.46 125.141 117.432 c 126.84
 112.303 123.199 107.944 120.363 105.612 c 117.594 103.331 114.301 101.628
 109.531 101.772 c 110.5 102.491 111.129 103.553 111.5 104.874 c 112.996
 105.608 113.621 107.217 114.453 108.616 c 119.273 110.296 122.586 113.487
 125.09 117.479 c f
q 1 0 0 1 0 194.549408 cm
125.09 -77.07 m 125.133 -77.059 125.137 -77.09 125.141 -77.117 c 126.84
 -82.246 123.199 -86.605 120.363 -88.938 c 117.594 -91.219 114.301 -92.922
 109.531 -92.777 c 110.5 -92.059 111.129 -90.996 111.5 -89.676 c 112.996
 -88.941 113.621 -87.332 114.453 -85.934 c 119.273 -84.254 122.586 -81.062
 125.09 -77.07 c S Q
50.434 104.034 m 50.293 102.417 51.367 101.327 52.254 100.737 c 45.957 
101.018 41.203 103.698 38.223 107.78 c 37.246 109.112 36.223 110.667 36.055
 112.604 c 35.961 113.651 36.215 115.678 37.09 115.557 c 38.43 115.374 38.645
 113.319 39.453 112.456 c 39.902 111.975 40.688 111.542 41.324 111.077 c
 43.145 109.753 45.199 108.256 47.379 107.432 c 48.051 105.952 49.25 105.003
 50.434 104.034 c f
q 1 0 0 1 0 194.549408 cm
50.434 -90.516 m 50.293 -92.133 51.367 -93.223 52.254 -93.812 c 45.957 
-93.531 41.203 -90.852 38.223 -86.77 c 37.246 -85.438 36.223 -83.883 36.055
 -81.945 c 35.961 -80.898 36.215 -78.871 37.09 -78.992 c 38.43 -79.176 38.645
 -81.23 39.453 -82.094 c 39.902 -82.574 40.688 -83.008 41.324 -83.473 c 
43.145 -84.797 45.199 -86.293 47.379 -87.117 c 48.051 -88.598 49.25 -89.547
 50.434 -90.516 c S Q
87.172 109.405 m 87.625 108.819 88.586 108.796 89.438 108.417 c 89.637 
108.331 90.07 108.112 90.078 108.026 c 90.094 107.838 89.414 107.495 89.141
 107.385 c 87.457 106.721 85.055 107.335 83.43 107.631 c 83.844 106.913 
85.273 106.784 85.941 106.155 c 85.207 104.143 80.871 105.85 80.523 107.088
 c 82.141 107.03 82.703 105.921 84.465 106.006 c 83.621 106.807 82.027 107.28
 81.605 108.667 c 83.809 108.487 86.051 107.249 88.699 107.827 c 87.285 
108.713 85.281 109.006 84.66 110.682 c 86.793 110.37 88.801 109.163 91.258
 109.796 c 90.879 110.186 89.715 109.803 89.633 110.389 c 89.535 111.124
 91.809 111.163 92.391 111.323 c 93.5 111.635 94.191 112.237 94.855 112.557
 c 94.941 112.811 95.074 113.288 95.395 113.147 c 95.5 112.713 95.152 112.174
 94.902 111.917 c 94.152 111.128 92.66 110.975 91.652 110.487 c 91.793 110.296
 92.234 110.409 92.293 110.143 c 91.762 108.487 88.684 108.921 87.172 109.405
 c f
q 1 0 0 1 0 194.549408 cm
87.172 -85.145 m 87.625 -85.73 88.586 -85.754 89.438 -86.133 c 89.637 -86.219
 90.07 -86.438 90.078 -86.523 c 90.094 -86.711 89.414 -87.055 89.141 -87.164
 c 87.457 -87.828 85.055 -87.215 83.43 -86.918 c 83.844 -87.637 85.273 -87.766
 85.941 -88.395 c 85.207 -90.406 80.871 -88.699 80.523 -87.461 c 82.141 
-87.52 82.703 -88.629 84.465 -88.543 c 83.621 -87.742 82.027 -87.27 81.605
 -85.883 c 83.809 -86.062 86.051 -87.301 88.699 -86.723 c 87.285 -85.836
 85.281 -85.543 84.66 -83.867 c 86.793 -84.18 88.801 -85.387 91.258 -84.754
 c 90.879 -84.363 89.715 -84.746 89.633 -84.16 c 89.535 -83.426 91.809 -83.387
 92.391 -83.227 c 93.5 -82.914 94.191 -82.312 94.855 -81.992 c 94.941 -81.738
 95.074 -81.262 95.395 -81.402 c 95.5 -81.836 95.152 -82.375 94.902 -82.633
 c 94.152 -83.422 92.66 -83.574 91.652 -84.062 c 91.793 -84.254 92.234 -84.141
 92.293 -84.406 c 91.762 -86.062 88.684 -85.629 87.172 -85.145 c S Q
59.891 104.971 m 59.793 103.081 59.059 101.831 57.574 101.327 c 57.977 
102.401 59.012 102.842 59.102 104.233 c 58.641 104.155 58.801 103.448 58.312
 103.397 c 57.609 104.303 58.922 105.413 59.891 104.971 c f
q 1 0 0 1 0 194.549408 cm
59.891 -89.578 m 59.793 -91.469 59.059 -92.719 57.574 -93.223 c 57.977 
-92.148 59.012 -91.707 59.102 -90.316 c 58.641 -90.395 58.801 -91.102 58.312
 -91.152 c 57.609 -90.246 58.922 -89.137 59.891 -89.578 c S Q
79.688 104.678 m 80.723 104.131 81.172 102.663 82.098 101.87 c 83 101.096
 83.801 100.799 85.055 100.292 c 85.152 101.299 84.328 101.631 84.609 102.655
 c 86.594 101.78 87.699 100.03 89.93 99.405 c 89.734 100.182 88.527 100.37
 88.5 101.475 c 90.781 101.026 91.824 99.057 94.461 98.866 c 95.711 98.772
 97.051 98.952 98.352 99.061 c 96.469 97.452 92.551 98.491 90.867 99.553
 c 90.867 99.256 90.891 98.94 90.766 98.768 c 88.348 98.878 87.195 100.253
 85.645 101.229 c 85.723 100.651 86.156 99.737 85.645 99.307 c 83.047 100.487
 80.207 101.421 79.688 104.678 c f
q 1 0 0 1 0 194.549408 cm
79.688 -89.871 m 80.723 -90.418 81.172 -91.887 82.098 -92.68 c 83 -93.453
 83.801 -93.75 85.055 -94.258 c 85.152 -93.25 84.328 -92.918 84.609 -91.895
 c 86.594 -92.77 87.699 -94.52 89.93 -95.145 c 89.734 -94.367 88.527 -94.18
 88.5 -93.074 c 90.781 -93.523 91.824 -95.492 94.461 -95.684 c 95.711 -95.777
 97.051 -95.598 98.352 -95.488 c 96.469 -97.098 92.551 -96.059 90.867 -94.996
 c 90.867 -95.293 90.891 -95.609 90.766 -95.781 c 88.348 -95.672 87.195 
-94.297 85.645 -93.32 c 85.723 -93.898 86.156 -94.812 85.645 -95.242 c 83.047
 -94.062 80.207 -93.129 79.688 -89.871 c S Q
78.258 98.569 m 78.902 96.866 79.941 95.557 81.457 94.729 c 81.531 95.979
 80.574 96.206 80.719 97.534 c 81.902 97.342 82.18 96.077 82.887 95.319 
c 83.938 94.194 85.297 93.987 86.973 93.397 c 84.523 92.796 83.207 94.448
 81.902 95.467 c 81.973 94.995 82.168 94.358 81.953 93.893 c 80.535 94.561
 78.254 95.698 78.109 97.635 c 78.09 97.917 78.133 98.299 78.258 98.569 
c f
q 1 0 0 1 0 194.549408 cm
78.258 -95.98 m 78.902 -97.684 79.941 -98.992 81.457 -99.82 c 81.531 -98.57
 80.574 -98.344 80.719 -97.016 c 81.902 -97.207 82.18 -98.473 82.887 -99.23
 c 83.938 -100.355 85.297 -100.562 86.973 -101.152 c 84.523 -101.754 83.207
 -100.102 81.902 -99.082 c 81.973 -99.555 82.168 -100.191 81.953 -100.656
 c 80.535 -99.988 78.254 -98.852 78.109 -96.914 c 78.09 -96.633 78.133 -96.25
 78.258 -95.98 c S Q
78.555 93.299 m 79.633 93.276 79.27 89.514 80.574 90.147 c 80.691 90.717
 80.09 91.444 80.426 92.069 c 81.906 91.401 81.207 88.12 83.43 88.03 c 82.762
 86.6 81.086 88.338 81.066 89.46 c 79.242 88.624 78.371 91.717 78.555 93.299
 c f
q 1 0 0 1 0 194.549408 cm
78.555 -101.25 m 79.633 -101.273 79.27 -105.035 80.574 -104.402 c 80.691
 -103.832 80.09 -103.105 80.426 -102.48 c 81.906 -103.148 81.207 -106.43
 83.43 -106.52 c 82.762 -107.949 81.086 -106.211 81.066 -105.09 c 79.242
 -105.926 78.371 -102.832 78.555 -101.25 c S Q
56.641 59.073 m 56.359 58.233 55.957 57.338 56 56.413 c 56.789 56.003 58.09
 56.167 59.297 56.167 c 60.516 56.167 61.852 55.995 62.648 56.413 c 62.73
 57.338 62.285 58.182 62.008 59.022 c 61.141 61.647 60.469 64.237 59.445
 66.659 c 59.441 66.686 59.438 66.713 59.395 66.706 c 58.371 64.237 57.48
 61.616 56.641 59.073 c h
60.035 76.26 m 61.016 75.46 62.297 75.698 62.992 76.26 c 65.078 77.96 64.027
 82.78 61.168 82.319 c 58.898 81.952 58.141 77.819 60.035 76.26 c h
63.977 74.241 m 66.32 66.944 69.051 59.096 71.707 51.588 c 72.109 50.452
 72.555 49.155 73.039 47.846 c 73.711 46.014 74.164 44.413 76.289 44.202
 c 76.059 43.635 76.18 42.725 76.238 42.229 c 72.156 42.393 67.605 42.385
 63.582 42.182 c 63.184 42.471 63.047 43.389 63.387 43.854 c 64.23 44.319
 65.996 43.936 66.34 44.792 c 66.57 45.366 66.074 46.479 65.898 47.057 c
 65.406 48.671 65.09 49.635 64.566 51.292 c 64.406 51.807 64.176 52.963 
63.781 53.26 c 63.078 53.788 60.551 53.506 59.496 53.506 c 58.785 53.506
 58.023 53.506 57.23 53.506 c 56.562 53.506 55.547 53.628 55.113 53.409 
c 54.711 53.21 54.512 52.198 54.273 51.44 c 53.781 49.85 53.422 48.858 52.895
 47.206 c 52.719 46.655 52.242 45.538 52.453 44.94 c 52.781 43.995 54.672
 44.358 55.703 43.905 c 56.004 43.499 56.043 42.565 55.652 42.229 c 52.168
 42.37 48.121 42.292 44.621 42.229 c 44.207 42.534 44.184 43.499 44.523 
43.905 c 45.805 44.046 47.23 44.225 47.973 44.987 c 48.746 45.788 49.176
 47.213 49.645 48.385 c 51.066 51.932 52.477 55.815 53.781 59.37 c 55.656
 64.475 57.516 69.296 59.199 74.143 c 57.262 75.022 55.781 76.506 55.754
 78.967 c 55.719 82.061 58.051 84.069 61.023 84.288 c 64.504 84.542 67.25
 82.245 67.277 79.069 c 67.293 76.671 65.895 75.061 63.977 74.241 c f
q 1 0 0 1 0 194.549408 cm
56.641 -135.477 m 56.359 -136.316 55.957 -137.211 56 -138.137 c 56.789 
-138.547 58.09 -138.383 59.297 -138.383 c 60.516 -138.383 61.852 -138.555
 62.648 -138.137 c 62.73 -137.211 62.285 -136.367 62.008 -135.527 c 61.141
 -132.902 60.469 -130.312 59.445 -127.891 c 59.441 -127.863 59.438 -127.836
 59.395 -127.844 c 58.371 -130.312 57.48 -132.934 56.641 -135.477 c h
60.035 -118.289 m 61.016 -119.09 62.297 -118.852 62.992 -118.289 c 65.078
 -116.59 64.027 -111.77 61.168 -112.23 c 58.898 -112.598 58.141 -116.73 
60.035 -118.289 c h
63.977 -120.309 m 66.32 -127.605 69.051 -135.453 71.707 -142.961 c 72.109
 -144.098 72.555 -145.395 73.039 -146.703 c 73.711 -148.535 74.164 -150.137
 76.289 -150.348 c 76.059 -150.914 76.18 -151.824 76.238 -152.32 c 72.156
 -152.156 67.605 -152.164 63.582 -152.367 c 63.184 -152.078 63.047 -151.16
 63.387 -150.695 c 64.23 -150.23 65.996 -150.613 66.34 -149.758 c 66.57 
-149.184 66.074 -148.07 65.898 -147.492 c 65.406 -145.879 65.09 -144.914
 64.566 -143.258 c 64.406 -142.742 64.176 -141.586 63.781 -141.289 c 63.078
 -140.762 60.551 -141.043 59.496 -141.043 c 58.785 -141.043 58.023 -141.043
 57.23 -141.043 c 56.562 -141.043 55.547 -140.922 55.113 -141.141 c 54.711
 -141.34 54.512 -142.352 54.273 -143.109 c 53.781 -144.699 53.422 -145.691
 52.895 -147.344 c 52.719 -147.895 52.242 -149.012 52.453 -149.609 c 52.781
 -150.555 54.672 -150.191 55.703 -150.645 c 56.004 -151.051 56.043 -151.984
 55.652 -152.32 c 52.168 -152.18 48.121 -152.258 44.621 -152.32 c 44.207
 -152.016 44.184 -151.051 44.523 -150.645 c 45.805 -150.504 47.23 -150.324
 47.973 -149.562 c 48.746 -148.762 49.176 -147.336 49.645 -146.164 c 51.066
 -142.617 52.477 -138.734 53.781 -135.18 c 55.656 -130.074 57.516 -125.254
 59.199 -120.406 c 57.262 -119.527 55.781 -118.043 55.754 -115.582 c 55.719
 -112.488 58.051 -110.48 61.023 -110.262 c 64.504 -110.008 67.25 -112.305
 67.277 -115.48 c 67.293 -117.879 65.895 -119.488 63.977 -120.309 c S Q
27.043 58.135 m 26.598 57.542 26.844 55.428 26.844 54.889 c 26.844 51.569
 26.406 47.233 27.93 45.53 c 29.312 43.983 32.824 44.233 34.379 45.381 c
 37.555 47.729 37.34 54.225 34.723 56.76 c 33.559 57.889 31.137 58.94 27.828
 58.483 c 27.375 58.421 27.258 58.428 27.043 58.135 c h
27.188 72.467 m 26.797 72.081 26.844 70.838 26.844 69.858 c 26.844 67.631
 26.844 66.139 26.844 63.901 c 26.844 63.049 26.684 61.385 26.992 61.046
 c 27.227 60.78 27.883 60.819 28.176 60.796 c 29.613 60.69 31.07 60.827 
32.016 61.19 c 34.781 62.256 36.02 65.616 34.824 69.069 c 33.977 71.506 
32.031 72.901 28.863 72.815 c 28.324 72.799 27.531 72.807 27.188 72.467 
c h
36.449 60.303 m 37.105 59.753 38.094 59.698 38.961 59.37 c 41.332 58.471
 43.332 56.756 44.082 54.147 c 45.293 49.932 43.406 46.225 40.73 44.448 
c 37.945 42.592 33.762 42.131 29.309 42.131 c 27.129 42.131 24.867 42.331
 22.609 42.331 c 20.336 42.331 18.094 42.237 15.961 42.229 c 15.691 42.643
 15.629 43.518 15.863 43.807 c 16.074 44.073 17 44.12 17.637 44.249 c 18.324
 44.393 19.023 44.631 19.359 45.038 c 20.277 46.143 20 49.432 20 51.538 
c 20 57.639 20.012 63.292 19.949 69.315 c 19.938 70.401 19.828 71.749 19.309
 72.221 c 18.688 72.792 17.16 72.655 16.355 72.963 c 16.125 73.35 15.977
 74.124 16.305 74.487 c 16.645 74.858 17.75 74.749 18.473 74.784 c 20.684
 74.889 23.328 74.983 25.418 75.077 c 33.688 75.463 42.613 74.866 42.504
 66.952 c 42.465 63.94 40.711 62.284 38.613 61.288 c 37.922 60.96 37.074
 60.897 36.449 60.303 c f
q 1 0 0 1 0 194.549408 cm
27.043 -136.414 m 26.598 -137.008 26.844 -139.121 26.844 -139.66 c 26.844
 -142.98 26.406 -147.316 27.93 -149.02 c 29.312 -150.566 32.824 -150.316
 34.379 -149.168 c 37.555 -146.82 37.34 -140.324 34.723 -137.789 c 33.559
 -136.66 31.137 -135.609 27.828 -136.066 c 27.375 -136.129 27.258 -136.121
 27.043 -136.414 c h
27.188 -122.082 m 26.797 -122.469 26.844 -123.711 26.844 -124.691 c 26.844
 -126.918 26.844 -128.41 26.844 -130.648 c 26.844 -131.5 26.684 -133.164
 26.992 -133.504 c 27.227 -133.77 27.883 -133.73 28.176 -133.754 c 29.613
 -133.859 31.07 -133.723 32.016 -133.359 c 34.781 -132.293 36.02 -128.934
 34.824 -125.48 c 33.977 -123.043 32.031 -121.648 28.863 -121.734 c 28.324
 -121.75 27.531 -121.742 27.188 -122.082 c h
36.449 -134.246 m 37.105 -134.797 38.094 -134.852 38.961 -135.18 c 41.332
 -136.078 43.332 -137.793 44.082 -140.402 c 45.293 -144.617 43.406 -148.324
 40.73 -150.102 c 37.945 -151.957 33.762 -152.418 29.309 -152.418 c 27.129
 -152.418 24.867 -152.219 22.609 -152.219 c 20.336 -152.219 18.094 -152.312
 15.961 -152.32 c 15.691 -151.906 15.629 -151.031 15.863 -150.742 c 16.074
 -150.477 17 -150.43 17.637 -150.301 c 18.324 -150.156 19.023 -149.918 19.359
 -149.512 c 20.277 -148.406 20 -145.117 20 -143.012 c 20 -136.91 20.012 
-131.258 19.949 -125.234 c 19.938 -124.148 19.828 -122.801 19.309 -122.328
 c 18.688 -121.758 17.16 -121.895 16.355 -121.586 c 16.125 -121.199 15.977
 -120.426 16.305 -120.062 c 16.645 -119.691 17.75 -119.801 18.473 -119.766
 c 20.684 -119.66 23.328 -119.566 25.418 -119.473 c 33.688 -119.086 42.613
 -119.684 42.504 -127.598 c 42.465 -130.609 40.711 -132.266 38.613 -133.262
 c 37.922 -133.59 37.074 -133.652 36.449 -134.246 c S Q
78.355 75.128 m 83.203 74.909 88.414 75.01 93.18 75.077 c 93.41 74.671 
93.555 73.862 93.23 73.503 c 92.949 73.194 91.887 73.186 91.504 73.108 c
 90.797 72.967 90.113 72.823 89.781 72.272 c 89.039 71.034 89.289 67.831
 89.289 65.921 c 89.289 60.94 89.289 57.268 89.289 52.327 c 89.289 49.413
 89.074 46.155 90.914 45.186 c 92.289 44.46 94.07 44.643 95.887 44.643 c
 97.766 44.647 99.344 44.78 100.469 45.53 c 101.27 46.065 102.055 47.038
 102.633 47.944 c 103.102 48.671 103.859 50.565 104.406 50.749 c 105.023
 50.96 105.578 50.667 105.934 50.256 c 105.605 47.19 104.832 44.565 103.816
 42.182 c 95.441 42.432 86.203 42.354 77.914 42.229 c 77.59 42.526 77.469
 43.28 77.668 43.807 c 78.586 44.346 80.914 43.932 81.605 44.893 c 82.504
 46.131 82.199 49.249 82.199 51.44 c 82.199 56.046 82.199 60.858 82.199 
65.721 c 82.199 68.014 82.543 71.776 81.359 72.663 c 80.973 72.956 80.34
 73.061 79.734 73.159 c 79.25 73.237 78.258 73.315 78.062 73.553 c 77.738
 73.94 77.926 74.999 78.355 75.128 c f
q 1 0 0 1 0 194.549408 cm
78.355 -119.422 m 83.203 -119.641 88.414 -119.539 93.18 -119.473 c 93.41
 -119.879 93.555 -120.688 93.23 -121.047 c 92.949 -121.355 91.887 -121.363
 91.504 -121.441 c 90.797 -121.582 90.113 -121.727 89.781 -122.277 c 89.039
 -123.516 89.289 -126.719 89.289 -128.629 c 89.289 -133.609 89.289 -137.281
 89.289 -142.223 c 89.289 -145.137 89.074 -148.395 90.914 -149.363 c 92.289
 -150.09 94.07 -149.906 95.887 -149.906 c 97.766 -149.902 99.344 -149.77
 100.469 -149.02 c 101.27 -148.484 102.055 -147.512 102.633 -146.605 c 103.102
 -145.879 103.859 -143.984 104.406 -143.801 c 105.023 -143.59 105.578 -143.883
 105.934 -144.293 c 105.605 -147.359 104.832 -149.984 103.816 -152.367 c
 95.441 -152.117 86.203 -152.195 77.914 -152.32 c 77.59 -152.023 77.469 
-151.27 77.668 -150.742 c 78.586 -150.203 80.914 -150.617 81.605 -149.656
 c 82.504 -148.418 82.199 -145.301 82.199 -143.109 c 82.199 -138.504 82.199
 -133.691 82.199 -128.828 c 82.199 -126.535 82.543 -122.773 81.359 -121.887
 c 80.973 -121.594 80.34 -121.488 79.734 -121.391 c 79.25 -121.312 78.258
 -121.234 78.062 -120.996 c 77.738 -120.609 77.926 -119.551 78.355 -119.422
 c S Q
119.625 57.448 m 119.117 57.784 118.363 58.487 117.902 58.186 c 115.629
 56.721 114.305 53.667 115.047 50.553 c 115.688 47.854 117.938 45.85 121.055
 45.678 c 124.219 45.503 126.023 46.999 127.504 48.831 c 125.75 52.299 122.887
 55.272 119.625 57.448 c h
122.434 71.483 m 121.117 72.213 119.484 71.51 118.887 70.745 c 116.625 
67.85 119.5 63.553 121.938 62.913 c 123.969 64.253 125.121 69.991 122.434
 71.483 c h
124.203 61.436 m 127.184 59.686 129.41 57.186 131.492 54.542 c 132.699 
56.467 133.633 58.592 134.598 60.944 c 134.816 61.479 135.496 62.62 135.336
 63.358 c 135.246 63.764 134.723 63.952 134.352 64.046 c 133.93 64.155 133.289
 64.085 133.02 64.342 c 132.695 64.655 132.738 65.655 133.117 65.921 c 133.59
 66.245 135.32 66.018 136.172 66.018 c 139.223 66.018 142.32 66.194 145.133
 66.264 c 145.555 65.967 145.688 64.979 145.281 64.639 c 144.977 64.378 
144.285 64.436 143.758 64.342 c 139.898 63.674 138.395 60.311 136.516 57.546
 c 135.332 55.803 134.203 54.042 133.168 52.276 c 134.402 50.428 135.656
 47.764 137.746 46.467 c 139.98 45.081 143.895 45.444 145.875 46.811 c 146.211
 46.612 146.5 46.288 146.465 45.827 c 146.434 45.417 145.648 44.784 145.234
 44.448 c 143.789 43.272 141.992 42.424 139.863 41.983 c 136.484 41.288 
132.168 41.612 130.559 43.608 c 129.816 44.53 129.496 45.389 128.883 46.417
 c 128.238 46.061 127.73 45.471 127.16 44.987 c 125.449 43.542 123.465 42.206
 120.66 41.788 c 114.691 40.901 109.488 43.729 108.445 48.631 c 108.066 
50.428 108.301 52.495 109.035 54.1 c 110.383 57.026 112.918 58.917 115.883
 60.159 c 114.453 61.628 112.945 62.987 112.73 65.475 c 112.312 70.292 116.016
 73.678 120.316 73.995 c 124.949 74.338 129.027 71.647 128.688 66.905 c 
128.469 63.889 126.242 62.819 124.203 61.436 c f
q 1 0 0 1 0 194.549408 cm
119.625 -137.102 m 119.117 -136.766 118.363 -136.062 117.902 -136.363 c
 115.629 -137.828 114.305 -140.883 115.047 -143.996 c 115.688 -146.695 117.938
 -148.699 121.055 -148.871 c 124.219 -149.047 126.023 -147.551 127.504 -145.719
 c 125.75 -142.25 122.887 -139.277 119.625 -137.102 c h
122.434 -123.066 m 121.117 -122.336 119.484 -123.039 118.887 -123.805 c
 116.625 -126.699 119.5 -130.996 121.938 -131.637 c 123.969 -130.297 125.121
 -124.559 122.434 -123.066 c h
124.203 -133.113 m 127.184 -134.863 129.41 -137.363 131.492 -140.008 c 
132.699 -138.082 133.633 -135.957 134.598 -133.605 c 134.816 -133.07 135.496
 -131.93 135.336 -131.191 c 135.246 -130.785 134.723 -130.598 134.352 -130.504
 c 133.93 -130.395 133.289 -130.465 133.02 -130.207 c 132.695 -129.895 132.738
 -128.895 133.117 -128.629 c 133.59 -128.305 135.32 -128.531 136.172 -128.531
 c 139.223 -128.531 142.32 -128.355 145.133 -128.285 c 145.555 -128.582 
145.688 -129.57 145.281 -129.91 c 144.977 -130.172 144.285 -130.113 143.758
 -130.207 c 139.898 -130.875 138.395 -134.238 136.516 -137.004 c 135.332
 -138.746 134.203 -140.508 133.168 -142.273 c 134.402 -144.121 135.656 -146.785
 137.746 -148.082 c 139.98 -149.469 143.895 -149.105 145.875 -147.738 c 
146.211 -147.938 146.5 -148.262 146.465 -148.723 c 146.434 -149.133 145.648
 -149.766 145.234 -150.102 c 143.789 -151.277 141.992 -152.125 139.863 -152.566
 c 136.484 -153.262 132.168 -152.938 130.559 -150.941 c 129.816 -150.02 
129.496 -149.16 128.883 -148.133 c 128.238 -148.488 127.73 -149.078 127.16
 -149.562 c 125.449 -151.008 123.465 -152.344 120.66 -152.762 c 114.691 
-153.648 109.488 -150.82 108.445 -145.918 c 108.066 -144.121 108.301 -142.055
 109.035 -140.449 c 110.383 -137.523 112.918 -135.633 115.883 -134.391 c
 114.453 -132.922 112.945 -131.562 112.73 -129.074 c 112.312 -124.258 116.016
 -120.871 120.316 -120.555 c 124.949 -120.211 129.027 -122.902 128.688 -127.645
 c 128.469 -130.66 126.242 -131.73 124.203 -133.113 c S Q
92.934 40.952 m 92.816 40.213 91.898 40.276 91.898 39.424 c 91.453 39.311
 91.207 38.999 91.062 38.588 c 89.988 37.881 89.297 36.557 88.207 35.631
 c 86.883 34.51 85.496 33.108 83.824 31.987 c 83.41 31.713 82.734 31.256
 82.492 31.299 c 82.078 31.37 81.949 31.921 81.508 31.792 c 81.387 31.905
 81.582 31.881 81.559 32.038 c 79.73 32.706 79.043 34.51 77.324 35.288 c
 77.281 35.444 77.398 35.44 77.422 35.534 c 76.234 36.479 75.055 37.436 
74.023 38.538 c 73.832 38.553 73.742 38.6 73.531 38.686 c 73.512 38.854 
73.617 38.897 73.68 38.979 c 72.949 39.565 72.363 40.296 71.609 40.854 c
 72.684 41.167 73.059 40.487 73.68 39.866 c 76.156 37.393 79.008 35.006 
81.559 32.729 c 81.551 33.835 81.934 34.87 81.805 35.928 c 81.777 36.147
 81.613 36.385 81.605 36.616 c 81.594 36.96 81.777 37.35 81.805 37.702 c
 81.879 38.729 81.75 39.768 81.707 40.854 c 85.328 41.003 89.172 40.936 
92.934 40.952 c f
q 1 0 0 1 0 194.549408 cm
92.934 -153.598 m 92.816 -154.336 91.898 -154.273 91.898 -155.125 c 91.453
 -155.238 91.207 -155.551 91.062 -155.961 c 89.988 -156.668 89.297 -157.992
 88.207 -158.918 c 86.883 -160.039 85.496 -161.441 83.824 -162.562 c 83.41
 -162.836 82.734 -163.293 82.492 -163.25 c 82.078 -163.18 81.949 -162.629
 81.508 -162.758 c 81.387 -162.645 81.582 -162.668 81.559 -162.512 c 79.73
 -161.844 79.043 -160.039 77.324 -159.262 c 77.281 -159.105 77.398 -159.109
 77.422 -159.016 c 76.234 -158.07 75.055 -157.113 74.023 -156.012 c 73.832
 -155.996 73.742 -155.949 73.531 -155.863 c 73.512 -155.695 73.617 -155.652
 73.68 -155.57 c 72.949 -154.984 72.363 -154.254 71.609 -153.695 c 72.684
 -153.383 73.059 -154.062 73.68 -154.684 c 76.156 -157.156 79.008 -159.543
 81.559 -161.82 c 81.551 -160.715 81.934 -159.68 81.805 -158.621 c 81.777
 -158.402 81.613 -158.164 81.605 -157.934 c 81.594 -157.59 81.777 -157.199
 81.805 -156.848 c 81.879 -155.82 81.75 -154.781 81.707 -153.695 c 85.328
 -153.547 89.172 -153.613 92.934 -153.598 c S Q
69.836 17.51 m 69.551 16.651 69.074 15.76 69.195 14.799 c 70.039 14.463
 71.316 14.604 72.496 14.604 c 73.672 14.604 74.957 14.46 75.797 14.799 
c 75.898 15.737 75.48 16.62 75.203 17.46 c 74.355 20.053 73.59 22.612 72.645
 25.092 c 72.641 25.124 72.637 25.151 72.594 25.143 c 71.508 22.713 70.703
 20.092 69.836 17.51 c h
75.844 34.202 m 76.898 34.225 76.902 33.307 77.223 32.233 c 78.547 27.807
 80.23 23.428 81.707 19.135 c 82.988 15.401 84.262 11.713 85.594 7.956 c
 86.219 6.202 86.695 4.401 87.812 3.178 c 87.316 2.698 87.156 1.604 87.367
 0.717 c 83.848 0.866 80.027 0.686 76.684 0.667 c 76.234 0.936 76.176 1.881
 76.535 2.292 c 77.43 2.725 79.246 2.358 79.539 3.276 c 79.711 3.823 79.223
 4.932 79.047 5.491 c 78.543 7.073 78.211 8.163 77.715 9.729 c 77.508 10.389
 77.254 11.467 76.93 11.698 c 76.258 12.171 73.703 11.944 72.594 11.944 
c 71.938 11.944 71.152 11.944 70.328 11.944 c 69.652 11.944 68.594 12.042
 68.211 11.796 c 67.844 11.561 67.637 10.499 67.422 9.827 c 66.941 8.292
 66.625 7.276 66.094 5.643 c 65.922 5.108 65.398 4.088 65.602 3.374 c 65.852
 2.495 68.035 2.694 68.902 2.342 c 69.133 1.924 69.215 1.003 68.852 0.667
 c 65.285 0.784 61.348 0.71 57.773 0.667 c 57.383 0.956 57.398 1.932 57.672
 2.342 c 59.508 2.421 60.898 2.846 61.66 4.116 c 62.766 5.944 63.398 8.354
 64.223 10.518 c 66.27 15.889 68.188 21.424 70.328 26.815 c 70.914 28.292
 71.496 29.417 71.512 31.249 c 73.477 31.717 74.629 32.991 75.844 34.202
 c f
q 1 0 0 1 0 194.549408 cm
69.836 -177.039 m 69.551 -177.898 69.074 -178.789 69.195 -179.75 c 70.039
 -180.086 71.316 -179.945 72.496 -179.945 c 73.672 -179.945 74.957 -180.09
 75.797 -179.75 c 75.898 -178.812 75.48 -177.93 75.203 -177.09 c 74.355 
-174.496 73.59 -171.938 72.645 -169.457 c 72.641 -169.426 72.637 -169.398
 72.594 -169.406 c 71.508 -171.836 70.703 -174.457 69.836 -177.039 c h
75.844 -160.348 m 76.898 -160.324 76.902 -161.242 77.223 -162.316 c 78.547
 -166.742 80.23 -171.121 81.707 -175.414 c 82.988 -179.148 84.262 -182.836
 85.594 -186.594 c 86.219 -188.348 86.695 -190.148 87.812 -191.371 c 87.316
 -191.852 87.156 -192.945 87.367 -193.832 c 83.848 -193.684 80.027 -193.863
 76.684 -193.883 c 76.234 -193.613 76.176 -192.668 76.535 -192.258 c 77.43
 -191.824 79.246 -192.191 79.539 -191.273 c 79.711 -190.727 79.223 -189.617
 79.047 -189.059 c 78.543 -187.477 78.211 -186.387 77.715 -184.82 c 77.508
 -184.16 77.254 -183.082 76.93 -182.852 c 76.258 -182.379 73.703 -182.605
 72.594 -182.605 c 71.938 -182.605 71.152 -182.605 70.328 -182.605 c 69.652
 -182.605 68.594 -182.508 68.211 -182.754 c 67.844 -182.988 67.637 -184.051
 67.422 -184.723 c 66.941 -186.258 66.625 -187.273 66.094 -188.906 c 65.922
 -189.441 65.398 -190.461 65.602 -191.176 c 65.852 -192.055 68.035 -191.855
 68.902 -192.207 c 69.133 -192.625 69.215 -193.547 68.852 -193.883 c 65.285
 -193.766 61.348 -193.84 57.773 -193.883 c 57.383 -193.594 57.398 -192.617
 57.672 -192.207 c 59.508 -192.129 60.898 -191.703 61.66 -190.434 c 62.766
 -188.605 63.398 -186.195 64.223 -184.031 c 66.27 -178.66 68.188 -173.125
 70.328 -167.734 c 70.914 -166.258 71.496 -165.133 71.512 -163.301 c 73.477
 -162.832 74.629 -161.559 75.844 -160.348 c S Q
11.332 16.522 m 10.891 15.858 11.137 13.921 11.137 13.374 c 11.137 10.131
 10.77 5.936 12.07 4.163 c 13.715 1.921 18.148 2.776 19.656 4.753 c 20.648
 6.061 21.105 8.038 21.035 10.12 c 20.961 12.233 20.215 13.967 19.164 15.046
 c 17.812 16.432 15.75 17.276 12.316 16.917 c 11.812 16.866 11.582 16.901
 11.332 16.522 c h
14.387 19.182 m 15.387 19.245 16.41 19.534 17.094 19.921 c 19.398 21.237
 20.258 25.073 19.016 27.948 c 18.246 29.725 16.473 31.085 14.188 31.249
 c 13.145 31.327 11.789 31.335 11.383 30.756 c 11.043 30.276 11.137 29.057
 11.137 28.096 c 11.137 27.046 11.137 26.046 11.137 25.19 c 11.137 23.03
 11.023 21.042 11.281 19.479 c 12.258 19.073 13.402 19.124 14.387 19.182
 c h
20.789 18.741 m 21.023 18.292 21.602 18.296 21.969 18.198 c 25.031 17.401
 27.457 15.631 28.371 12.585 c 29.621 8.421 27.691 4.585 25.07 2.835 c 22.305
 0.979 18.051 0.569 13.598 0.569 c 11.402 0.569 9.148 0.764 6.898 0.764 
c 4.637 0.768 2.402 0.628 0.25 0.667 c 0.004 1.018 -0.027 1.889 0.203 2.292
 c 1.258 2.694 3.172 2.643 3.797 3.62 c 4.562 4.823 4.289 8.249 4.289 10.221
 c 4.289 14.936 4.289 19.514 4.289 24.405 c 4.289 26.475 4.586 29.881 3.551
 30.706 c 2.895 31.229 1.441 31.053 0.695 31.397 c 0.398 31.737 0.297 32.655
 0.645 32.975 c 1.023 33.315 2.27 33.186 3.008 33.217 c 5.367 33.331 8.23
 33.409 10.496 33.514 c 16.586 33.799 22.973 33.303 25.465 29.87 c 26.801
 28.03 27.34 24.866 26.156 22.585 c 25.418 21.155 23.961 20.01 22.363 19.428
 c 21.855 19.245 21.16 19.292 20.789 18.741 c f
q 1 0 0 1 0 194.549408 cm
11.332 -178.027 m 10.891 -178.691 11.137 -180.629 11.137 -181.176 c 11.137
 -184.418 10.77 -188.613 12.07 -190.387 c 13.715 -192.629 18.148 -191.773
 19.656 -189.797 c 20.648 -188.488 21.105 -186.512 21.035 -184.43 c 20.961
 -182.316 20.215 -180.582 19.164 -179.504 c 17.812 -178.117 15.75 -177.273
 12.316 -177.633 c 11.812 -177.684 11.582 -177.648 11.332 -178.027 c h
14.387 -175.367 m 15.387 -175.305 16.41 -175.016 17.094 -174.629 c 19.398
 -173.312 20.258 -169.477 19.016 -166.602 c 18.246 -164.824 16.473 -163.465
 14.188 -163.301 c 13.145 -163.223 11.789 -163.215 11.383 -163.793 c 11.043
 -164.273 11.137 -165.492 11.137 -166.453 c 11.137 -167.504 11.137 -168.504
 11.137 -169.359 c 11.137 -171.52 11.023 -173.508 11.281 -175.07 c 12.258
 -175.477 13.402 -175.426 14.387 -175.367 c h
20.789 -175.809 m 21.023 -176.258 21.602 -176.254 21.969 -176.352 c 25.031
 -177.148 27.457 -178.918 28.371 -181.965 c 29.621 -186.129 27.691 -189.965
 25.07 -191.715 c 22.305 -193.57 18.051 -193.98 13.598 -193.98 c 11.402 
-193.98 9.148 -193.785 6.898 -193.785 c 4.637 -193.781 2.402 -193.922 0.25
 -193.883 c 0.004 -193.531 -0.027 -192.66 0.203 -192.258 c 1.258 -191.855
 3.172 -191.906 3.797 -190.93 c 4.562 -189.727 4.289 -186.301 4.289 -184.328
 c 4.289 -179.613 4.289 -175.035 4.289 -170.145 c 4.289 -168.074 4.586 -164.668
 3.551 -163.844 c 2.895 -163.32 1.441 -163.496 0.695 -163.152 c 0.398 -162.812
 0.297 -161.895 0.645 -161.574 c 1.023 -161.234 2.27 -161.363 3.008 -161.332
 c 5.367 -161.219 8.23 -161.141 10.496 -161.035 c 16.586 -160.75 22.973 
-161.246 25.465 -164.68 c 26.801 -166.52 27.34 -169.684 26.156 -171.965 
c 25.418 -173.395 23.961 -174.539 22.363 -175.121 c 21.855 -175.305 21.16
 -175.258 20.789 -175.809 c S Q
40.832 30.952 m 40.348 30.417 40.484 28.631 40.484 27.85 c 40.484 25.713
 40.484 23.053 40.484 20.905 c 40.484 19.885 40.367 18.069 40.73 17.655 
c 41.359 16.948 44.535 17.147 45.609 17.51 c 47.945 18.299 49.039 20.874
 49.055 23.713 c 49.078 28.268 46.531 31.917 41.57 31.198 c 41.285 31.159
 40.996 31.139 40.832 30.952 c h
58.363 3.866 m 57.875 3.733 57.453 3.87 57.082 3.721 c 56.312 3.409 55.828
 1.85 56.148 0.62 c 50.719 1.319 48.547 5.639 46.492 9.874 c 46.164 10.557
 45.836 11.311 45.508 12.042 c 45.027 13.116 44.648 14.401 43.59 14.85 c
 43.098 15.061 41.055 15.288 40.633 14.799 c 40.273 14.385 40.484 12.37 
40.484 11.749 c 40.484 10.542 40.484 9.624 40.484 8.596 c 40.484 6.663 40.305
 3.913 41.324 3.128 c 42.113 2.522 43.43 2.721 44.426 2.292 c 44.688 1.874
 44.668 1.042 44.375 0.667 c 39.746 0.776 34.43 0.784 29.801 0.667 c 29.477
 0.975 29.469 1.928 29.75 2.292 c 30.785 2.667 32.668 2.592 33.246 3.573
 c 33.973 4.799 33.691 8.221 33.691 10.171 c 33.691 14.717 33.691 19.503
 33.691 24.206 c 33.691 26.303 33.977 29.655 33.098 30.608 c 32.484 31.272
 30.906 31.108 30.047 31.448 c 29.719 31.936 29.797 32.788 30.145 33.022
 c 30.535 33.288 31.832 33.237 32.457 33.268 c 34.945 33.397 37.383 33.401
 39.844 33.514 c 43.922 33.702 48.262 33.413 51.172 32.284 c 54.258 31.085
 56.891 28.26 56.59 23.764 c 56.363 20.405 54.254 18.561 51.91 17.311 c 
51.598 17.143 51.047 16.94 50.977 16.671 c 50.836 16.147 51.41 15.307 51.664
 14.799 c 53.594 10.96 55.719 6.682 58.363 3.866 c f
q 1 0 0 1 0 194.549408 cm
40.832 -163.598 m 40.348 -164.133 40.484 -165.918 40.484 -166.699 c 40.484
 -168.836 40.484 -171.496 40.484 -173.645 c 40.484 -174.664 40.367 -176.48
 40.73 -176.895 c 41.359 -177.602 44.535 -177.402 45.609 -177.039 c 47.945
 -176.25 49.039 -173.676 49.055 -170.836 c 49.078 -166.281 46.531 -162.633
 41.57 -163.352 c 41.285 -163.391 40.996 -163.41 40.832 -163.598 c h
58.363 -190.684 m 57.875 -190.816 57.453 -190.68 57.082 -190.828 c 56.312
 -191.141 55.828 -192.699 56.148 -193.93 c 50.719 -193.23 48.547 -188.91
 46.492 -184.676 c 46.164 -183.992 45.836 -183.238 45.508 -182.508 c 45.027
 -181.434 44.648 -180.148 43.59 -179.699 c 43.098 -179.488 41.055 -179.262
 40.633 -179.75 c 40.273 -180.164 40.484 -182.18 40.484 -182.801 c 40.484
 -184.008 40.484 -184.926 40.484 -185.953 c 40.484 -187.887 40.305 -190.637
 41.324 -191.422 c 42.113 -192.027 43.43 -191.828 44.426 -192.258 c 44.688
 -192.676 44.668 -193.508 44.375 -193.883 c 39.746 -193.773 34.43 -193.766
 29.801 -193.883 c 29.477 -193.574 29.469 -192.621 29.75 -192.258 c 30.785
 -191.883 32.668 -191.957 33.246 -190.977 c 33.973 -189.75 33.691 -186.328
 33.691 -184.379 c 33.691 -179.832 33.691 -175.047 33.691 -170.344 c 33.691
 -168.246 33.977 -164.895 33.098 -163.941 c 32.484 -163.277 30.906 -163.441
 30.047 -163.102 c 29.719 -162.613 29.797 -161.762 30.145 -161.527 c 30.535
 -161.262 31.832 -161.312 32.457 -161.281 c 34.945 -161.152 37.383 -161.148
 39.844 -161.035 c 43.922 -160.848 48.262 -161.137 51.172 -162.266 c 54.258
 -163.465 56.891 -166.289 56.59 -170.785 c 56.363 -174.145 54.254 -175.988
 51.91 -177.238 c 51.598 -177.406 51.047 -177.609 50.977 -177.879 c 50.836
 -178.402 51.41 -179.242 51.664 -179.75 c 53.594 -183.59 55.719 -187.867
 58.363 -190.684 c S Q
99.828 33.565 m 100.734 31.022 102.434 28.987 104.113 26.917 c 105.52 25.178
 106.98 23.487 108.348 21.893 c 111.266 18.487 113.965 15.061 116.918 11.995
 c 117.176 14.655 117.062 18.057 117.062 21.546 c 117.062 23.128 117.023
 24.706 116.918 26.276 c 116.805 27.924 116.754 29.76 115.98 30.608 c 115.062
 31.616 113.578 31.479 112.09 31.838 c 111.82 32.225 111.828 33.128 112.09
 33.514 c 115.699 33.475 119.836 33.311 123.566 33.514 c 123.379 33.026 
123.223 32.303 123.367 31.643 c 122.387 31.463 121.285 31.069 120.855 30.264
 c 120.055 28.756 120.152 25.764 120.066 23.518 c 119.797 16.296 120.102
 7.924 120.117 1.21 c 119.855 0.842 119.457 0.628 118.938 0.421 c 118.527
 0.26 117.801 -0.048 117.309 0.077 c 116.926 0.174 116.375 1.268 116.031
 1.749 c 113.215 5.674 109.953 9.487 106.969 13.174 c 103.895 16.975 100.965
 20.827 97.758 24.503 c 97.32 25.006 96.902 25.565 96.332 25.881 c 95.992
 22.69 96.133 18.639 96.133 14.506 c 96.133 12.62 96.148 10.78 96.234 8.792
 c 96.305 7.069 96.426 4.651 97.121 3.721 c 97.992 2.546 99.75 2.717 101.207
 2.292 c 101.496 1.874 101.438 0.999 101.156 0.62 c 97.188 0.776 92.895 
0.85 88.945 0.62 c 88.66 0.991 88.598 1.885 88.895 2.292 c 90.164 2.628 
91.93 2.819 92.492 4.014 c 93.098 5.311 93.09 7.96 93.18 9.975 c 93.422 
15.358 93.285 21.069 93.23 26.471 c 93.211 28.35 93.242 30.081 92.195 30.854
 c 91.312 31.51 89.75 31.585 88.598 31.889 c 88.359 32.338 88.336 33.409
 88.895 33.565 c 89.18 33.643 89.828 33.526 90.273 33.514 c 93.211 33.432
 97.055 33.299 99.828 33.565 c f
q 1 0 0 1 0 194.549408 cm
99.828 -160.984 m 100.734 -163.527 102.434 -165.562 104.113 -167.633 c 
105.52 -169.371 106.98 -171.062 108.348 -172.656 c 111.266 -176.062 113.965
 -179.488 116.918 -182.555 c 117.176 -179.895 117.062 -176.492 117.062 -173.004
 c 117.062 -171.422 117.023 -169.844 116.918 -168.273 c 116.805 -166.625
 116.754 -164.789 115.98 -163.941 c 115.062 -162.934 113.578 -163.07 112.09
 -162.711 c 111.82 -162.324 111.828 -161.422 112.09 -161.035 c 115.699 -161.074
 119.836 -161.238 123.566 -161.035 c 123.379 -161.523 123.223 -162.246 123.367
 -162.906 c 122.387 -163.086 121.285 -163.48 120.855 -164.285 c 120.055 
-165.793 120.152 -168.785 120.066 -171.031 c 119.797 -178.254 120.102 -186.625
 120.117 -193.34 c 119.855 -193.707 119.457 -193.922 118.938 -194.129 c 
118.527 -194.289 117.801 -194.598 117.309 -194.473 c 116.926 -194.375 116.375
 -193.281 116.031 -192.801 c 113.215 -188.875 109.953 -185.062 106.969 -181.375
 c 103.895 -177.574 100.965 -173.723 97.758 -170.047 c 97.32 -169.543 96.902
 -168.984 96.332 -168.668 c 95.992 -171.859 96.133 -175.91 96.133 -180.043
 c 96.133 -181.93 96.148 -183.77 96.234 -185.758 c 96.305 -187.48 96.426
 -189.898 97.121 -190.828 c 97.992 -192.004 99.75 -191.832 101.207 -192.258
 c 101.496 -192.676 101.438 -193.551 101.156 -193.93 c 97.188 -193.773 92.895
 -193.699 88.945 -193.93 c 88.66 -193.559 88.598 -192.664 88.895 -192.258
 c 90.164 -191.922 91.93 -191.73 92.492 -190.535 c 93.098 -189.238 93.09
 -186.59 93.18 -184.574 c 93.422 -179.191 93.285 -173.48 93.23 -168.078 
c 93.211 -166.199 93.242 -164.469 92.195 -163.695 c 91.312 -163.039 89.75
 -162.965 88.598 -162.66 c 88.359 -162.211 88.336 -161.141 88.895 -160.984
 c 89.18 -160.906 89.828 -161.023 90.273 -161.035 c 93.211 -161.117 97.055
 -161.25 99.828 -160.984 c S Q
135.777 30.608 m 135.371 29.999 135.48 28.479 135.48 27.557 c 135.48 26.116
 135.48 25.046 135.48 24.159 c 135.48 19.53 135.48 15.288 135.48 10.663 
c 135.48 8.26 135.375 5.917 136.172 4.557 c 137.43 2.417 141.691 2.495 144.148
 3.276 c 149.367 4.932 152.031 10.174 152.027 16.967 c 152.027 21.651 150.703
 25.35 148.387 27.702 c 146.191 29.932 142.312 31.671 137.504 31.198 c 136.992
 31.151 136.066 31.038 135.777 30.608 c h
124.305 0.667 m 123.996 1.198 123.922 1.913 124.203 2.241 c 124.422 2.491
 125.367 2.499 125.879 2.588 c 126.699 2.733 127.469 2.921 127.848 3.424
 c 128.688 4.53 128.391 8.206 128.391 10.12 c 128.391 15.237 128.391 19.323
 128.391 24.553 c 128.391 26.905 128.699 30.311 127.258 31.003 c 126.641
 31.299 125.242 31.12 124.895 31.546 c 124.703 31.78 124.648 32.628 124.895
 32.924 c 125.176 33.26 126.645 33.186 127.406 33.217 c 130.09 33.346 132.602
 33.381 135.48 33.514 c 143.41 33.881 150.539 32.756 154.688 29.182 c 156.723
 27.424 158.508 25.003 159.367 22.139 c 160.281 19.092 160.215 15.19 159.172
 11.944 c 157.301 6.131 152.727 2.561 146.465 1.21 c 143.113 0.483 139.5
 0.362 135.582 0.569 c 131.992 0.76 128.113 0.792 124.305 0.667 c f
q 1 0 0 1 0 194.549408 cm
135.777 -163.941 m 135.371 -164.551 135.48 -166.07 135.48 -166.992 c 135.48
 -168.434 135.48 -169.504 135.48 -170.391 c 135.48 -175.02 135.48 -179.262
 135.48 -183.887 c 135.48 -186.289 135.375 -188.633 136.172 -189.992 c 137.43
 -192.133 141.691 -192.055 144.148 -191.273 c 149.367 -189.617 152.031 -184.375
 152.027 -177.582 c 152.027 -172.898 150.703 -169.199 148.387 -166.848 c
 146.191 -164.617 142.312 -162.879 137.504 -163.352 c 136.992 -163.398 136.066
 -163.512 135.777 -163.941 c h
124.305 -193.883 m 123.996 -193.352 123.922 -192.637 124.203 -192.309 c
 124.422 -192.059 125.367 -192.051 125.879 -191.961 c 126.699 -191.816 127.469
 -191.629 127.848 -191.125 c 128.688 -190.02 128.391 -186.344 128.391 -184.43
 c 128.391 -179.312 128.391 -175.227 128.391 -169.996 c 128.391 -167.645
 128.699 -164.238 127.258 -163.547 c 126.641 -163.25 125.242 -163.43 124.895
 -163.004 c 124.703 -162.77 124.648 -161.922 124.895 -161.625 c 125.176 
-161.289 126.645 -161.363 127.406 -161.332 c 130.09 -161.203 132.602 -161.168
 135.48 -161.035 c 143.41 -160.668 150.539 -161.793 154.688 -165.367 c 156.723
 -167.125 158.508 -169.547 159.367 -172.41 c 160.281 -175.457 160.215 -179.359
 159.172 -182.605 c 157.301 -188.418 152.727 -191.988 146.465 -193.34 c 
143.113 -194.066 139.5 -194.188 135.582 -193.98 c 131.992 -193.789 128.113
 -193.758 124.305 -193.883 c S Q
75.449 105.315 m 74.891 104.975 74.195 104.772 73.434 104.479 c 72.824 
104.245 71.945 104.003 71.559 103.69 c 71.383 103.546 71.281 103.186 71.066
 102.952 c 70.762 102.616 70.367 102.393 70.082 102.065 c 68.688 100.479
 67.379 98.409 66.734 96.057 c 66.391 94.811 66.062 92.85 66.684 92.018 
c 67.43 94.928 69.203 97.62 71.266 99.405 c 72.285 100.292 73.301 101.315
 74.91 101.276 c 75.184 102.495 75.605 103.831 75.449 105.315 c h
72.348 106.596 m 71.91 106.354 71.41 106.268 70.922 106.006 c 70.723 105.901
 70.586 105.71 70.379 105.612 c 69.781 105.331 69 105.159 68.309 104.971
 c 65.605 104.241 62.992 104.975 61.316 106.155 c 61.031 106.354 60.477 
107.01 60.137 107.038 c 59.82 107.065 59.254 106.721 58.855 106.499 c 56.195
 105.022 54.75 101.467 54.766 97.534 c 54.785 93.694 56.367 91.374 59.102
 90.245 c 59.039 92.174 59.457 93.647 60.184 95.272 c 60.723 96.467 61.391
 97.749 62.301 98.225 c 62.891 98.53 64.469 98.963 64.566 98.026 c 66.793
 99.131 66.785 101.811 68.703 103.198 c 70.605 104.573 73.746 104.616 75.352
 106.253 c 75.695 106.6 75.852 107.37 76.535 107.237 c 76.945 106.565 76.059
 106.128 75.992 105.663 c 75.93 105.237 76.188 104.663 76.191 104.233 c 
76.195 102.171 75.285 100.073 74.566 98.374 c 74.184 97.467 73.895 96.588
 73.332 95.862 c 72.789 95.151 72.141 94.604 71.363 94.088 c 70.699 94.838
 70.363 95.909 69.934 96.897 c 69.422 96.354 69.766 95.37 69.836 94.53 c
 69.914 93.643 70.016 92.725 70.23 92.069 c 70.539 92.128 70.824 92.401 
71.066 92.612 c 72.996 94.264 74.938 95.663 75.992 98.174 c 76.555 99.522
 77.195 100.831 77.371 102.756 c 77.488 104.026 77.391 105.807 77.273 107.038
 c 77.152 108.296 77.156 108.725 76.141 108.96 c 74.68 108.338 73.613 107.292
 72.348 106.596 c h
49.203 131.71 m 49.172 131.713 49.145 131.721 49.152 131.76 c 48.953 133.534
 48.137 135.049 48.02 136.932 c 47.984 137.538 47.992 138.725 48.613 138.803
 c 49.023 138.854 49.543 138.397 49.695 138.065 c 49.82 137.799 49.82 137.409
 49.891 137.128 c 50.426 135.108 51.844 133.182 52.305 131.268 c 51.695 
131.296 51.566 131.792 50.926 131.71 c 49.777 131.569 49.492 129.682 49.598
 128.264 c 49.859 124.655 52.031 121.6 53.191 119.155 c 52.418 119.112 52.004
 117.909 52.156 117.038 c 52.242 116.546 52.715 115.811 52.996 115.264 c
 53.871 113.561 55.242 111.745 56.59 110.881 c 56.586 111.288 56.676 111.546
 56.59 111.917 c 55.84 112.483 55.078 113.366 54.422 114.28 c 53.621 115.393
 52.711 116.862 53.289 118.417 c 54.223 118.116 54.691 117.092 55.652 116.987
 c 55.941 117.901 54.973 118.104 54.57 118.565 c 54.309 118.862 54.074 119.346
 53.781 119.745 c 53.492 120.139 53.176 120.565 52.996 120.975 c 52.875 
121.253 52.824 121.581 52.699 121.862 c 52.477 122.362 52.105 122.803 51.863
 123.292 c 50.836 125.331 49.504 128.71 51.074 130.975 c 53.16 130.288 54.082
 128.21 55.309 126.737 c 55.406 126.624 55.52 126.393 55.703 126.444 c 55.652
 128.229 54.566 128.823 53.832 130.038 c 53.305 130.905 52.863 131.878 52.402
 132.796 c 51.059 135.475 49.758 138.682 49.449 142.448 c 49.348 143.69 
49.039 144.889 48.906 146.092 c 48.676 148.182 48.84 150.26 49.105 152.003
 c 49.191 152.581 49.41 153.19 49.449 153.776 c 49.539 155.139 49.105 156.065
 48.613 157.026 c 48.332 157.565 47.906 158.413 47.48 158.503 c 47.121 158.577
 46.508 158.338 46.102 158.206 c 44.848 157.799 44.176 157.042 44.031 155.694
 c 43.527 154.948 43.449 154.198 43.391 153.085 c 43.266 150.655 42.535 
147.881 42.949 145.503 c 41.918 146.21 40.605 145.659 39.797 145.108 c 39.031
 144.585 38.258 144.069 38.023 143.088 c 37.848 142.35 37.773 141.342 37.68
 140.428 c 37.375 137.487 38.344 134.569 38.961 132.745 c 38.719 132.409
 38.41 132.299 38.172 132.006 c 36.781 130.307 37.566 126.87 38.223 124.917
 c 36.699 125.171 35.762 123.921 35.461 122.85 c 34.824 120.561 36.188 117.655
 36.988 116.397 c 34.164 115.542 35.633 110.561 36.742 108.913 c 36.504 
108.659 36.262 108.526 36.102 108.272 c 34.543 105.753 36.578 102.354 37.68
 100.686 c 36.07 100.21 35.363 98.284 35.363 96.549 c 35.363 93.729 36.707
 91.69 38.074 90.1 c 38.523 89.573 39.199 88.717 39.207 88.128 c 39.211 
87.616 38.91 87.315 38.859 86.948 c 38.801 86.522 38.828 86.085 38.859 85.717
 c 39.109 82.713 41.789 81.463 43.688 80.1 c 43.176 78.702 44.422 77.878
 44.723 76.803 c 46.891 75.671 48.633 74.116 51.91 74.092 c 51.914 74.296
 51.922 74.499 51.863 74.635 c 48.066 75.026 45.316 76.463 44.23 79.561 
c 45.961 79.03 47.73 77.917 49.891 77.788 c 50.609 77.745 51.625 77.772 
52.008 78.28 c 51.879 79.061 51.273 78.577 50.73 78.526 c 50.449 78.499 
49.898 78.506 49.645 78.526 c 47.383 78.69 44.898 79.799 43.344 80.838 c
 41.621 81.991 39.824 83.569 39.551 85.667 c 39.449 86.428 39.488 87.065
 39.895 87.686 c 40.602 87.69 40.707 86.862 41.125 86.503 c 41.488 86.19
 42.152 86.03 42.652 85.717 c 44 84.866 45.551 83.565 47.133 83.155 c 47.352
 83.1 47.625 83.135 47.824 83.057 c 48.105 82.94 48.305 82.612 48.613 82.463
 c 49.203 82.186 50.094 81.932 50.777 81.874 c 51.098 81.846 51.848 81.71
 52.059 82.268 c 46.043 83.667 40.664 87.057 37.68 91.577 c 37.223 92.268
 36.684 93.077 36.449 93.745 c 35.828 95.491 36.039 98.815 37.234 99.702
 c 39.117 101.096 39.871 97.631 41.324 97.385 c 41.082 96.835 40.523 96.628
 40.387 96.057 c 40.211 95.335 40.688 94.202 40.977 93.546 c 41.266 92.889
 41.684 92.256 42.062 91.772 c 44.562 88.565 48.816 86.503 53.043 85.569
 c 53.062 85.858 53.219 86.014 53.242 86.307 c 50.254 86.967 47.715 87.799
 45.363 89.46 c 43.836 90.534 42.277 92.042 41.617 93.991 c 41.43 94.553
 41.039 95.733 41.324 96.401 c 41.727 97.354 42.898 96.241 43.488 95.909
 c 44.66 95.256 45.582 94.901 46.738 94.335 c 47.254 94.085 47.832 93.596
 48.316 93.448 c 48.945 93.253 49.875 93.21 50.73 93.003 c 52.031 92.694
 53.816 91.952 54.719 92.956 c 50.137 93.561 46.215 94.901 42.949 96.897
 c 41.344 97.874 40.066 99.065 38.715 100.491 c 37.469 101.799 36.223 103.6
 36.25 105.909 c 36.266 106.971 36.664 107.639 37.336 107.975 c 40.945 103.374
 45.945 99.815 54.027 99.901 c 54.078 100.178 54.168 100.417 54.176 100.737
 c 52.613 101.077 51.336 101.963 51.223 103.592 c 51.867 103.588 52.609 
102.94 53.141 103.444 c 50.645 104.526 48.051 105.51 47.973 109.01 c 49.266
 108.12 50.16 106.569 52.156 106.546 c 49.246 108.233 46.809 110.389 46 
114.182 c 47.566 113.249 48.422 111.346 50.68 111.276 c 48.059 112.987 45.098
 114.62 45.312 119.006 c 46.859 117.729 47.715 115.499 49.891 115.018 c 
49.75 115.546 49.109 115.526 48.66 115.807 c 48.23 116.073 47.867 116.698
 47.43 117.233 c 46.992 117.768 46.59 118.194 46.246 118.71 c 45.422 119.975
 44.211 121.983 45.066 123.389 c 46.328 121.846 47.105 119.553 49.004 118.811
 c 48.234 119.87 47.277 120.995 46.348 122.206 c 45.461 123.358 44.422 124.663
 44.328 126.245 c 44.277 127.053 44.391 127.741 45.016 127.971 c 46.098 
126.229 46.516 123.823 48.512 122.995 c 47.746 123.881 46.953 125.186 46.246
 126.588 c 45.559 127.96 44.801 129.475 44.672 130.874 c 44.637 131.253 
44.629 131.628 44.672 131.909 c 44.754 132.467 45.531 133.698 46.148 133.585
 c 46.465 133.526 46.715 132.608 46.84 132.206 c 47.379 130.463 47.578 128.674
 49.004 128.018 c 47.977 130.182 46.156 133.756 47.48 136.538 c 48.023 134.932
 48.32 132.815 49.203 131.71 c h
31.574 113.835 m 28.34 118.764 24.957 124.475 23.051 131.171 c 22.191 134.194
 21.172 139.276 23.051 141.858 c 23.941 140.479 24.141 138.811 24.68 137.327
 c 26.266 132.936 28.832 129.198 31.621 125.952 c 30.16 128.397 29.027 131.616
 27.93 134.717 c 27.578 135.702 26.984 136.858 26.895 137.819 c 26.863 138.143
 26.914 138.491 26.895 138.753 c 26.836 139.577 26.562 140.401 26.352 141.268
 c 25.402 145.174 25.301 150.967 26.059 155.303 c 26.332 156.889 26.582 
158.823 28.027 159.389 c 28.469 151.378 30.723 145.178 33.395 139.393 c 
31.859 146.663 31.438 157.354 33.445 164.561 c 34.109 166.948 34.875 169.428
 36.941 170.272 c 36.594 164.991 36.426 158.612 37.531 154.069 c 37.828 
163.315 39.965 171.862 42.703 179.186 c 43.133 180.342 43.695 181.452 44.375
 182.585 c 45.004 183.624 45.652 184.932 46.395 185.588 c 46.609 185.776
 46.93 185.846 47.133 186.03 c 47.445 186.315 47.445 187.03 48.117 186.87
 c 48.344 186.69 48.043 186.225 47.922 185.932 c 45.914 181.018 44.645 175.022
 44.426 168.253 c 46.555 176.182 49.402 183.792 54.078 189.378 c 54.922 
190.389 55.742 191.342 56.836 191.991 c 56.914 192.171 57.082 192.268 57.133
 192.483 c 57.668 192.436 57.879 192.717 58.164 192.924 c 59.27 192.913 
60.16 193.764 61.219 193.319 c 61.188 193.104 60.934 193.112 60.676 193.124
 c 57.926 189.909 55.805 185.979 54.129 181.6 c 53.574 180.151 52.977 178.612
 52.648 177.069 c 52.316 175.495 51.77 174.139 51.371 172.538 c 50.262 168.1
 49.945 163.088 49.793 157.616 c 50.332 158.03 50.324 159.417 51.418 159.436
 c 51.57 156.245 51.23 153.311 51.516 150.526 c 51.801 147.76 52.367 145.213
 52.945 142.792 c 53.215 141.671 53.766 140.538 54.227 139.444 c 55.566 
136.268 57.496 133.385 59.051 130.53 c 62.004 129.655 62.484 126.311 63.188
 123.194 c 65.004 124.038 65.434 126.694 68.359 126.588 c 68.504 126.327
 68.684 126.096 68.656 125.655 c 69.625 126.272 71.219 127.713 72.84 127.624
 c 73.441 127.592 74.172 127.253 74.07 126.542 c 73.316 126.491 73.145 126.94
 72.152 126.835 c 71.133 126.733 70.148 126.049 69.395 125.358 c 68.617 
124.647 68.051 123.702 67.277 123.292 c 67.074 124.35 67.75 124.862 67.867
 125.753 c 65.52 125.198 63.543 122.807 62.547 120.682 c 62.426 120.421 
62.324 119.659 62.008 119.596 c 61.438 119.487 61.406 120.409 61.367 120.682
 c 59.219 119.264 57.77 116.319 58.215 112.456 c 58.012 112.331 57.727 112.288
 57.379 112.307 c 56.762 110.46 57.418 108.245 58.215 107.038 c 58.93 107.174
 59.344 107.78 60.184 107.678 c 60.695 107.62 61.734 106.745 62.254 106.499
 c 62.598 106.335 63.047 106.213 63.434 106.053 c 63.836 105.889 64.199 
105.628 64.52 105.561 c 65.117 105.44 65.68 105.463 66.145 105.463 c 69.535
 105.456 71.586 107.057 73.578 108.616 c 74.621 109.428 76.32 110.452 77.422
 109.108 c 77.809 108.635 78.262 107.749 78.309 107.237 c 78.332 106.944
 78.191 106.616 78.16 106.253 c 78.078 105.303 78.473 104.241 78.453 103.542
 c 78.438 102.948 78.109 102.112 77.914 101.424 c 76.922 97.979 75.562 94.889
 72.938 93.104 c 72.441 92.764 71.895 92.366 71.461 91.921 c 71.035 91.483
 70.559 90.866 69.836 91.034 c 69.484 91.522 69.457 92.362 69.344 93.151
 c 69.234 93.928 69.227 94.729 69 95.37 c 68.195 94.186 67.629 92.768 67.078
 91.331 c 66.734 91.331 66.391 91.331 66.043 91.331 c 65.324 91.987 65.535
 93.768 65.797 94.776 c 63.773 94.901 61.371 93.893 60.383 92.71 c 59.738
 91.94 59.832 90.538 59.543 89.213 c 58.574 89.327 57.91 89.745 57.23 90.147
 c 54.562 87.288 52.941 82.467 52.75 76.901 c 52.719 76.088 52.609 75.202
 52.699 74.44 c 52.863 73.006 53.18 71.46 53.488 70.057 c 53.793 68.651 
54.188 67.319 54.766 66.213 c 54.66 65.893 54.555 65.573 54.422 65.28 c 
53.793 66.686 53.254 68.182 52.848 69.811 c 48.875 71.108 44.98 72.483 42.801
 75.569 c 42.84 75.842 43.16 75.835 43.293 76.014 c 37.457 78.944 33.328
 83.874 29.602 89.163 c 29.336 89.538 28.988 89.862 28.863 90.198 c 28.762
 90.467 28.785 90.745 28.715 90.983 c 28.586 91.452 28.262 91.776 28.273
 92.264 c 29.875 92.128 30.488 90.952 31.672 90.296 c 32.516 89.827 33.328
 89.514 34.43 89.163 c 33.824 90.018 33.062 90.76 32.359 91.526 c 27.395
 96.932 22.129 102.335 20.984 111.62 c 21.945 111.444 22.121 110.413 22.461
 109.749 c 22.816 109.053 23.309 108.346 23.742 107.729 c 26.438 103.889
 29.906 100.721 33.938 98.128 c 30.387 103.065 26.129 107.717 23.742 113.983
 c 23.727 114.198 23.352 114.053 23.297 114.229 c 22.609 116.979 21.676 
119.659 20.887 122.503 c 20.156 125.128 19.465 128.796 20.395 131.811 c 
20.617 131.87 20.703 131.585 20.789 131.463 c 21.141 130.96 21.324 130.237
 21.574 129.546 c 22.512 126.956 23.793 124.503 25.172 122.256 c 27.051 
119.186 29.23 116.346 31.574 113.885 c 31.574 113.87 31.574 113.854 31.574
 113.835 c f
q 1 0 0 1 0 194.549408 cm
75.449 -89.234 m 74.891 -89.574 74.195 -89.777 73.434 -90.07 c 72.824 -90.305
 71.945 -90.547 71.559 -90.859 c 71.383 -91.004 71.281 -91.363 71.066 -91.598
 c 70.762 -91.934 70.367 -92.156 70.082 -92.484 c 68.688 -94.07 67.379 -96.141
 66.734 -98.492 c 66.391 -99.738 66.062 -101.699 66.684 -102.531 c 67.43
 -99.621 69.203 -96.93 71.266 -95.145 c 72.285 -94.258 73.301 -93.234 74.91
 -93.273 c 75.184 -92.055 75.605 -90.719 75.449 -89.234 c h
72.348 -87.953 m 71.91 -88.195 71.41 -88.281 70.922 -88.543 c 70.723 -88.648
 70.586 -88.84 70.379 -88.938 c 69.781 -89.219 69 -89.391 68.309 -89.578
 c 65.605 -90.309 62.992 -89.574 61.316 -88.395 c 61.031 -88.195 60.477 
-87.539 60.137 -87.512 c 59.82 -87.484 59.254 -87.828 58.855 -88.051 c 56.195
 -89.527 54.75 -93.082 54.766 -97.016 c 54.785 -100.855 56.367 -103.176 
59.102 -104.305 c 59.039 -102.375 59.457 -100.902 60.184 -99.277 c 60.723
 -98.082 61.391 -96.801 62.301 -96.324 c 62.891 -96.02 64.469 -95.586 64.566
 -96.523 c 66.793 -95.418 66.785 -92.738 68.703 -91.352 c 70.605 -89.977
 73.746 -89.934 75.352 -88.297 c 75.695 -87.949 75.852 -87.18 76.535 -87.312
 c 76.945 -87.984 76.059 -88.422 75.992 -88.887 c 75.93 -89.312 76.188 -89.887
 76.191 -90.316 c 76.195 -92.379 75.285 -94.477 74.566 -96.176 c 74.184 
-97.082 73.895 -97.961 73.332 -98.688 c 72.789 -99.398 72.141 -99.945 71.363
 -100.461 c 70.699 -99.711 70.363 -98.641 69.934 -97.652 c 69.422 -98.195
 69.766 -99.18 69.836 -100.02 c 69.914 -100.906 70.016 -101.824 70.23 -102.48
 c 70.539 -102.422 70.824 -102.148 71.066 -101.938 c 72.996 -100.285 74.938
 -98.887 75.992 -96.375 c 76.555 -95.027 77.195 -93.719 77.371 -91.793 c
 77.488 -90.523 77.391 -88.742 77.273 -87.512 c 77.152 -86.254 77.156 -85.824
 76.141 -85.59 c 74.68 -86.211 73.613 -87.258 72.348 -87.953 c h
49.203 -62.84 m 49.172 -62.836 49.145 -62.828 49.152 -62.789 c 48.953 -61.016
 48.137 -59.5 48.02 -57.617 c 47.984 -57.012 47.992 -55.824 48.613 -55.746
 c 49.023 -55.695 49.543 -56.152 49.695 -56.484 c 49.82 -56.75 49.82 -57.141
 49.891 -57.422 c 50.426 -59.441 51.844 -61.367 52.305 -63.281 c 51.695 
-63.254 51.566 -62.758 50.926 -62.84 c 49.777 -62.98 49.492 -64.867 49.598
 -66.285 c 49.859 -69.895 52.031 -72.949 53.191 -75.395 c 52.418 -75.438
 52.004 -76.641 52.156 -77.512 c 52.242 -78.004 52.715 -78.738 52.996 -79.285
 c 53.871 -80.988 55.242 -82.805 56.59 -83.668 c 56.586 -83.262 56.676 -83.004
 56.59 -82.633 c 55.84 -82.066 55.078 -81.184 54.422 -80.27 c 53.621 -79.156
 52.711 -77.688 53.289 -76.133 c 54.223 -76.434 54.691 -77.457 55.652 -77.562
 c 55.941 -76.648 54.973 -76.445 54.57 -75.984 c 54.309 -75.688 54.074 -75.203
 53.781 -74.805 c 53.492 -74.41 53.176 -73.984 52.996 -73.574 c 52.875 -73.297
 52.824 -72.969 52.699 -72.688 c 52.477 -72.188 52.105 -71.746 51.863 -71.258
 c 50.836 -69.219 49.504 -65.84 51.074 -63.574 c 53.16 -64.262 54.082 -66.34
 55.309 -67.812 c 55.406 -67.926 55.52 -68.156 55.703 -68.105 c 55.652 -66.32
 54.566 -65.727 53.832 -64.512 c 53.305 -63.645 52.863 -62.672 52.402 -61.754
 c 51.059 -59.074 49.758 -55.867 49.449 -52.102 c 49.348 -50.859 49.039 
-49.66 48.906 -48.457 c 48.676 -46.367 48.84 -44.289 49.105 -42.547 c 49.191
 -41.969 49.41 -41.359 49.449 -40.773 c 49.539 -39.41 49.105 -38.484 48.613
 -37.523 c 48.332 -36.984 47.906 -36.137 47.48 -36.047 c 47.121 -35.973 
46.508 -36.211 46.102 -36.344 c 44.848 -36.75 44.176 -37.508 44.031 -38.855
 c 43.527 -39.602 43.449 -40.352 43.391 -41.465 c 43.266 -43.895 42.535 
-46.668 42.949 -49.047 c 41.918 -48.34 40.605 -48.891 39.797 -49.441 c 39.031
 -49.965 38.258 -50.48 38.023 -51.461 c 37.848 -52.199 37.773 -53.207 37.68
 -54.121 c 37.375 -57.062 38.344 -59.98 38.961 -61.805 c 38.719 -62.141 
38.41 -62.25 38.172 -62.543 c 36.781 -64.242 37.566 -67.68 38.223 -69.633
 c 36.699 -69.379 35.762 -70.629 35.461 -71.699 c 34.824 -73.988 36.188 
-76.895 36.988 -78.152 c 34.164 -79.008 35.633 -83.988 36.742 -85.637 c 
36.504 -85.891 36.262 -86.023 36.102 -86.277 c 34.543 -88.797 36.578 -92.195
 37.68 -93.863 c 36.07 -94.34 35.363 -96.266 35.363 -98 c 35.363 -100.82
 36.707 -102.859 38.074 -104.449 c 38.523 -104.977 39.199 -105.832 39.207
 -106.422 c 39.211 -106.934 38.91 -107.234 38.859 -107.602 c 38.801 -108.027
 38.828 -108.465 38.859 -108.832 c 39.109 -111.836 41.789 -113.086 43.688
 -114.449 c 43.176 -115.848 44.422 -116.672 44.723 -117.746 c 46.891 -118.879
 48.633 -120.434 51.91 -120.457 c 51.914 -120.254 51.922 -120.051 51.863
 -119.914 c 48.066 -119.523 45.316 -118.086 44.23 -114.988 c 45.961 -115.52
 47.73 -116.633 49.891 -116.762 c 50.609 -116.805 51.625 -116.777 52.008
 -116.27 c 51.879 -115.488 51.273 -115.973 50.73 -116.023 c 50.449 -116.051
 49.898 -116.043 49.645 -116.023 c 47.383 -115.859 44.898 -114.75 43.344
 -113.711 c 41.621 -112.559 39.824 -110.98 39.551 -108.883 c 39.449 -108.121
 39.488 -107.484 39.895 -106.863 c 40.602 -106.859 40.707 -107.688 41.125
 -108.047 c 41.488 -108.359 42.152 -108.52 42.652 -108.832 c 44 -109.684
 45.551 -110.984 47.133 -111.395 c 47.352 -111.449 47.625 -111.414 47.824
 -111.492 c 48.105 -111.609 48.305 -111.938 48.613 -112.086 c 49.203 -112.363
 50.094 -112.617 50.777 -112.676 c 51.098 -112.703 51.848 -112.84 52.059
 -112.281 c 46.043 -110.883 40.664 -107.492 37.68 -102.973 c 37.223 -102.281
 36.684 -101.473 36.449 -100.805 c 35.828 -99.059 36.039 -95.734 37.234 
-94.848 c 39.117 -93.453 39.871 -96.918 41.324 -97.164 c 41.082 -97.715 
40.523 -97.922 40.387 -98.492 c 40.211 -99.215 40.688 -100.348 40.977 -101.004
 c 41.266 -101.66 41.684 -102.293 42.062 -102.777 c 44.562 -105.984 48.816
 -108.047 53.043 -108.98 c 53.062 -108.691 53.219 -108.535 53.242 -108.242
 c 50.254 -107.582 47.715 -106.75 45.363 -105.09 c 43.836 -104.016 42.277
 -102.508 41.617 -100.559 c 41.43 -99.996 41.039 -98.816 41.324 -98.148 
c 41.727 -97.195 42.898 -98.309 43.488 -98.641 c 44.66 -99.293 45.582 -99.648
 46.738 -100.215 c 47.254 -100.465 47.832 -100.953 48.316 -101.102 c 48.945
 -101.297 49.875 -101.34 50.73 -101.547 c 52.031 -101.855 53.816 -102.598
 54.719 -101.594 c 50.137 -100.988 46.215 -99.648 42.949 -97.652 c 41.344
 -96.676 40.066 -95.484 38.715 -94.059 c 37.469 -92.75 36.223 -90.949 36.25
 -88.641 c 36.266 -87.578 36.664 -86.91 37.336 -86.574 c 40.945 -91.176 
45.945 -94.734 54.027 -94.648 c 54.078 -94.371 54.168 -94.133 54.176 -93.812
 c 52.613 -93.473 51.336 -92.586 51.223 -90.957 c 51.867 -90.961 52.609 
-91.609 53.141 -91.105 c 50.645 -90.023 48.051 -89.039 47.973 -85.539 c 
49.266 -86.43 50.16 -87.98 52.156 -88.004 c 49.246 -86.316 46.809 -84.16
 46 -80.367 c 47.566 -81.301 48.422 -83.203 50.68 -83.273 c 48.059 -81.562
 45.098 -79.93 45.312 -75.543 c 46.859 -76.82 47.715 -79.051 49.891 -79.531
 c 49.75 -79.004 49.109 -79.023 48.66 -78.742 c 48.23 -78.477 47.867 -77.852
 47.43 -77.316 c 46.992 -76.781 46.59 -76.355 46.246 -75.84 c 45.422 -74.574
 44.211 -72.566 45.066 -71.16 c 46.328 -72.703 47.105 -74.996 49.004 -75.738
 c 48.234 -74.68 47.277 -73.555 46.348 -72.344 c 45.461 -71.191 44.422 -69.887
 44.328 -68.305 c 44.277 -67.496 44.391 -66.809 45.016 -66.578 c 46.098 
-68.32 46.516 -70.727 48.512 -71.555 c 47.746 -70.668 46.953 -69.363 46.246
 -67.961 c 45.559 -66.59 44.801 -65.074 44.672 -63.676 c 44.637 -63.297 
44.629 -62.922 44.672 -62.641 c 44.754 -62.082 45.531 -60.852 46.148 -60.965
 c 46.465 -61.023 46.715 -61.941 46.84 -62.344 c 47.379 -64.086 47.578 -65.875
 49.004 -66.531 c 47.977 -64.367 46.156 -60.793 47.48 -58.012 c 48.023 -59.617
 48.32 -61.734 49.203 -62.84 c h
31.574 -80.715 m 28.34 -75.785 24.957 -70.074 23.051 -63.379 c 22.191 -60.355
 21.172 -55.273 23.051 -52.691 c 23.941 -54.07 24.141 -55.738 24.68 -57.223
 c 26.266 -61.613 28.832 -65.352 31.621 -68.598 c 30.16 -66.152 29.027 -62.934
 27.93 -59.832 c 27.578 -58.848 26.984 -57.691 26.895 -56.73 c 26.863 -56.406
 26.914 -56.059 26.895 -55.797 c 26.836 -54.973 26.562 -54.148 26.352 -53.281
 c 25.402 -49.375 25.301 -43.582 26.059 -39.246 c 26.332 -37.66 26.582 -35.727
 28.027 -35.16 c 28.469 -43.172 30.723 -49.371 33.395 -55.156 c 31.859 -47.887
 31.438 -37.195 33.445 -29.988 c 34.109 -27.602 34.875 -25.121 36.941 -24.277
 c 36.594 -29.559 36.426 -35.938 37.531 -40.48 c 37.828 -31.234 39.965 -22.688
 42.703 -15.363 c 43.133 -14.207 43.695 -13.098 44.375 -11.965 c 45.004 
-10.926 45.652 -9.617 46.395 -8.961 c 46.609 -8.773 46.93 -8.703 47.133 
-8.52 c 47.445 -8.234 47.445 -7.52 48.117 -7.68 c 48.344 -7.859 48.043 -8.324
 47.922 -8.617 c 45.914 -13.531 44.645 -19.527 44.426 -26.297 c 46.555 -18.367
 49.402 -10.758 54.078 -5.172 c 54.922 -4.16 55.742 -3.207 56.836 -2.559
 c 56.914 -2.379 57.082 -2.281 57.133 -2.066 c 57.668 -2.113 57.879 -1.832
 58.164 -1.625 c 59.27 -1.637 60.16 -0.785 61.219 -1.23 c 61.188 -1.445 
60.934 -1.438 60.676 -1.426 c 57.926 -4.641 55.805 -8.57 54.129 -12.949 
c 53.574 -14.398 52.977 -15.938 52.648 -17.48 c 52.316 -19.055 51.77 -20.41
 51.371 -22.012 c 50.262 -26.449 49.945 -31.461 49.793 -36.934 c 50.332 
-36.52 50.324 -35.133 51.418 -35.113 c 51.57 -38.305 51.23 -41.238 51.516
 -44.023 c 51.801 -46.789 52.367 -49.336 52.945 -51.758 c 53.215 -52.879
 53.766 -54.012 54.227 -55.105 c 55.566 -58.281 57.496 -61.164 59.051 -64.02
 c 62.004 -64.895 62.484 -68.238 63.188 -71.355 c 65.004 -70.512 65.434 
-67.855 68.359 -67.961 c 68.504 -68.223 68.684 -68.453 68.656 -68.895 c 
69.625 -68.277 71.219 -66.836 72.84 -66.926 c 73.441 -66.957 74.172 -67.297
 74.07 -68.008 c 73.316 -68.059 73.145 -67.609 72.152 -67.715 c 71.133 -67.816
 70.148 -68.5 69.395 -69.191 c 68.617 -69.902 68.051 -70.848 67.277 -71.258
 c 67.074 -70.199 67.75 -69.688 67.867 -68.797 c 65.52 -69.352 63.543 -71.742
 62.547 -73.867 c 62.426 -74.129 62.324 -74.891 62.008 -74.953 c 61.438 
-75.062 61.406 -74.141 61.367 -73.867 c 59.219 -75.285 57.77 -78.23 58.215
 -82.094 c 58.012 -82.219 57.727 -82.262 57.379 -82.242 c 56.762 -84.09 
57.418 -86.305 58.215 -87.512 c 58.93 -87.375 59.344 -86.77 60.184 -86.871
 c 60.695 -86.93 61.734 -87.805 62.254 -88.051 c 62.598 -88.215 63.047 -88.336
 63.434 -88.496 c 63.836 -88.66 64.199 -88.922 64.52 -88.988 c 65.117 -89.109
 65.68 -89.086 66.145 -89.086 c 69.535 -89.094 71.586 -87.492 73.578 -85.934
 c 74.621 -85.121 76.32 -84.098 77.422 -85.441 c 77.809 -85.914 78.262 -86.801
 78.309 -87.312 c 78.332 -87.605 78.191 -87.934 78.16 -88.297 c 78.078 -89.246
 78.473 -90.309 78.453 -91.008 c 78.438 -91.602 78.109 -92.438 77.914 -93.125
 c 76.922 -96.57 75.562 -99.66 72.938 -101.445 c 72.441 -101.785 71.895 
-102.184 71.461 -102.629 c 71.035 -103.066 70.559 -103.684 69.836 -103.516
 c 69.484 -103.027 69.457 -102.188 69.344 -101.398 c 69.234 -100.621 69.227
 -99.82 69 -99.18 c 68.195 -100.363 67.629 -101.781 67.078 -103.219 c 66.734
 -103.219 66.391 -103.219 66.043 -103.219 c 65.324 -102.562 65.535 -100.781
 65.797 -99.773 c 63.773 -99.648 61.371 -100.656 60.383 -101.84 c 59.738
 -102.609 59.832 -104.012 59.543 -105.336 c 58.574 -105.223 57.91 -104.805
 57.23 -104.402 c 54.562 -107.262 52.941 -112.082 52.75 -117.648 c 52.719
 -118.461 52.609 -119.348 52.699 -120.109 c 52.863 -121.543 53.18 -123.09
 53.488 -124.492 c 53.793 -125.898 54.188 -127.23 54.766 -128.336 c 54.66
 -128.656 54.555 -128.977 54.422 -129.27 c 53.793 -127.863 53.254 -126.367
 52.848 -124.738 c 48.875 -123.441 44.98 -122.066 42.801 -118.98 c 42.84
 -118.707 43.16 -118.715 43.293 -118.535 c 37.457 -115.605 33.328 -110.676
 29.602 -105.387 c 29.336 -105.012 28.988 -104.688 28.863 -104.352 c 28.762
 -104.082 28.785 -103.805 28.715 -103.566 c 28.586 -103.098 28.262 -102.773
 28.273 -102.285 c 29.875 -102.422 30.488 -103.598 31.672 -104.254 c 32.516
 -104.723 33.328 -105.035 34.43 -105.387 c 33.824 -104.531 33.062 -103.789
 32.359 -103.023 c 27.395 -97.617 22.129 -92.215 20.984 -82.93 c 21.945 
-83.105 22.121 -84.137 22.461 -84.801 c 22.816 -85.496 23.309 -86.203 23.742
 -86.82 c 26.438 -90.66 29.906 -93.828 33.938 -96.422 c 30.387 -91.484 26.129
 -86.832 23.742 -80.566 c 23.727 -80.352 23.352 -80.496 23.297 -80.32 c 
22.609 -77.57 21.676 -74.891 20.887 -72.047 c 20.156 -69.422 19.465 -65.754
 20.395 -62.738 c 20.617 -62.68 20.703 -62.965 20.789 -63.086 c 21.141 -63.59
 21.324 -64.312 21.574 -65.004 c 22.512 -67.594 23.793 -70.047 25.172 -72.293
 c 27.051 -75.363 29.23 -78.203 31.574 -80.664 c 31.574 -80.68 31.574 -80.695
 31.574 -80.715 c S Q
126.57 95.37 m 125.918 93.034 124.652 91.213 123.27 89.803 c 121.941 88.448
 120.207 86.948 118.344 85.913 c 116.488 84.878 114.215 83.737 111.648 83.745
 c 111.102 83.749 110.445 83.897 110.07 83.698 c 110.207 83.452 110.098 
82.967 110.414 82.909 c 111.031 83.163 111.828 82.932 112.633 83.006 c 113.629
 83.1 114.746 83.553 115.734 83.944 c 118.262 84.94 120.188 86.128 121.938
 87.881 c 122.488 88.432 122.719 89.026 123.465 88.768 c 123.902 85.1 121.953
 83.003 119.43 81.975 c 118.645 81.327 117.555 80.858 116.324 80.448 c 115.312
 80.104 114.172 79.881 113.125 79.956 c 112.309 80.01 111.68 80.385 110.859
 80.346 c 110.719 80.12 110.887 79.835 110.859 79.561 c 113.559 78.612 116.625
 79.71 118.59 80.694 c 117.434 77.936 114.996 76.225 111.008 76.46 c 110.969
 76.124 111.074 75.936 111.055 75.62 c 115.688 75.651 118.156 77.842 119.43
 81.233 c 121.609 82.147 123.934 84.378 124.203 87.194 c 124.285 88.042 
124.254 89.061 123.566 89.065 c 125.074 91.674 128.16 94.944 127.699 99.405
 c 127.57 100.69 126.68 102.503 125.34 102.264 c 127.293 100.956 127.242
 97.78 126.57 95.37 c h
114.305 109.897 m 114.305 109.846 114.266 109.838 114.258 109.796 c 113.699
 107.893 112.887 106.03 111.352 105.366 c 110.684 105.077 109.637 105.26
 109.234 104.428 c 109.906 104.135 110.492 104.6 111.254 104.53 c 110.605
 103.311 109.84 101.776 107.906 102.163 c 107.891 101.756 108.078 101.553
 108.102 101.178 c 116.992 100.549 121.594 105.049 124.992 110.241 c 125.574
 109.366 126.066 108.487 126.074 107.139 c 126.109 103.038 123.238 100.362
 120.512 98.522 c 117.621 96.569 114.273 94.776 110.27 94.53 c 109.414 94.479
 108.852 94.581 108.25 94.581 c 107.645 94.581 106.852 94.503 106.672 94.038
 c 113.047 93.362 117.184 95.991 120.953 98.077 c 121.629 94.71 119.816 
92.03 117.754 90.444 c 115.527 88.733 112.453 87.643 108.742 87.932 c 108.832
 87.741 108.992 87.198 109.234 86.995 c 113.91 87.163 118.184 89.171 120.266
 92.315 c 121.281 93.85 122.465 96.268 121.496 98.421 c 123.59 100.62 127.328
 103.256 126.715 107.878 c 126.711 107.936 126.652 108.171 126.617 108.272
 c 126.344 109.104 125.773 109.893 125.484 110.831 c 126 112.913 127.086
 116.639 125.387 118.217 c 126.031 119.378 126.867 121.276 126.617 122.995
 c 126.438 124.253 125.996 125.135 125.191 125.901 c 124.664 126.401 124.055
 126.651 123.27 126.737 c 123.535 127.897 124.012 129.393 123.91 130.874
 c 123.867 131.487 123.809 132.421 123.664 132.991 c 123.52 133.565 122.523
 134.346 122.48 134.717 c 122.449 135.003 122.781 135.733 122.875 136.096
 c 123.254 137.569 123.57 139.116 123.566 140.874 c 123.559 142.901 122.973
 144.487 122.137 145.698 c 121.977 145.932 121.863 146.268 121.691 146.436
 c 121.488 146.643 120.973 146.87 120.562 147.077 c 119.801 147.46 119.035
 147.69 118.148 147.374 c 118.402 148.78 117.965 150.112 117.852 151.413
 c 117.812 151.866 117.875 152.327 117.805 152.741 c 117.66 153.553 117.391
 154.26 117.164 155.053 c 117.086 155.331 117.102 155.624 117.016 155.893
 c 116.465 157.616 115.562 159.862 112.926 159.538 c 112.207 159.448 111.207
 159.022 110.906 158.206 c 110.637 157.463 111.082 157.003 111.254 156.483
 c 111.559 155.565 111.668 154.331 111.797 153.182 c 112.629 145.651 111.344
 138.241 109.137 133.092 c 108.75 132.194 108.402 131.108 107.906 130.432
 c 107.512 129.897 106.578 129.577 106.922 128.608 c 108.383 129.206 108.738
 131.838 111.105 131.366 c 111.668 127.889 110.773 124.815 109.578 122.503
 c 109.176 121.725 108.73 120.792 108.25 120.237 c 107.715 119.624 106.816
 119.303 106.969 118.12 c 108.25 118.112 108.359 119.717 109.727 119.303
 c 109.5 117.612 108.797 116.428 107.953 115.362 c 107.113 114.299 106.113
 113.378 105.492 112.112 c 105.855 111.928 106.027 112.319 106.426 112.26
 c 106.977 111.499 106.137 110.577 105.688 110.042 c 105.148 109.401 104.445
 108.842 103.621 108.667 c 103.91 107.674 105.105 108.506 105.539 108.913
 c 105.875 109.225 106.266 109.815 106.574 110.338 c 106.859 110.819 107.402
 111.538 107.363 112.014 c 107.324 112.475 106.762 112.596 106.672 112.948
 c 107.832 114.393 110.004 116.128 110.172 118.514 c 110.227 119.331 110.051
 119.694 109.824 120.237 c 109.422 120.299 109.27 120.1 108.891 120.139 
c 110.699 123.01 112.574 127.44 111.648 132.057 c 110.941 132.389 109.965
 132.1 109.332 131.909 c 110.617 134.268 111.324 137.206 111.941 140.233
 c 114.289 139.046 112.504 134.971 112.141 132.893 c 112.867 133.124 113.395
 134.354 113.566 135.799 c 113.727 137.151 113.875 139.038 113.52 139.987
 c 113.262 140.667 112.562 140.803 112.039 141.12 c 112.844 145.503 112.922
 151.35 111.992 155.647 c 111.863 156.237 111.5 157.124 111.547 157.518 
c 111.637 158.21 112.801 158.87 113.715 158.846 c 115.723 158.799 116.102
 156.553 116.57 154.858 c 116.805 154.018 117.168 153.096 117.262 152.1 
c 117.758 146.788 117.336 140.116 115.391 136.686 c 115.793 137.643 114.605
 139.112 114.16 137.87 c 114.195 137.643 114.707 137.893 114.75 137.671 
c 115.008 135.858 114.812 134.264 114.305 132.893 c 113.801 131.526 112.973
 130.409 112.586 129.202 c 113.152 129.135 113.336 129.733 113.617 130.085
 c 113.84 130.362 114.203 130.557 114.406 130.874 c 115.094 131.963 114.824
 133.663 115.59 134.764 c 116.219 134.292 116.426 133.409 116.426 132.401
 c 116.426 128.69 114.133 126.128 112.68 123.737 c 115.191 124.557 115.422
 127.659 116.672 129.741 c 117.797 128.819 117.152 126.815 116.719 125.557
 c 115.828 122.96 113.621 121.526 112.285 119.647 c 115.078 120.284 115.688
 123.37 117.359 124.963 c 116.945 120.604 114.867 117.901 111.746 116.249
 c 115.012 115.956 115.535 119.088 116.918 120.682 c 116.793 116.838 114.586
 114.827 112.285 113.194 c 112.004 112.995 111.336 112.686 111.402 112.506
 c 113.637 112.354 114.227 114.112 115.293 114.967 c 115.168 113.963 115.254
 113.147 114.945 112.409 c 114.824 112.12 114.578 111.885 114.453 111.62
 c 114.309 111.307 114.273 110.971 114.109 110.682 c 113.207 109.124 111.539
 108.796 110.219 107.534 c 112.484 107.417 113.047 109.003 114.305 109.897
 c h
128.688 143.53 m 130.41 147.503 131.582 152.85 132.184 158.159 c 132.316
 159.346 131.945 161.104 132.773 161.702 c 133.254 161.315 133.477 160.663
 133.711 160.077 c 134.402 158.327 134.844 156.135 135.188 154.022 c 136.715
 144.596 134.258 135.194 130.754 129.249 c 133.852 132.557 136.082 137.139
 137.746 142.104 c 137.977 142.792 138.086 143.546 138.488 144.171 c 138.781
 144.307 138.793 143.768 139.129 143.776 c 139.855 132.69 135.859 125.518
 132.23 118.463 c 135.875 122.604 138.449 128.237 140.949 133.682 c 141.133
 133.463 141.816 133.296 141.934 132.944 c 142.109 132.405 141.711 131.1
 141.637 130.432 c 141.539 129.538 141.512 128.581 141.441 127.823 c 140.961
 122.71 139.516 118.483 137.848 114.671 c 135.539 109.397 132.391 104.979
 129.375 100.835 c 134.172 103.85 137.895 108.206 140.949 112.803 c 141.844
 112.256 140.84 111.346 140.605 110.831 c 140.082 109.698 139.828 108.421
 139.473 107.288 c 139.105 106.124 138.789 104.924 138.191 103.889 c 137.344
 102.421 136.371 101.085 135.531 99.553 c 135.262 99.065 135.043 98.487 
134.742 98.026 c 134.383 97.463 133.754 96.967 133.266 96.452 c 131.824 
94.921 130.344 93.323 129.18 91.526 c 128.574 91.362 128.27 90.893 127.949
 90.444 c 130.824 90.963 132.023 93.163 134.695 93.893 c 134.707 92.917 
133.98 92.253 133.465 91.526 c 132.441 90.096 131.75 88.557 130.707 87.096
 c 130.188 86.374 129.918 85.495 129.426 84.831 c 129.289 84.647 128.977
 84.526 128.734 84.288 c 128.52 84.073 128.406 83.741 128.242 83.6 c 128.094
 83.467 127.879 83.463 127.75 83.354 c 127.625 83.241 127.586 83.042 127.453
 82.909 c 126.293 81.71 125.055 80.616 123.566 79.561 c 123.016 79.171 122.434
 78.499 121.938 78.327 c 121.695 78.245 121.43 78.303 121.199 78.229 c 120.758
 78.092 120.516 77.682 120.02 77.588 c 120.012 76.514 119.605 75.838 119.133
 75.229 c 116.93 74.772 115.379 74.003 114.012 72.663 c 113.652 72.311 113.203
 71.522 112.828 71.338 c 112.16 70.999 111.164 71.206 110.414 71.338 c 109.484
 65.284 106.855 60.694 104.508 56.022 c 104.117 55.241 103.672 54.479 103.227
 53.756 c 102.789 53.038 102.18 52.417 101.797 51.686 c 101.715 51.522 101.695
 51.307 101.602 51.147 c 101.121 50.292 100.332 49.483 99.629 48.585 c 99.352
 48.225 99.023 47.78 98.645 47.303 c 98.367 46.956 97.875 46.229 97.613 
46.12 c 96.906 45.838 95.254 46.073 94.363 46.073 c 93.219 46.073 91.719
 46.124 91.258 46.713 c 90.449 47.749 90.715 50.62 90.715 52.573 c 90.719
 56.917 90.715 61.167 90.715 65.378 c 90.719 67.506 90.605 69.729 90.965
 71.483 c 91.781 71.963 92.758 71.713 93.625 72.026 c 95.309 72.631 95.125
 75.979 93.574 76.557 c 89.938 76.452 86.062 76.319 82.344 76.46 c 81.762
 79.053 81.094 81.565 80.227 83.842 c 79.395 86.046 78.32 88.299 76.73 89.854
 c 76.113 90.456 75.277 90.788 74.91 91.674 c 74.188 91.971 73.363 92.167
 73.184 93.003 c 77.676 91.702 79.148 87.378 81.359 83.796 c 81.211 83.358
 81.383 82.842 81.457 82.463 c 82.207 86.538 84.496 89.467 87.121 91.87 
c 88.02 92.694 88.949 93.487 89.93 94.088 c 93.629 96.358 100.238 96.616
 103.816 94.135 c 104.281 93.815 104.633 93.354 105.098 93.053 c 105.18 
93.671 104.656 93.967 104.406 94.432 c 103.875 95.432 103.715 96.565 103.129
 97.487 c 102.703 98.151 101.934 98.569 101.945 99.506 c 104.055 99.003 
104.746 97.085 106.23 95.96 c 105.77 101.03 103.438 104.233 100.422 106.745
 c 99.98 106.76 99.578 106.518 99.285 106.792 c 99.254 106.991 99.16 107.128
 99.188 107.385 c 101.289 107.549 102.289 106.182 103.816 105.612 c 102.738
 109.608 99.074 111.44 95.887 113.491 c 96.051 114.171 97.113 113.799 97.562
 113.639 c 97.363 114.94 96.094 115.346 94.805 115.952 c 93.918 116.37 93.316
 117.038 92.688 117.432 c 92.086 117.803 91.145 117.87 90.469 118.217 c 
91.719 119.213 93.211 117.897 94.609 117.823 c 93.309 119.069 91.066 119.799
 88.844 120.288 c 89.312 120.823 90.207 120.542 90.766 120.436 c 92.559 
120.088 94.316 119.237 95.492 118.217 c 95.688 118.053 96.137 117.253 96.43
 117.331 c 96.711 117.409 96.543 117.721 96.676 118.171 c 96.734 118.37 
96.895 118.514 96.922 118.612 c 97.105 119.237 97.195 119.913 97.367 120.534
 c 98.391 124.26 99.039 127.96 101.109 130.729 c 101.602 131.385 102.07 
132.319 102.98 131.71 c 105.07 135.573 106.715 139.799 108.004 144.518 c
 108.645 146.858 109.156 149.405 109.281 152.151 c 109.41 154.893 109.207
 157.815 109.281 160.917 c 110.055 160.819 109.941 159.835 110.465 159.487
 c 109.789 172.706 106.105 182.421 100.617 190.905 c 100.266 191.448 99.789
 191.917 99.484 192.483 c 99.359 192.71 99.312 192.987 99.188 193.221 c 
98.961 193.651 98.422 193.862 98.547 194.503 c 99.152 194.522 99.789 194.292
 100.422 194.108 c 100.992 193.94 101.699 193.784 102.191 193.518 c 102.977
 193.088 103.793 191.842 104.508 191.053 c 109.422 185.647 113.039 178.932
 115.293 170.913 c 115.453 170.331 115.465 169.635 115.883 169.139 c 115.496
 174.299 114.82 179.448 113.617 183.963 c 113.422 184.694 113.273 185.495
 112.977 186.178 c 112.684 186.858 112.191 187.573 112.586 188.346 c 113.395
 187.932 113.566 186.944 114.012 186.229 c 114.23 185.874 114.629 185.643
 114.848 185.292 c 115.152 184.807 115.348 184.143 115.637 183.569 c 117.516
 179.831 119.34 175.651 120.562 171.21 c 122.008 165.94 122.453 160.01 122.777
 153.628 c 123.535 158.366 124.641 165.311 123.465 170.667 c 123.324 171.307
 123.102 172.284 124.008 172.44 c 127.262 167.296 129.09 159.96 129.477 
151.706 c 129.602 148.952 129.188 146.112 128.688 143.581 c 128.688 143.565
 128.688 143.546 128.688 143.53 c f
q 1 0 0 1 0 194.549408 cm
126.57 -99.18 m 125.918 -101.516 124.652 -103.336 123.27 -104.746 c 121.941
 -106.102 120.207 -107.602 118.344 -108.637 c 116.488 -109.672 114.215 -110.812
 111.648 -110.805 c 111.102 -110.801 110.445 -110.652 110.07 -110.852 c 
110.207 -111.098 110.098 -111.582 110.414 -111.641 c 111.031 -111.387 111.828
 -111.617 112.633 -111.543 c 113.629 -111.449 114.746 -110.996 115.734 -110.605
 c 118.262 -109.609 120.188 -108.422 121.938 -106.668 c 122.488 -106.117
 122.719 -105.523 123.465 -105.781 c 123.902 -109.449 121.953 -111.547 119.43
 -112.574 c 118.645 -113.223 117.555 -113.691 116.324 -114.102 c 115.312
 -114.445 114.172 -114.668 113.125 -114.594 c 112.309 -114.539 111.68 -114.164
 110.859 -114.203 c 110.719 -114.43 110.887 -114.715 110.859 -114.988 c 
113.559 -115.938 116.625 -114.84 118.59 -113.855 c 117.434 -116.613 114.996
 -118.324 111.008 -118.09 c 110.969 -118.426 111.074 -118.613 111.055 -118.93
 c 115.688 -118.898 118.156 -116.707 119.43 -113.316 c 121.609 -112.402 
123.934 -110.172 124.203 -107.355 c 124.285 -106.508 124.254 -105.488 123.566
 -105.484 c 125.074 -102.875 128.16 -99.605 127.699 -95.145 c 127.57 -93.859
 126.68 -92.047 125.34 -92.285 c 127.293 -93.594 127.242 -96.77 126.57 -99.18
 c h
114.305 -84.652 m 114.305 -84.703 114.266 -84.711 114.258 -84.754 c 113.699
 -86.656 112.887 -88.52 111.352 -89.184 c 110.684 -89.473 109.637 -89.289
 109.234 -90.121 c 109.906 -90.414 110.492 -89.949 111.254 -90.02 c 110.605
 -91.238 109.84 -92.773 107.906 -92.387 c 107.891 -92.793 108.078 -92.996
 108.102 -93.371 c 116.992 -94 121.594 -89.5 124.992 -84.309 c 125.574 -85.184
 126.066 -86.062 126.074 -87.41 c 126.109 -91.512 123.238 -94.188 120.512
 -96.027 c 117.621 -97.98 114.273 -99.773 110.27 -100.02 c 109.414 -100.07
 108.852 -99.969 108.25 -99.969 c 107.645 -99.969 106.852 -100.047 106.672
 -100.512 c 113.047 -101.188 117.184 -98.559 120.953 -96.473 c 121.629 -99.84
 119.816 -102.52 117.754 -104.105 c 115.527 -105.816 112.453 -106.906 108.742
 -106.617 c 108.832 -106.809 108.992 -107.352 109.234 -107.555 c 113.91 
-107.387 118.184 -105.379 120.266 -102.234 c 121.281 -100.699 122.465 -98.281
 121.496 -96.129 c 123.59 -93.93 127.328 -91.293 126.715 -86.672 c 126.711
 -86.613 126.652 -86.379 126.617 -86.277 c 126.344 -85.445 125.773 -84.656
 125.484 -83.719 c 126 -81.637 127.086 -77.91 125.387 -76.332 c 126.031 
-75.172 126.867 -73.273 126.617 -71.555 c 126.438 -70.297 125.996 -69.414
 125.191 -68.648 c 124.664 -68.148 124.055 -67.898 123.27 -67.812 c 123.535
 -66.652 124.012 -65.156 123.91 -63.676 c 123.867 -63.062 123.809 -62.129
 123.664 -61.559 c 123.52 -60.984 122.523 -60.203 122.48 -59.832 c 122.449
 -59.547 122.781 -58.816 122.875 -58.453 c 123.254 -56.98 123.57 -55.434
 123.566 -53.676 c 123.559 -51.648 122.973 -50.062 122.137 -48.852 c 121.977
 -48.617 121.863 -48.281 121.691 -48.113 c 121.488 -47.906 120.973 -47.68
 120.562 -47.473 c 119.801 -47.09 119.035 -46.859 118.148 -47.176 c 118.402
 -45.77 117.965 -44.438 117.852 -43.137 c 117.812 -42.684 117.875 -42.223
 117.805 -41.809 c 117.66 -40.996 117.391 -40.289 117.164 -39.496 c 117.086
 -39.219 117.102 -38.926 117.016 -38.656 c 116.465 -36.934 115.562 -34.688
 112.926 -35.012 c 112.207 -35.102 111.207 -35.527 110.906 -36.344 c 110.637
 -37.086 111.082 -37.547 111.254 -38.066 c 111.559 -38.984 111.668 -40.219
 111.797 -41.367 c 112.629 -48.898 111.344 -56.309 109.137 -61.457 c 108.75
 -62.355 108.402 -63.441 107.906 -64.117 c 107.512 -64.652 106.578 -64.973
 106.922 -65.941 c 108.383 -65.344 108.738 -62.711 111.105 -63.184 c 111.668
 -66.66 110.773 -69.734 109.578 -72.047 c 109.176 -72.824 108.73 -73.758
 108.25 -74.312 c 107.715 -74.926 106.816 -75.246 106.969 -76.43 c 108.25
 -76.438 108.359 -74.832 109.727 -75.246 c 109.5 -76.938 108.797 -78.121
 107.953 -79.188 c 107.113 -80.25 106.113 -81.172 105.492 -82.438 c 105.855
 -82.621 106.027 -82.23 106.426 -82.289 c 106.977 -83.051 106.137 -83.973
 105.688 -84.508 c 105.148 -85.148 104.445 -85.707 103.621 -85.883 c 103.91
 -86.875 105.105 -86.043 105.539 -85.637 c 105.875 -85.324 106.266 -84.734
 106.574 -84.211 c 106.859 -83.73 107.402 -83.012 107.363 -82.535 c 107.324
 -82.074 106.762 -81.953 106.672 -81.602 c 107.832 -80.156 110.004 -78.422
 110.172 -76.035 c 110.227 -75.219 110.051 -74.855 109.824 -74.312 c 109.422
 -74.25 109.27 -74.449 108.891 -74.41 c 110.699 -71.539 112.574 -67.109 
111.648 -62.492 c 110.941 -62.16 109.965 -62.449 109.332 -62.641 c 110.617
 -60.281 111.324 -57.344 111.941 -54.316 c 114.289 -55.504 112.504 -59.578
 112.141 -61.656 c 112.867 -61.426 113.395 -60.195 113.566 -58.75 c 113.727
 -57.398 113.875 -55.512 113.52 -54.562 c 113.262 -53.883 112.562 -53.746
 112.039 -53.43 c 112.844 -49.047 112.922 -43.199 111.992 -38.902 c 111.863
 -38.312 111.5 -37.426 111.547 -37.031 c 111.637 -36.34 112.801 -35.68 113.715
 -35.703 c 115.723 -35.75 116.102 -37.996 116.57 -39.691 c 116.805 -40.531
 117.168 -41.453 117.262 -42.449 c 117.758 -47.762 117.336 -54.434 115.391
 -57.863 c 115.793 -56.906 114.605 -55.438 114.16 -56.68 c 114.195 -56.906
 114.707 -56.656 114.75 -56.879 c 115.008 -58.691 114.812 -60.285 114.305
 -61.656 c 113.801 -63.023 112.973 -64.141 112.586 -65.348 c 113.152 -65.414
 113.336 -64.816 113.617 -64.465 c 113.84 -64.188 114.203 -63.992 114.406
 -63.676 c 115.094 -62.586 114.824 -60.887 115.59 -59.785 c 116.219 -60.258
 116.426 -61.141 116.426 -62.148 c 116.426 -65.859 114.133 -68.422 112.68
 -70.812 c 115.191 -69.992 115.422 -66.891 116.672 -64.809 c 117.797 -65.73
 117.152 -67.734 116.719 -68.992 c 115.828 -71.59 113.621 -73.023 112.285
 -74.902 c 115.078 -74.266 115.688 -71.18 117.359 -69.586 c 116.945 -73.945
 114.867 -76.648 111.746 -78.301 c 115.012 -78.594 115.535 -75.461 116.918
 -73.867 c 116.793 -77.711 114.586 -79.723 112.285 -81.355 c 112.004 -81.555
 111.336 -81.863 111.402 -82.043 c 113.637 -82.195 114.227 -80.438 115.293
 -79.582 c 115.168 -80.586 115.254 -81.402 114.945 -82.141 c 114.824 -82.43
 114.578 -82.664 114.453 -82.93 c 114.309 -83.242 114.273 -83.578 114.109
 -83.867 c 113.207 -85.426 111.539 -85.754 110.219 -87.016 c 112.484 -87.133
 113.047 -85.547 114.305 -84.652 c h
128.688 -51.02 m 130.41 -47.047 131.582 -41.699 132.184 -36.391 c 132.316
 -35.203 131.945 -33.445 132.773 -32.848 c 133.254 -33.234 133.477 -33.887
 133.711 -34.473 c 134.402 -36.223 134.844 -38.414 135.188 -40.527 c 136.715
 -49.953 134.258 -59.355 130.754 -65.301 c 133.852 -61.992 136.082 -57.41
 137.746 -52.445 c 137.977 -51.758 138.086 -51.004 138.488 -50.379 c 138.781
 -50.242 138.793 -50.781 139.129 -50.773 c 139.855 -61.859 135.859 -69.031
 132.23 -76.086 c 135.875 -71.945 138.449 -66.312 140.949 -60.867 c 141.133
 -61.086 141.816 -61.254 141.934 -61.605 c 142.109 -62.145 141.711 -63.449
 141.637 -64.117 c 141.539 -65.012 141.512 -65.969 141.441 -66.727 c 140.961
 -71.84 139.516 -76.066 137.848 -79.879 c 135.539 -85.152 132.391 -89.57
 129.375 -93.715 c 134.172 -90.699 137.895 -86.344 140.949 -81.746 c 141.844
 -82.293 140.84 -83.203 140.605 -83.719 c 140.082 -84.852 139.828 -86.129
 139.473 -87.262 c 139.105 -88.426 138.789 -89.625 138.191 -90.66 c 137.344
 -92.129 136.371 -93.465 135.531 -94.996 c 135.262 -95.484 135.043 -96.062
 134.742 -96.523 c 134.383 -97.086 133.754 -97.582 133.266 -98.098 c 131.824
 -99.629 130.344 -101.227 129.18 -103.023 c 128.574 -103.188 128.27 -103.656
 127.949 -104.105 c 130.824 -103.586 132.023 -101.387 134.695 -100.656 c
 134.707 -101.633 133.98 -102.297 133.465 -103.023 c 132.441 -104.453 131.75
 -105.992 130.707 -107.453 c 130.188 -108.176 129.918 -109.055 129.426 -109.719
 c 129.289 -109.902 128.977 -110.023 128.734 -110.262 c 128.52 -110.477 
128.406 -110.809 128.242 -110.949 c 128.094 -111.082 127.879 -111.086 127.75
 -111.195 c 127.625 -111.309 127.586 -111.508 127.453 -111.641 c 126.293
 -112.84 125.055 -113.934 123.566 -114.988 c 123.016 -115.379 122.434 -116.051
 121.938 -116.223 c 121.695 -116.305 121.43 -116.246 121.199 -116.32 c 120.758
 -116.457 120.516 -116.867 120.02 -116.961 c 120.012 -118.035 119.605 -118.711
 119.133 -119.32 c 116.93 -119.777 115.379 -120.547 114.012 -121.887 c 113.652
 -122.238 113.203 -123.027 112.828 -123.211 c 112.16 -123.551 111.164 -123.344
 110.414 -123.211 c 109.484 -129.266 106.855 -133.855 104.508 -138.527 c
 104.117 -139.309 103.672 -140.07 103.227 -140.793 c 102.789 -141.512 102.18
 -142.133 101.797 -142.863 c 101.715 -143.027 101.695 -143.242 101.602 -143.402
 c 101.121 -144.258 100.332 -145.066 99.629 -145.965 c 99.352 -146.324 99.023
 -146.77 98.645 -147.246 c 98.367 -147.594 97.875 -148.32 97.613 -148.43
 c 96.906 -148.711 95.254 -148.477 94.363 -148.477 c 93.219 -148.477 91.719
 -148.426 91.258 -147.836 c 90.449 -146.801 90.715 -143.93 90.715 -141.977
 c 90.719 -137.633 90.715 -133.383 90.715 -129.172 c 90.719 -127.043 90.605
 -124.82 90.965 -123.066 c 91.781 -122.586 92.758 -122.836 93.625 -122.523
 c 95.309 -121.918 95.125 -118.57 93.574 -117.992 c 89.938 -118.098 86.062
 -118.23 82.344 -118.09 c 81.762 -115.496 81.094 -112.984 80.227 -110.707
 c 79.395 -108.504 78.32 -106.25 76.73 -104.695 c 76.113 -104.094 75.277
 -103.762 74.91 -102.875 c 74.188 -102.578 73.363 -102.383 73.184 -101.547
 c 77.676 -102.848 79.148 -107.172 81.359 -110.754 c 81.211 -111.191 81.383
 -111.707 81.457 -112.086 c 82.207 -108.012 84.496 -105.082 87.121 -102.68
 c 88.02 -101.855 88.949 -101.062 89.93 -100.461 c 93.629 -98.191 100.238
 -97.934 103.816 -100.414 c 104.281 -100.734 104.633 -101.195 105.098 -101.496
 c 105.18 -100.879 104.656 -100.582 104.406 -100.117 c 103.875 -99.117 103.715
 -97.984 103.129 -97.062 c 102.703 -96.398 101.934 -95.98 101.945 -95.043
 c 104.055 -95.547 104.746 -97.465 106.23 -98.59 c 105.77 -93.52 103.438
 -90.316 100.422 -87.805 c 99.98 -87.789 99.578 -88.031 99.285 -87.758 c
 99.254 -87.559 99.16 -87.422 99.188 -87.164 c 101.289 -87 102.289 -88.367
 103.816 -88.938 c 102.738 -84.941 99.074 -83.109 95.887 -81.059 c 96.051
 -80.379 97.113 -80.75 97.562 -80.91 c 97.363 -79.609 96.094 -79.203 94.805
 -78.598 c 93.918 -78.18 93.316 -77.512 92.688 -77.117 c 92.086 -76.746 
91.145 -76.68 90.469 -76.332 c 91.719 -75.336 93.211 -76.652 94.609 -76.727
 c 93.309 -75.48 91.066 -74.75 88.844 -74.262 c 89.312 -73.727 90.207 -74.008
 90.766 -74.113 c 92.559 -74.461 94.316 -75.312 95.492 -76.332 c 95.688 
-76.496 96.137 -77.297 96.43 -77.219 c 96.711 -77.141 96.543 -76.828 96.676
 -76.379 c 96.734 -76.18 96.895 -76.035 96.922 -75.938 c 97.105 -75.312 
97.195 -74.637 97.367 -74.016 c 98.391 -70.289 99.039 -66.59 101.109 -63.82
 c 101.602 -63.164 102.07 -62.23 102.98 -62.84 c 105.07 -58.977 106.715 
-54.75 108.004 -50.031 c 108.645 -47.691 109.156 -45.145 109.281 -42.398
 c 109.41 -39.656 109.207 -36.734 109.281 -33.633 c 110.055 -33.73 109.941
 -34.715 110.465 -35.062 c 109.789 -21.844 106.105 -12.129 100.617 -3.645
 c 100.266 -3.102 99.789 -2.633 99.484 -2.066 c 99.359 -1.84 99.312 -1.562
 99.188 -1.328 c 98.961 -0.898 98.422 -0.688 98.547 -0.047 c 99.152 -0.027
 99.789 -0.258 100.422 -0.441 c 100.992 -0.609 101.699 -0.766 102.191 -1.031
 c 102.977 -1.461 103.793 -2.707 104.508 -3.496 c 109.422 -8.902 113.039
 -15.617 115.293 -23.637 c 115.453 -24.219 115.465 -24.914 115.883 -25.41
 c 115.496 -20.25 114.82 -15.102 113.617 -10.586 c 113.422 -9.855 113.273
 -9.055 112.977 -8.371 c 112.684 -7.691 112.191 -6.977 112.586 -6.203 c 
113.395 -6.617 113.566 -7.605 114.012 -8.32 c 114.23 -8.676 114.629 -8.906
 114.848 -9.258 c 115.152 -9.742 115.348 -10.406 115.637 -10.98 c 117.516
 -14.719 119.34 -18.898 120.562 -23.34 c 122.008 -28.609 122.453 -34.539
 122.777 -40.922 c 123.535 -36.184 124.641 -29.238 123.465 -23.883 c 123.324
 -23.242 123.102 -22.266 124.008 -22.109 c 127.262 -27.254 129.09 -34.59
 129.477 -42.844 c 129.602 -45.598 129.188 -48.438 128.688 -50.969 c 128.688
 -50.984 128.688 -51.004 128.688 -51.02 c S Q
Q Q
showpage
%%Trailer
end restore
%%EOF
