%!PS-Adobe-3.0 EPSF-3.0
%%Creator: cairo 1.14.10 (http://cairographics.org)
%%CreationDate: Thu Feb 15 19:09:32 2018
%%Pages: 1
%%DocumentData: Clean7Bit
%%LanguageLevel: 2
%%BoundingBox: 0 -1 161 85
%%EndComments
%%BeginProlog
save
50 dict begin
/q { gsave } bind def
/Q { grestore } bind def
/cm { 6 array astore concat } bind def
/w { setlinewidth } bind def
/J { setlinecap } bind def
/j { setlinejoin } bind def
/M { setmiterlimit } bind def
/d { setdash } bind def
/m { moveto } bind def
/l { lineto } bind def
/c { curveto } bind def
/h { closepath } bind def
/re { exch dup neg 3 1 roll 5 3 roll moveto 0 rlineto
      0 exch rlineto 0 rlineto closepath } bind def
/S { stroke } bind def
/f { fill } bind def
/f* { eofill } bind def
/n { newpath } bind def
/W { clip } bind def
/W* { eoclip } bind def
/BT { } bind def
/ET { } bind def
/pdfmark where { pop globaldict /?pdfmark /exec load put }
    { globaldict begin /?pdfmark /pop load def /pdfmark
    /cleartomark load def end } ifelse
/BDC { mark 3 1 roll /BDC pdfmark } bind def
/EMC { mark /EMC pdfmark } bind def
/cairo_store_point { /cairo_point_y exch def /cairo_point_x exch def } def
/Tj { show currentpoint cairo_store_point } bind def
/TJ {
  {
    dup
    type /stringtype eq
    { show } { -0.001 mul 0 cairo_font_matrix dtransform rmoveto } ifelse
  } forall
  currentpoint cairo_store_point
} bind def
/cairo_selectfont { cairo_font_matrix aload pop pop pop 0 0 6 array astore
    cairo_font exch selectfont cairo_point_x cairo_point_y moveto } bind def
/Tf { pop /cairo_font exch def /cairo_font_matrix where
      { pop cairo_selectfont } if } bind def
/Td { matrix translate cairo_font_matrix matrix concatmatrix dup
      /cairo_font_matrix exch def dup 4 get exch 5 get cairo_store_point
      /cairo_font where { pop cairo_selectfont } if } bind def
/Tm { 2 copy 8 2 roll 6 array astore /cairo_font_matrix exch def
      cairo_store_point /cairo_font where { pop cairo_selectfont } if } bind def
/g { setgray } bind def
/rg { setrgbcolor } bind def
/d1 { setcachedevice } bind def
/cairo_flush_ascii85_file { cairo_ascii85_file status { cairo_ascii85_file flushfile } if } def
/cairo_image { image cairo_flush_ascii85_file } def
/cairo_imagemask { imagemask cairo_flush_ascii85_file } def
%%EndProlog
%%BeginSetup
%%EndSetup
%%Page: 1 1
%%BeginPageSetup
%%PageBoundingBox: 0 -1 161 85
%%EndPageSetup
q 0 -1 161 86 rectclip q
1 g
56.77 59.205 m 56.492 58.365 56.086 57.47 56.129 56.544 c 56.918 56.134
 58.223 56.298 59.43 56.298 c 60.645 56.298 61.98 56.126 62.777 56.544 c
 62.859 57.47 62.414 58.314 62.137 59.154 c 61.27 61.775 60.602 64.369 59.578
 66.791 c 59.574 66.818 59.57 66.845 59.527 66.837 c 58.5 64.369 57.609 
61.748 56.77 59.205 c h
60.168 76.392 m 61.145 75.591 62.43 75.826 63.121 76.392 c 65.211 78.091
 64.156 82.908 61.301 82.447 c 59.027 82.083 58.27 77.947 60.168 76.392 
c h
64.105 74.373 m 66.449 67.076 69.18 59.228 71.84 51.72 c 72.242 50.583 
72.688 49.287 73.168 47.978 c 73.844 46.146 74.297 44.544 76.418 44.333 
c 76.191 43.767 76.312 42.853 76.371 42.361 c 72.285 42.521 67.734 42.517
 63.711 42.314 c 63.312 42.603 63.18 43.521 63.516 43.986 c 64.363 44.451
 66.125 44.064 66.469 44.923 c 66.699 45.498 66.203 46.611 66.027 47.189
 c 65.535 48.802 65.219 49.767 64.695 51.423 c 64.535 51.939 64.305 53.095
 63.91 53.392 c 63.211 53.919 60.684 53.638 59.625 53.638 c 58.914 53.638
 58.152 53.638 57.359 53.638 c 56.691 53.638 55.676 53.759 55.242 53.541
 c 54.844 53.337 54.641 52.33 54.406 51.572 c 53.91 49.982 53.551 48.986
 53.027 47.337 c 52.852 46.783 52.375 45.669 52.582 45.072 c 52.914 44.126
 54.801 44.49 55.832 44.037 c 56.133 43.63 56.172 42.697 55.785 42.361 c
 52.297 42.501 48.254 42.423 44.754 42.361 c 44.34 42.666 44.312 43.63 44.652
 44.037 c 45.938 44.177 47.359 44.357 48.102 45.119 c 48.875 45.919 49.305
 47.345 49.777 48.517 c 51.199 52.064 52.605 55.947 53.914 59.501 c 55.789
 64.603 57.648 69.427 59.328 74.275 c 57.391 75.15 55.91 76.638 55.883 79.099
 c 55.848 82.193 58.18 84.201 61.152 84.419 c 64.633 84.673 67.383 82.376
 67.406 79.197 c 67.426 76.802 66.027 75.193 64.105 74.373 c f
0.354331 w
0 J
0 j
[] 0.0 d
4 M q 1 0 0 -1 0 84.614746 cm
56.77 25.41 m 56.492 26.25 56.086 27.145 56.129 28.07 c 56.918 28.48 58.223
 28.316 59.43 28.316 c 60.645 28.316 61.98 28.488 62.777 28.07 c 62.859 
27.145 62.414 26.301 62.137 25.461 c 61.27 22.84 60.602 20.246 59.578 17.824
 c 59.574 17.797 59.57 17.77 59.527 17.777 c 58.5 20.246 57.609 22.867 56.77
 25.41 c h
60.168 8.223 m 61.145 9.023 62.43 8.789 63.121 8.223 c 65.211 6.523 64.156
 1.707 61.301 2.168 c 59.027 2.531 58.27 6.668 60.168 8.223 c h
64.105 10.242 m 66.449 17.539 69.18 25.387 71.84 32.895 c 72.242 34.031
 72.688 35.328 73.168 36.637 c 73.844 38.469 74.297 40.07 76.418 40.281 
c 76.191 40.848 76.312 41.762 76.371 42.254 c 72.285 42.094 67.734 42.098
 63.711 42.301 c 63.312 42.012 63.18 41.094 63.516 40.629 c 64.363 40.164
 66.125 40.551 66.469 39.691 c 66.699 39.117 66.203 38.004 66.027 37.426
 c 65.535 35.812 65.219 34.848 64.695 33.191 c 64.535 32.676 64.305 31.52
 63.91 31.223 c 63.211 30.695 60.684 30.977 59.625 30.977 c 58.914 30.977
 58.152 30.977 57.359 30.977 c 56.691 30.977 55.676 30.855 55.242 31.074
 c 54.844 31.277 54.641 32.285 54.406 33.043 c 53.91 34.633 53.551 35.629
 53.027 37.277 c 52.852 37.832 52.375 38.945 52.582 39.543 c 52.914 40.488
 54.801 40.125 55.832 40.578 c 56.133 40.984 56.172 41.918 55.785 42.254
 c 52.297 42.113 48.254 42.191 44.754 42.254 c 44.34 41.949 44.312 40.984
 44.652 40.578 c 45.938 40.438 47.359 40.258 48.102 39.496 c 48.875 38.695
 49.305 37.27 49.777 36.098 c 51.199 32.551 52.605 28.668 53.914 25.113 
c 55.789 20.012 57.648 15.188 59.328 10.34 c 57.391 9.465 55.91 7.977 55.883
 5.516 c 55.848 2.422 58.18 0.414 61.152 0.195 c 64.633 -0.059 67.383 2.238
 67.406 5.418 c 67.426 7.812 66.027 9.422 64.105 10.242 c S Q
27.172 58.267 m 26.73 57.673 26.977 55.56 26.977 55.021 c 26.977 51.697
 26.535 47.365 28.059 45.662 c 29.445 44.115 32.953 44.365 34.508 45.513
 c 37.684 47.861 37.469 54.357 34.855 56.892 c 33.688 58.021 31.27 59.068
 27.961 58.611 c 27.508 58.552 27.387 58.56 27.172 58.267 c h
27.32 72.599 m 26.926 72.212 26.977 70.97 26.977 69.99 c 26.977 67.763 
26.977 66.271 26.977 64.029 c 26.977 63.181 26.816 61.517 27.121 61.177 
c 27.355 60.912 28.012 60.947 28.305 60.927 c 29.742 60.822 31.199 60.958
 32.145 61.322 c 34.914 62.388 36.152 65.748 34.953 69.201 c 34.105 71.638
 32.164 73.033 28.992 72.943 c 28.453 72.931 27.664 72.939 27.32 72.599 
c h
36.578 60.435 m 37.234 59.884 38.223 59.826 39.09 59.501 c 41.461 58.603
 43.461 56.888 44.211 54.279 c 45.422 50.064 43.535 46.357 40.863 44.58 
c 38.074 42.724 33.891 42.263 29.438 42.263 c 27.258 42.263 25 42.462 22.738
 42.462 c 20.469 42.462 18.227 42.365 16.09 42.361 c 15.824 42.775 15.762
 43.65 15.992 43.939 c 16.207 44.201 17.133 44.251 17.766 44.38 c 18.453
 44.525 19.152 44.763 19.488 45.169 c 20.41 46.275 20.129 49.564 20.129 
51.669 c 20.129 57.771 20.145 63.423 20.078 69.447 c 20.07 70.533 19.957
 71.88 19.441 72.353 c 18.82 72.923 17.293 72.787 16.484 73.091 c 16.254
 73.478 16.105 74.255 16.438 74.619 c 16.773 74.99 17.879 74.88 18.602 74.916
 c 20.812 75.021 23.457 75.111 25.547 75.208 c 33.82 75.595 42.742 74.998
 42.637 67.083 c 42.594 64.072 40.84 62.416 38.746 61.419 c 38.051 61.091
 37.207 61.029 36.578 60.435 c f
q 1 0 0 -1 0 84.614746 cm
27.172 26.348 m 26.73 26.941 26.977 29.055 26.977 29.594 c 26.977 32.918
 26.535 37.25 28.059 38.953 c 29.445 40.5 32.953 40.25 34.508 39.102 c 37.684
 36.754 37.469 30.258 34.855 27.723 c 33.688 26.594 31.27 25.547 27.961 
26.004 c 27.508 26.062 27.387 26.055 27.172 26.348 c h
27.32 12.016 m 26.926 12.402 26.977 13.645 26.977 14.625 c 26.977 16.852
 26.977 18.344 26.977 20.586 c 26.977 21.434 26.816 23.098 27.121 23.438
 c 27.355 23.703 28.012 23.668 28.305 23.688 c 29.742 23.793 31.199 23.656
 32.145 23.293 c 34.914 22.227 36.152 18.867 34.953 15.414 c 34.105 12.977
 32.164 11.582 28.992 11.672 c 28.453 11.684 27.664 11.676 27.32 12.016 
c h
36.578 24.18 m 37.234 24.73 38.223 24.789 39.09 25.113 c 41.461 26.012 
43.461 27.727 44.211 30.336 c 45.422 34.551 43.535 38.258 40.863 40.035 
c 38.074 41.891 33.891 42.352 29.438 42.352 c 27.258 42.352 25 42.152 22.738
 42.152 c 20.469 42.152 18.227 42.25 16.09 42.254 c 15.824 41.84 15.762 
40.965 15.992 40.676 c 16.207 40.414 17.133 40.363 17.766 40.234 c 18.453
 40.09 19.152 39.852 19.488 39.445 c 20.41 38.34 20.129 35.051 20.129 32.945
 c 20.129 26.844 20.145 21.191 20.078 15.168 c 20.07 14.082 19.957 12.734
 19.441 12.262 c 18.82 11.691 17.293 11.828 16.484 11.523 c 16.254 11.137
 16.105 10.359 16.438 9.996 c 16.773 9.625 17.879 9.734 18.602 9.699 c 20.812
 9.594 23.457 9.504 25.547 9.406 c 33.82 9.02 42.742 9.617 42.637 17.531
 c 42.594 20.543 40.84 22.199 38.746 23.195 c 38.051 23.523 37.207 23.586
 36.578 24.18 c S Q
78.488 75.259 m 83.332 75.041 88.547 75.142 93.309 75.208 c 93.543 74.802
 93.684 73.994 93.359 73.634 c 93.082 73.322 92.016 73.318 91.637 73.24 
c 90.926 73.099 90.242 72.955 89.914 72.4 c 89.168 71.166 89.418 67.962 
89.418 66.052 c 89.418 61.068 89.418 57.4 89.418 52.458 c 89.418 49.544 
89.207 46.287 91.047 45.318 c 92.422 44.591 94.199 44.775 96.02 44.775 c
 97.895 44.775 99.473 44.912 100.598 45.662 c 101.398 46.197 102.184 47.169
 102.766 48.072 c 103.23 48.802 103.992 50.697 104.539 50.88 c 105.156 51.091
 105.711 50.798 106.062 50.388 c 105.734 47.318 104.961 44.697 103.949 42.314
 c 95.57 42.564 86.332 42.486 78.043 42.361 c 77.719 42.658 77.598 43.408
 77.797 43.939 c 78.719 44.478 81.047 44.064 81.738 45.021 c 82.633 46.263
 82.328 49.38 82.328 51.572 c 82.328 56.177 82.328 60.99 82.328 65.853 c
 82.328 68.146 82.672 71.908 81.492 72.794 c 81.102 73.087 80.469 73.189
 79.867 73.291 c 79.379 73.369 78.387 73.447 78.191 73.685 c 77.871 74.072
 78.055 75.13 78.488 75.259 c f
q 1 0 0 -1 0 84.614746 cm
78.488 9.355 m 83.332 9.574 88.547 9.473 93.309 9.406 c 93.543 9.812 93.684
 10.621 93.359 10.98 c 93.082 11.293 92.016 11.297 91.637 11.375 c 90.926
 11.516 90.242 11.66 89.914 12.215 c 89.168 13.449 89.418 16.652 89.418 
18.562 c 89.418 23.547 89.418 27.215 89.418 32.156 c 89.418 35.07 89.207
 38.328 91.047 39.297 c 92.422 40.023 94.199 39.84 96.02 39.84 c 97.895 
39.84 99.473 39.703 100.598 38.953 c 101.398 38.418 102.184 37.445 102.766
 36.543 c 103.23 35.812 103.992 33.918 104.539 33.734 c 105.156 33.523 105.711
 33.816 106.062 34.227 c 105.734 37.297 104.961 39.918 103.949 42.301 c 
95.57 42.051 86.332 42.129 78.043 42.254 c 77.719 41.957 77.598 41.207 77.797
 40.676 c 78.719 40.137 81.047 40.551 81.738 39.594 c 82.633 38.352 82.328
 35.234 82.328 33.043 c 82.328 28.438 82.328 23.625 82.328 18.762 c 82.328
 16.469 82.672 12.707 81.492 11.82 c 81.102 11.527 80.469 11.426 79.867 
11.324 c 79.379 11.246 78.387 11.168 78.191 10.93 c 77.871 10.543 78.055
 9.484 78.488 9.355 c S Q
119.754 57.58 m 119.25 57.916 118.496 58.619 118.031 58.318 c 115.762 56.853
 114.434 53.798 115.176 50.685 c 115.82 47.986 118.07 45.982 121.184 45.81
 c 124.352 45.634 126.152 47.13 127.637 48.962 c 125.879 52.431 123.02 55.404
 119.754 57.58 c h
122.562 71.615 m 121.25 72.345 119.617 71.642 119.016 70.876 c 116.754 
67.978 119.633 63.685 122.07 63.044 c 124.098 64.384 125.25 70.123 122.562
 71.615 c h
124.336 61.568 m 127.312 59.818 129.539 57.318 131.625 54.673 c 132.828
 56.599 133.762 58.724 134.727 61.076 c 134.945 61.611 135.629 62.751 135.465
 63.49 c 135.375 63.896 134.852 64.083 134.48 64.177 c 134.059 64.287 133.418
 64.212 133.148 64.474 c 132.828 64.787 132.867 65.787 133.25 66.052 c 133.719
 66.376 135.453 66.15 136.305 66.15 c 139.352 66.15 142.449 66.326 145.266
 66.396 c 145.684 66.099 145.816 65.111 145.414 64.771 c 145.109 64.509 
144.418 64.568 143.887 64.474 c 140.031 63.806 138.523 60.443 136.645 57.677
 c 135.465 55.935 134.332 54.173 133.297 52.408 c 134.531 50.56 135.789 
47.896 137.879 46.599 c 140.109 45.212 144.023 45.576 146.004 46.943 c 146.34
 46.744 146.633 46.419 146.594 45.958 c 146.562 45.548 145.777 44.916 145.363
 44.58 c 143.918 43.404 142.125 42.556 139.996 42.115 c 136.613 41.419 132.297
 41.744 130.688 43.74 c 129.945 44.662 129.625 45.521 129.012 46.548 c 128.367
 46.193 127.859 45.603 127.289 45.119 c 125.582 43.673 123.598 42.337 120.789
 41.919 c 114.824 41.033 109.617 43.857 108.578 48.763 c 108.195 50.56 108.43
 52.626 109.168 54.232 c 110.512 57.158 113.051 59.048 116.012 60.291 c 
114.586 61.759 113.078 63.119 112.863 65.607 c 112.441 70.423 116.148 73.81
 120.445 74.126 c 125.082 74.466 129.156 71.779 128.816 67.033 c 128.602
 64.021 126.371 62.951 124.336 61.568 c f
q 1 0 0 -1 0 84.614746 cm
119.754 27.035 m 119.25 26.699 118.496 25.996 118.031 26.297 c 115.762 
27.762 114.434 30.816 115.176 33.93 c 115.82 36.629 118.07 38.633 121.184
 38.805 c 124.352 38.98 126.152 37.484 127.637 35.652 c 125.879 32.184 123.02
 29.211 119.754 27.035 c h
122.562 13 m 121.25 12.27 119.617 12.973 119.016 13.738 c 116.754 16.637
 119.633 20.93 122.07 21.57 c 124.098 20.23 125.25 14.492 122.562 13 c h
124.336 23.047 m 127.312 24.797 129.539 27.297 131.625 29.941 c 132.828
 28.016 133.762 25.891 134.727 23.539 c 134.945 23.004 135.629 21.863 135.465
 21.125 c 135.375 20.719 134.852 20.531 134.48 20.438 c 134.059 20.328 133.418
 20.402 133.148 20.141 c 132.828 19.828 132.867 18.828 133.25 18.562 c 133.719
 18.238 135.453 18.465 136.305 18.465 c 139.352 18.465 142.449 18.289 145.266
 18.219 c 145.684 18.516 145.816 19.504 145.414 19.844 c 145.109 20.105 
144.418 20.047 143.887 20.141 c 140.031 20.809 138.523 24.172 136.645 26.938
 c 135.465 28.68 134.332 30.441 133.297 32.207 c 134.531 34.055 135.789 
36.719 137.879 38.016 c 140.109 39.402 144.023 39.039 146.004 37.672 c 146.34
 37.871 146.633 38.195 146.594 38.656 c 146.562 39.066 145.777 39.699 145.363
 40.035 c 143.918 41.211 142.125 42.059 139.996 42.5 c 136.613 43.195 132.297
 42.871 130.688 40.875 c 129.945 39.953 129.625 39.094 129.012 38.066 c 
128.367 38.422 127.859 39.012 127.289 39.496 c 125.582 40.941 123.598 42.277
 120.789 42.695 c 114.824 43.582 109.617 40.758 108.578 35.852 c 108.195
 34.055 108.43 31.988 109.168 30.383 c 110.512 27.457 113.051 25.566 116.012
 24.324 c 114.586 22.855 113.078 21.496 112.863 19.008 c 112.441 14.191 
116.148 10.805 120.445 10.488 c 125.082 10.148 129.156 12.836 128.816 17.582
 c 128.602 20.594 126.371 21.664 124.336 23.047 c S Q
69.969 17.642 m 69.68 16.783 69.207 15.892 69.328 14.931 c 70.172 14.591
 71.449 14.736 72.625 14.736 c 73.805 14.736 75.086 14.591 75.926 14.931
 c 76.027 15.869 75.609 16.751 75.336 17.591 c 74.484 20.185 73.723 22.74
 72.773 25.224 c 72.77 25.255 72.766 25.283 72.727 25.275 c 71.641 22.845
 70.836 20.224 69.969 17.642 c h
75.977 34.333 m 77.027 34.353 77.031 33.439 77.355 32.365 c 78.68 27.939
 80.363 23.56 81.836 19.267 c 83.117 15.533 84.391 11.845 85.727 8.087 c
 86.348 6.333 86.824 4.533 87.941 3.31 c 87.449 2.83 87.289 1.736 87.5 0.849
 c 83.977 0.998 80.156 0.818 76.812 0.798 c 76.367 1.068 76.305 2.013 76.664
 2.423 c 77.562 2.857 79.375 2.486 79.668 3.408 c 79.844 3.951 79.355 5.064
 79.176 5.623 c 78.672 7.205 78.344 8.294 77.848 9.861 c 77.637 10.521 77.387
 11.599 77.059 11.83 c 76.387 12.302 73.832 12.076 72.727 12.076 c 72.07
 12.076 71.285 12.076 70.461 12.076 c 69.781 12.076 68.723 12.173 68.344
 11.927 c 67.977 11.693 67.766 10.63 67.555 9.958 c 67.07 8.423 66.754 7.408
 66.223 5.775 c 66.051 5.236 65.527 4.22 65.73 3.505 c 65.98 2.626 68.164
 2.826 69.031 2.474 c 69.262 2.056 69.348 1.134 68.98 0.798 c 65.414 0.916
 61.477 0.841 57.902 0.798 c 57.512 1.087 57.531 2.064 57.805 2.474 c 59.637
 2.552 61.027 2.978 61.793 4.248 c 62.895 6.076 63.527 8.486 64.352 10.65
 c 66.398 16.021 68.32 21.556 70.461 26.947 c 71.043 28.423 71.629 29.548
 71.641 31.38 c 73.605 31.849 74.762 33.123 75.977 34.333 c f
q 1 0 0 -1 0 84.614746 cm
69.969 66.973 m 69.68 67.832 69.207 68.723 69.328 69.684 c 70.172 70.023
 71.449 69.879 72.625 69.879 c 73.805 69.879 75.086 70.023 75.926 69.684
 c 76.027 68.746 75.609 67.863 75.336 67.023 c 74.484 64.43 73.723 61.875
 72.773 59.391 c 72.77 59.359 72.766 59.332 72.727 59.34 c 71.641 61.77 
70.836 64.391 69.969 66.973 c h
75.977 50.281 m 77.027 50.262 77.031 51.176 77.355 52.25 c 78.68 56.676
 80.363 61.055 81.836 65.348 c 83.117 69.082 84.391 72.77 85.727 76.527 
c 86.348 78.281 86.824 80.082 87.941 81.305 c 87.449 81.785 87.289 82.879
 87.5 83.766 c 83.977 83.617 80.156 83.797 76.812 83.816 c 76.367 83.547
 76.305 82.602 76.664 82.191 c 77.562 81.758 79.375 82.129 79.668 81.207
 c 79.844 80.664 79.355 79.551 79.176 78.992 c 78.672 77.41 78.344 76.32
 77.848 74.754 c 77.637 74.094 77.387 73.016 77.059 72.785 c 76.387 72.312
 73.832 72.539 72.727 72.539 c 72.07 72.539 71.285 72.539 70.461 72.539 
c 69.781 72.539 68.723 72.441 68.344 72.688 c 67.977 72.922 67.766 73.984
 67.555 74.656 c 67.07 76.191 66.754 77.207 66.223 78.84 c 66.051 79.379
 65.527 80.395 65.73 81.109 c 65.98 81.988 68.164 81.789 69.031 82.141 c
 69.262 82.559 69.348 83.48 68.98 83.816 c 65.414 83.699 61.477 83.773 57.902
 83.816 c 57.512 83.527 57.531 82.551 57.805 82.141 c 59.637 82.062 61.027
 81.637 61.793 80.367 c 62.895 78.539 63.527 76.129 64.352 73.965 c 66.398
 68.594 68.32 63.059 70.461 57.668 c 71.043 56.191 71.629 55.066 71.641 
53.234 c 73.605 52.766 74.762 51.492 75.977 50.281 c S Q
11.461 16.654 m 11.023 15.99 11.266 14.052 11.266 13.505 c 11.266 10.263
 10.902 6.068 12.199 4.294 c 13.848 2.052 18.281 2.908 19.785 4.884 c 20.777
 6.193 21.234 8.169 21.164 10.251 c 21.09 12.365 20.348 14.099 19.293 15.177
 c 17.941 16.564 15.883 17.404 12.445 17.048 c 11.941 16.998 11.711 17.033
 11.461 16.654 c h
14.516 19.314 m 15.516 19.376 16.539 19.666 17.223 20.052 c 19.527 21.369
 20.387 25.205 19.145 28.08 c 18.379 29.857 16.602 31.216 14.32 31.38 c 
13.273 31.458 11.918 31.466 11.512 30.888 c 11.172 30.408 11.266 29.189 
11.266 28.228 c 11.266 27.177 11.266 26.177 11.266 25.322 c 11.266 23.162
 11.152 21.173 11.414 19.611 c 12.387 19.201 13.531 19.255 14.516 19.314
 c h
20.918 18.873 m 21.156 18.423 21.73 18.427 22.098 18.33 c 25.164 17.529
 27.586 15.763 28.5 12.716 c 29.754 8.552 27.82 4.716 25.203 2.966 c 22.438
 1.111 18.18 0.701 13.727 0.697 c 11.531 0.697 9.281 0.896 7.031 0.896 c
 4.766 0.9 2.531 0.759 0.383 0.798 c 0.133 1.15 0.105 2.021 0.332 2.423 
c 1.391 2.826 3.305 2.775 3.926 3.751 c 4.691 4.955 4.422 8.38 4.422 10.353
 c 4.422 15.064 4.422 19.646 4.422 24.533 c 4.422 26.603 4.715 30.013 3.68
 30.837 c 3.027 31.361 1.574 31.185 0.824 31.529 c 0.531 31.869 0.426 32.787
 0.777 33.103 c 1.152 33.447 2.398 33.314 3.141 33.349 c 5.5 33.462 8.363
 33.541 10.625 33.646 c 16.719 33.931 23.105 33.435 25.598 30.001 c 26.93
 28.162 27.469 24.998 26.285 22.712 c 25.547 21.287 24.094 20.142 22.492
 19.56 c 21.988 19.376 21.289 19.423 20.918 18.873 c f
q 1 0 0 -1 0 84.614746 cm
11.461 67.961 m 11.023 68.625 11.266 70.562 11.266 71.109 c 11.266 74.352
 10.902 78.547 12.199 80.32 c 13.848 82.562 18.281 81.707 19.785 79.73 c
 20.777 78.422 21.234 76.445 21.164 74.363 c 21.09 72.25 20.348 70.516 19.293
 69.438 c 17.941 68.051 15.883 67.211 12.445 67.566 c 11.941 67.617 11.711
 67.582 11.461 67.961 c h
14.516 65.301 m 15.516 65.238 16.539 64.949 17.223 64.562 c 19.527 63.246
 20.387 59.41 19.145 56.535 c 18.379 54.758 16.602 53.398 14.32 53.234 c
 13.273 53.156 11.918 53.148 11.512 53.727 c 11.172 54.207 11.266 55.426
 11.266 56.387 c 11.266 57.438 11.266 58.438 11.266 59.293 c 11.266 61.453
 11.152 63.441 11.414 65.004 c 12.387 65.414 13.531 65.359 14.516 65.301
 c h
20.918 65.742 m 21.156 66.191 21.73 66.188 22.098 66.285 c 25.164 67.086
 27.586 68.852 28.5 71.898 c 29.754 76.062 27.82 79.898 25.203 81.648 c 
22.438 83.504 18.18 83.914 13.727 83.918 c 11.531 83.918 9.281 83.719 7.031
 83.719 c 4.766 83.715 2.531 83.855 0.383 83.816 c 0.133 83.465 0.105 82.594
 0.332 82.191 c 1.391 81.789 3.305 81.84 3.926 80.863 c 4.691 79.66 4.422
 76.234 4.422 74.262 c 4.422 69.551 4.422 64.969 4.422 60.082 c 4.422 58.012
 4.715 54.602 3.68 53.777 c 3.027 53.254 1.574 53.43 0.824 53.086 c 0.531
 52.746 0.426 51.828 0.777 51.512 c 1.152 51.168 2.398 51.301 3.141 51.266
 c 5.5 51.152 8.363 51.074 10.625 50.969 c 16.719 50.684 23.105 51.18 25.598
 54.613 c 26.93 56.453 27.469 59.617 26.285 61.902 c 25.547 63.328 24.094
 64.473 22.492 65.055 c 21.988 65.238 21.289 65.191 20.918 65.742 c S Q
40.961 31.083 m 40.477 30.548 40.617 28.763 40.617 27.982 c 40.617 25.845
 40.617 23.185 40.617 21.037 c 40.617 20.017 40.496 18.201 40.863 17.787
 c 41.488 17.08 44.664 17.275 45.738 17.642 c 48.074 18.431 49.172 21.005
 49.184 23.845 c 49.211 28.4 46.66 32.048 41.699 31.33 c 41.414 31.291 41.129
 31.271 40.961 31.083 c h
58.492 3.998 m 58.004 3.865 57.586 4.001 57.211 3.853 c 56.445 3.541 55.957
 1.982 56.277 0.751 c 50.852 1.451 48.676 5.771 46.625 10.005 c 46.293 10.689
 45.969 11.443 45.641 12.173 c 45.156 13.248 44.777 14.533 43.719 14.982
 c 43.227 15.189 41.184 15.419 40.766 14.931 c 40.406 14.517 40.617 12.501
 40.617 11.88 c 40.617 10.673 40.617 9.755 40.617 8.728 c 40.617 6.794 40.434
 4.044 41.453 3.259 c 42.246 2.65 43.562 2.853 44.555 2.423 c 44.816 2.005
 44.797 1.173 44.508 0.798 c 39.875 0.908 34.559 0.916 29.93 0.798 c 29.605
 1.107 29.602 2.06 29.879 2.423 c 30.918 2.798 32.801 2.724 33.375 3.705
 c 34.102 4.931 33.82 8.353 33.82 10.302 c 33.82 14.849 33.82 19.634 33.82
 24.337 c 33.82 26.435 34.105 29.787 33.23 30.74 c 32.617 31.404 31.035 
31.24 30.176 31.576 c 29.848 32.068 29.926 32.919 30.273 33.154 c 30.664
 33.419 31.961 33.365 32.59 33.4 c 35.074 33.529 37.512 33.529 39.977 33.646
 c 44.055 33.833 48.395 33.544 51.305 32.416 c 54.387 31.212 57.02 28.392
 56.719 23.896 c 56.496 20.537 54.383 18.693 52.039 17.443 c 51.727 17.275
 51.176 17.072 51.105 16.802 c 50.969 16.279 51.539 15.439 51.793 14.931
 c 53.727 11.091 55.848 6.814 58.492 3.998 c f
q 1 0 0 -1 0 84.614746 cm
40.961 53.531 m 40.477 54.066 40.617 55.852 40.617 56.633 c 40.617 58.77
 40.617 61.43 40.617 63.578 c 40.617 64.598 40.496 66.414 40.863 66.828 
c 41.488 67.535 44.664 67.34 45.738 66.973 c 48.074 66.184 49.172 63.609
 49.184 60.77 c 49.211 56.215 46.66 52.566 41.699 53.285 c 41.414 53.324
 41.129 53.344 40.961 53.531 c h
58.492 80.617 m 58.004 80.75 57.586 80.613 57.211 80.762 c 56.445 81.074
 55.957 82.633 56.277 83.863 c 50.852 83.164 48.676 78.844 46.625 74.609
 c 46.293 73.926 45.969 73.172 45.641 72.441 c 45.156 71.367 44.777 70.082
 43.719 69.633 c 43.227 69.426 41.184 69.195 40.766 69.684 c 40.406 70.098
 40.617 72.113 40.617 72.734 c 40.617 73.941 40.617 74.859 40.617 75.887
 c 40.617 77.82 40.434 80.57 41.453 81.355 c 42.246 81.965 43.562 81.762
 44.555 82.191 c 44.816 82.609 44.797 83.441 44.508 83.816 c 39.875 83.707
 34.559 83.699 29.93 83.816 c 29.605 83.508 29.602 82.555 29.879 82.191 
c 30.918 81.816 32.801 81.891 33.375 80.91 c 34.102 79.684 33.82 76.262 
33.82 74.312 c 33.82 69.766 33.82 64.98 33.82 60.277 c 33.82 58.18 34.105
 54.828 33.23 53.875 c 32.617 53.211 31.035 53.375 30.176 53.039 c 29.848
 52.547 29.926 51.695 30.273 51.461 c 30.664 51.195 31.961 51.25 32.59 51.215
 c 35.074 51.086 37.512 51.086 39.977 50.969 c 44.055 50.781 48.395 51.07
 51.305 52.199 c 54.387 53.402 57.02 56.223 56.719 60.719 c 56.496 64.078
 54.383 65.922 52.039 67.172 c 51.727 67.34 51.176 67.543 51.105 67.812 
c 50.969 68.336 51.539 69.176 51.793 69.684 c 53.727 73.523 55.848 77.801
 58.492 80.617 c S Q
99.957 33.693 m 100.863 31.15 102.562 29.119 104.242 27.048 c 105.648 25.31
 107.113 23.619 108.477 22.025 c 111.395 18.619 114.094 15.193 117.047 12.126
 c 117.309 14.787 117.195 18.189 117.195 21.677 c 117.195 23.259 117.152
 24.837 117.047 26.404 c 116.934 28.056 116.883 29.892 116.113 30.74 c 115.195
 31.748 113.711 31.611 112.219 31.97 c 111.949 32.353 111.957 33.259 112.219
 33.646 c 115.828 33.607 119.965 33.443 123.695 33.646 c 123.512 33.158 
123.352 32.435 123.5 31.775 c 122.52 31.591 121.414 31.201 120.988 30.396
 c 120.184 28.888 120.281 25.896 120.199 23.65 c 119.93 16.427 120.23 8.056
 120.246 1.341 c 119.984 0.974 119.586 0.759 119.066 0.552 c 118.656 0.392
 117.93 0.083 117.441 0.208 c 117.055 0.306 116.508 1.4 116.16 1.88 c 113.344
 5.806 110.082 9.619 107.098 13.306 c 104.027 17.107 101.098 20.958 97.891
 24.634 c 97.449 25.138 97.035 25.693 96.461 26.013 c 96.125 22.822 96.266
 18.771 96.266 14.638 c 96.266 12.751 96.277 10.912 96.363 8.923 c 96.438
 7.197 96.559 4.783 97.25 3.853 c 98.125 2.677 99.883 2.849 101.336 2.423
 c 101.629 2.005 101.57 1.13 101.289 0.751 c 97.316 0.904 93.023 0.978 89.074
 0.751 c 88.793 1.123 88.727 2.017 89.023 2.423 c 90.293 2.759 92.059 2.951
 92.621 4.146 c 93.227 5.443 93.219 8.091 93.309 10.107 c 93.555 15.49 93.414
 21.201 93.359 26.603 c 93.34 28.482 93.371 30.212 92.324 30.986 c 91.441
 31.642 89.879 31.716 88.73 32.021 c 88.492 32.47 88.465 33.541 89.023 33.693
 c 89.312 33.775 89.961 33.658 90.402 33.646 c 93.34 33.564 97.184 33.431
 99.957 33.693 c f
q 1 0 0 -1 0 84.614746 cm
99.957 50.922 m 100.863 53.465 102.562 55.496 104.242 57.566 c 105.648 
59.305 107.113 60.996 108.477 62.59 c 111.395 65.996 114.094 69.422 117.047
 72.488 c 117.309 69.828 117.195 66.426 117.195 62.938 c 117.195 61.355 
117.152 59.777 117.047 58.211 c 116.934 56.559 116.883 54.723 116.113 53.875
 c 115.195 52.867 113.711 53.004 112.219 52.645 c 111.949 52.262 111.957
 51.355 112.219 50.969 c 115.828 51.008 119.965 51.172 123.695 50.969 c 
123.512 51.457 123.352 52.18 123.5 52.84 c 122.52 53.023 121.414 53.414 
120.988 54.219 c 120.184 55.727 120.281 58.719 120.199 60.965 c 119.93 68.188
 120.23 76.559 120.246 83.273 c 119.984 83.641 119.586 83.855 119.066 84.062
 c 118.656 84.223 117.93 84.531 117.441 84.406 c 117.055 84.309 116.508 
83.215 116.16 82.734 c 113.344 78.809 110.082 74.996 107.098 71.309 c 104.027
 67.508 101.098 63.656 97.891 59.98 c 97.449 59.477 97.035 58.922 96.461
 58.602 c 96.125 61.793 96.266 65.844 96.266 69.977 c 96.266 71.863 96.277
 73.703 96.363 75.691 c 96.438 77.418 96.559 79.832 97.25 80.762 c 98.125
 81.938 99.883 81.766 101.336 82.191 c 101.629 82.609 101.57 83.484 101.289
 83.863 c 97.316 83.711 93.023 83.637 89.074 83.863 c 88.793 83.492 88.727
 82.598 89.023 82.191 c 90.293 81.855 92.059 81.664 92.621 80.469 c 93.227
 79.172 93.219 76.523 93.309 74.508 c 93.555 69.125 93.414 63.414 93.359
 58.012 c 93.34 56.133 93.371 54.402 92.324 53.629 c 91.441 52.973 89.879
 52.898 88.73 52.594 c 88.492 52.145 88.465 51.074 89.023 50.922 c 89.312
 50.84 89.961 50.957 90.402 50.969 c 93.34 51.051 97.184 51.184 99.957 50.922
 c S Q
135.91 30.74 m 135.504 30.13 135.613 28.611 135.613 27.689 c 135.613 26.248
 135.613 25.177 135.613 24.291 c 135.613 19.662 135.613 15.419 135.613 10.794
 c 135.613 8.392 135.504 6.048 136.305 4.689 c 137.562 2.548 141.82 2.626
 144.281 3.408 c 149.496 5.064 152.16 10.306 152.16 17.099 c 152.16 21.779
 150.832 25.482 148.516 27.833 c 146.32 30.064 142.445 31.802 137.633 31.33
 c 137.121 31.279 136.195 31.169 135.91 30.74 c h
124.434 0.798 m 124.129 1.33 124.051 2.044 124.336 2.373 c 124.551 2.623
 125.5 2.63 126.012 2.72 c 126.832 2.865 127.598 3.052 127.98 3.556 c 128.816
 4.662 128.52 8.337 128.52 10.251 c 128.52 15.369 128.52 19.455 128.52 24.685
 c 128.52 27.033 128.828 30.443 127.387 31.134 c 126.77 31.431 125.371 31.251
 125.023 31.677 c 124.832 31.908 124.777 32.759 125.023 33.056 c 125.309
 33.392 126.777 33.314 127.535 33.349 c 130.219 33.478 132.73 33.513 135.613
 33.646 c 143.543 34.013 150.672 32.888 154.82 29.314 c 156.855 27.556 158.637
 25.134 159.5 22.271 c 160.414 19.224 160.344 15.318 159.301 12.076 c 157.43
 6.263 152.855 2.693 146.594 1.341 c 143.242 0.615 139.629 0.49 135.711 
0.697 c 132.121 0.892 128.246 0.923 124.434 0.798 c f
q 1 0 0 -1 0 84.614746 cm
135.91 53.875 m 135.504 54.484 135.613 56.004 135.613 56.926 c 135.613 
58.367 135.613 59.438 135.613 60.324 c 135.613 64.953 135.613 69.195 135.613
 73.82 c 135.613 76.223 135.504 78.566 136.305 79.926 c 137.562 82.066 141.82
 81.988 144.281 81.207 c 149.496 79.551 152.16 74.309 152.16 67.516 c 152.16
 62.836 150.832 59.133 148.516 56.781 c 146.32 54.551 142.445 52.812 137.633
 53.285 c 137.121 53.336 136.195 53.445 135.91 53.875 c h
124.434 83.816 m 124.129 83.285 124.051 82.57 124.336 82.242 c 124.551 
81.992 125.5 81.984 126.012 81.895 c 126.832 81.75 127.598 81.562 127.98
 81.059 c 128.816 79.953 128.52 76.277 128.52 74.363 c 128.52 69.246 128.52
 65.16 128.52 59.93 c 128.52 57.582 128.828 54.172 127.387 53.48 c 126.77
 53.184 125.371 53.363 125.023 52.938 c 124.832 52.707 124.777 51.855 125.023
 51.559 c 125.309 51.223 126.777 51.301 127.535 51.266 c 130.219 51.137 
132.73 51.102 135.613 50.969 c 143.543 50.602 150.672 51.727 154.82 55.301
 c 156.855 57.059 158.637 59.48 159.5 62.344 c 160.414 65.391 160.344 69.297
 159.301 72.539 c 157.43 78.352 152.855 81.922 146.594 83.273 c 143.242 
84 139.629 84.125 135.711 83.918 c 132.121 83.723 128.246 83.691 124.434
 83.816 c S Q
Q Q
showpage
%%Trailer
end restore
%%EOF
