%!PS-Adobe-3.0 EPSF-3.0
%%Creator: cairo 1.14.10 (http://cairographics.org)
%%CreationDate: Thu Feb 15 19:09:19 2018
%%Pages: 1
%%DocumentData: Clean7Bit
%%LanguageLevel: 2
%%BoundingBox: 0 -1 161 85
%%EndComments
%%BeginProlog
save
50 dict begin
/q { gsave } bind def
/Q { grestore } bind def
/cm { 6 array astore concat } bind def
/w { setlinewidth } bind def
/J { setlinecap } bind def
/j { setlinejoin } bind def
/M { setmiterlimit } bind def
/d { setdash } bind def
/m { moveto } bind def
/l { lineto } bind def
/c { curveto } bind def
/h { closepath } bind def
/re { exch dup neg 3 1 roll 5 3 roll moveto 0 rlineto
      0 exch rlineto 0 rlineto closepath } bind def
/S { stroke } bind def
/f { fill } bind def
/f* { eofill } bind def
/n { newpath } bind def
/W { clip } bind def
/W* { eoclip } bind def
/BT { } bind def
/ET { } bind def
/pdfmark where { pop globaldict /?pdfmark /exec load put }
    { globaldict begin /?pdfmark /pop load def /pdfmark
    /cleartomark load def end } ifelse
/BDC { mark 3 1 roll /BDC pdfmark } bind def
/EMC { mark /EMC pdfmark } bind def
/cairo_store_point { /cairo_point_y exch def /cairo_point_x exch def } def
/Tj { show currentpoint cairo_store_point } bind def
/TJ {
  {
    dup
    type /stringtype eq
    { show } { -0.001 mul 0 cairo_font_matrix dtransform rmoveto } ifelse
  } forall
  currentpoint cairo_store_point
} bind def
/cairo_selectfont { cairo_font_matrix aload pop pop pop 0 0 6 array astore
    cairo_font exch selectfont cairo_point_x cairo_point_y moveto } bind def
/Tf { pop /cairo_font exch def /cairo_font_matrix where
      { pop cairo_selectfont } if } bind def
/Td { matrix translate cairo_font_matrix matrix concatmatrix dup
      /cairo_font_matrix exch def dup 4 get exch 5 get cairo_store_point
      /cairo_font where { pop cairo_selectfont } if } bind def
/Tm { 2 copy 8 2 roll 6 array astore /cairo_font_matrix exch def
      cairo_store_point /cairo_font where { pop cairo_selectfont } if } bind def
/g { setgray } bind def
/rg { setrgbcolor } bind def
/d1 { setcachedevice } bind def
/cairo_flush_ascii85_file { cairo_ascii85_file status { cairo_ascii85_file flushfile } if } def
/cairo_image { image cairo_flush_ascii85_file } def
/cairo_imagemask { imagemask cairo_flush_ascii85_file } def
%%EndProlog
%%BeginSetup
%%EndSetup
%%Page: 1 1
%%BeginPageSetup
%%PageBoundingBox: 0 -1 161 85
%%EndPageSetup
q 0 -1 161 86 rectclip q
0 g
56.641 59.072 m 56.359 58.232 55.957 57.342 56 56.412 c 56.789 56.002 58.09
 56.166 59.297 56.166 c 60.516 56.166 61.852 55.994 62.648 56.412 c 62.73
 57.338 62.285 58.182 62.008 59.025 c 61.141 61.646 60.469 64.236 59.445
 66.658 c 59.441 66.685 59.441 66.717 59.395 66.705 c 58.371 64.236 57.48
 61.619 56.641 59.072 c h
60.035 76.26 m 61.016 75.459 62.297 75.697 62.992 76.26 c 65.078 77.959
 64.027 82.779 61.168 82.318 c 58.898 81.951 58.141 77.818 60.035 76.26 
c h
63.977 74.24 m 66.32 66.947 69.051 59.096 71.707 51.588 c 72.109 50.451
 72.555 49.154 73.039 47.846 c 73.711 46.014 74.164 44.416 76.289 44.201
 c 76.059 43.635 76.18 42.725 76.238 42.232 c 72.156 42.392 67.605 42.385
 63.582 42.182 c 63.184 42.471 63.047 43.389 63.387 43.857 c 64.23 44.322
 65.996 43.935 66.34 44.791 c 66.57 45.365 66.074 46.482 65.898 47.057 c
 65.402 48.67 65.09 49.635 64.566 51.291 c 64.406 51.807 64.176 52.967 63.777
 53.264 c 63.078 53.787 60.551 53.51 59.496 53.51 c 58.785 53.51 58.02 53.51
 57.23 53.51 c 56.562 53.51 55.543 53.627 55.113 53.408 c 54.711 53.209 
54.508 52.201 54.273 51.439 c 53.781 49.85 53.422 48.857 52.895 47.205 c
 52.719 46.654 52.242 45.537 52.453 44.939 c 52.781 43.998 54.672 44.357
 55.703 43.904 c 56.004 43.498 56.043 42.564 55.652 42.232 c 52.168 42.369
 48.121 42.291 44.621 42.232 c 44.207 42.533 44.184 43.502 44.523 43.904
 c 45.805 44.049 47.23 44.225 47.973 44.99 c 48.746 45.787 49.176 47.217
 49.645 48.389 c 51.066 51.932 52.477 55.814 53.781 59.369 c 55.656 64.475
 57.516 69.295 59.199 74.142 c 57.262 75.021 55.781 76.51 55.75 78.971 c
 55.719 82.06 58.051 84.068 61.02 84.287 c 64.504 84.545 67.25 82.244 67.277
 79.068 c 67.297 76.67 65.895 75.06 63.977 74.24 c f
0.09375 w
0 J
0 j
[] 0.0 d
4 M q 1 0 0 -1 0 84.353424 cm
56.641 25.281 m 56.359 26.121 55.957 27.012 56 27.941 c 56.789 28.352 58.09
 28.188 59.297 28.188 c 60.516 28.188 61.852 28.359 62.648 27.941 c 62.73
 27.016 62.285 26.172 62.008 25.328 c 61.141 22.707 60.469 20.117 59.445
 17.695 c 59.441 17.668 59.441 17.637 59.395 17.648 c 58.371 20.117 57.48
 22.734 56.641 25.281 c h
60.035 8.094 m 61.016 8.895 62.297 8.656 62.992 8.094 c 65.078 6.395 64.027
 1.574 61.168 2.035 c 58.898 2.402 58.141 6.535 60.035 8.094 c h
63.977 10.113 m 66.32 17.406 69.051 25.258 71.707 32.766 c 72.109 33.902
 72.555 35.199 73.039 36.508 c 73.711 38.34 74.164 39.938 76.289 40.152 
c 76.059 40.719 76.18 41.629 76.238 42.121 c 72.156 41.961 67.605 41.969
 63.582 42.172 c 63.184 41.883 63.047 40.965 63.387 40.496 c 64.23 40.031
 65.996 40.418 66.34 39.562 c 66.57 38.988 66.074 37.871 65.898 37.297 c
 65.402 35.684 65.09 34.719 64.566 33.062 c 64.406 32.547 64.176 31.387 
63.777 31.09 c 63.078 30.566 60.551 30.844 59.496 30.844 c 58.785 30.844
 58.02 30.844 57.23 30.844 c 56.562 30.844 55.543 30.727 55.113 30.945 c
 54.711 31.145 54.508 32.152 54.273 32.914 c 53.781 34.504 53.422 35.496
 52.895 37.148 c 52.719 37.699 52.242 38.816 52.453 39.414 c 52.781 40.355
 54.672 39.996 55.703 40.449 c 56.004 40.855 56.043 41.789 55.652 42.121
 c 52.168 41.984 48.121 42.062 44.621 42.121 c 44.207 41.82 44.184 40.852
 44.523 40.449 c 45.805 40.305 47.23 40.129 47.973 39.363 c 48.746 38.566
 49.176 37.137 49.645 35.965 c 51.066 32.422 52.477 28.539 53.781 24.984
 c 55.656 19.879 57.516 15.059 59.199 10.211 c 57.262 9.332 55.781 7.844
 55.75 5.383 c 55.719 2.293 58.051 0.285 61.02 0.066 c 64.504 -0.191 67.25
 2.109 67.277 5.285 c 67.297 7.684 65.895 9.293 63.977 10.113 c S Q
27.043 58.139 m 26.598 57.541 26.844 55.428 26.844 54.889 c 26.844 51.568
 26.406 47.232 27.93 45.529 c 29.312 43.982 32.824 44.232 34.379 45.385 
c 37.555 47.732 37.34 54.225 34.723 56.76 c 33.559 57.889 31.137 58.939 
27.828 58.482 c 27.375 58.42 27.258 58.428 27.043 58.139 c h
27.188 72.471 m 26.797 72.08 26.844 70.838 26.844 69.857 c 26.844 67.631
 26.844 66.139 26.844 63.9 c 26.844 63.053 26.684 61.385 26.992 61.045 c
 27.227 60.783 27.883 60.818 28.176 60.799 c 29.613 60.693 31.07 60.826 
32.016 61.189 c 34.781 62.26 36.02 65.615 34.824 69.068 c 33.977 71.506 
32.031 72.9 28.863 72.814 c 28.324 72.799 27.531 72.807 27.188 72.471 c 
h
36.449 60.307 m 37.105 59.756 38.094 59.697 38.961 59.369 c 41.332 58.471
 43.332 56.756 44.082 54.15 c 45.293 49.932 43.406 46.225 40.73 44.447 c
 37.945 42.596 33.762 42.131 29.309 42.131 c 27.129 42.135 24.867 42.33 
22.609 42.33 c 20.336 42.33 18.094 42.236 15.961 42.232 c 15.691 42.642 
15.629 43.517 15.863 43.807 c 16.074 44.072 17 44.119 17.637 44.248 c 18.324
 44.392 19.023 44.635 19.359 45.037 c 20.277 46.142 20 49.432 20 51.537 
c 20 57.639 20.012 63.295 19.949 69.314 c 19.938 70.404 19.828 71.748 19.309
 72.221 c 18.688 72.791 17.16 72.654 16.355 72.963 c 16.125 73.35 15.977
 74.123 16.305 74.486 c 16.645 74.857 17.75 74.748 18.473 74.783 c 20.684
 74.889 23.328 74.982 25.418 75.08 c 33.688 75.463 42.613 74.865 42.504 
66.951 c 42.465 63.939 40.711 62.283 38.613 61.291 c 37.922 60.959 37.074
 60.896 36.449 60.307 c f
q 1 0 0 -1 0 84.353424 cm
27.043 26.215 m 26.598 26.812 26.844 28.926 26.844 29.465 c 26.844 32.785
 26.406 37.121 27.93 38.824 c 29.312 40.371 32.824 40.121 34.379 38.969 
c 37.555 36.621 37.34 30.129 34.723 27.594 c 33.559 26.465 31.137 25.414
 27.828 25.871 c 27.375 25.934 27.258 25.926 27.043 26.215 c h
27.188 11.883 m 26.797 12.273 26.844 13.516 26.844 14.496 c 26.844 16.723
 26.844 18.215 26.844 20.453 c 26.844 21.301 26.684 22.969 26.992 23.309
 c 27.227 23.57 27.883 23.535 28.176 23.555 c 29.613 23.66 31.07 23.527 
32.016 23.164 c 34.781 22.094 36.02 18.738 34.824 15.285 c 33.977 12.848
 32.031 11.453 28.863 11.539 c 28.324 11.555 27.531 11.547 27.188 11.883
 c h
36.449 24.047 m 37.105 24.598 38.094 24.656 38.961 24.984 c 41.332 25.883
 43.332 27.598 44.082 30.203 c 45.293 34.422 43.406 38.129 40.73 39.906 
c 37.945 41.758 33.762 42.223 29.309 42.223 c 27.129 42.219 24.867 42.023
 22.609 42.023 c 20.336 42.023 18.094 42.117 15.961 42.121 c 15.691 41.711
 15.629 40.836 15.863 40.547 c 16.074 40.281 17 40.234 17.637 40.105 c 18.324
 39.961 19.023 39.719 19.359 39.316 c 20.277 38.211 20 34.922 20 32.816 
c 20 26.715 20.012 21.059 19.949 15.039 c 19.938 13.949 19.828 12.605 19.309
 12.133 c 18.688 11.562 17.16 11.699 16.355 11.391 c 16.125 11.004 15.977
 10.23 16.305 9.867 c 16.645 9.496 17.75 9.605 18.473 9.57 c 20.684 9.465
 23.328 9.371 25.418 9.273 c 33.688 8.891 42.613 9.488 42.504 17.402 c 42.465
 20.414 40.711 22.07 38.613 23.062 c 37.922 23.395 37.074 23.457 36.449 
24.047 c S Q
78.355 75.127 m 83.203 74.908 88.414 75.01 93.18 75.08 c 93.41 74.67 93.555
 73.865 93.23 73.502 c 92.949 73.193 91.887 73.185 91.504 73.107 c 90.797
 72.967 90.113 72.822 89.781 72.271 c 89.039 71.033 89.289 67.83 89.289 
65.92 c 89.289 60.939 89.289 57.267 89.289 52.326 c 89.289 49.412 89.074
 46.158 90.914 45.185 c 92.289 44.459 94.07 44.646 95.887 44.646 c 97.766
 44.646 99.344 44.779 100.469 45.529 c 101.27 46.064 102.055 47.037 102.633
 47.943 c 103.102 48.67 103.859 50.564 104.406 50.752 c 105.023 50.959 105.578
 50.666 105.934 50.26 c 105.605 47.189 104.832 44.564 103.816 42.182 c 95.441
 42.432 86.203 42.353 77.914 42.232 c 77.59 42.529 77.469 43.279 77.668 
43.807 c 78.586 44.346 80.914 43.932 81.605 44.892 c 82.504 46.131 82.199
 49.248 82.199 51.439 c 82.199 56.045 82.199 60.857 82.199 65.721 c 82.199
 68.014 82.543 71.779 81.359 72.666 c 80.973 72.955 80.34 73.06 79.734 73.158
 c 79.25 73.236 78.258 73.314 78.062 73.553 c 77.738 73.939 77.926 74.998
 78.355 75.127 c f
q 1 0 0 -1 0 84.353424 cm
78.355 9.227 m 83.203 9.445 88.414 9.344 93.18 9.273 c 93.41 9.684 93.555
 10.488 93.23 10.852 c 92.949 11.16 91.887 11.168 91.504 11.246 c 90.797
 11.387 90.113 11.531 89.781 12.082 c 89.039 13.32 89.289 16.523 89.289 
18.434 c 89.289 23.414 89.289 27.086 89.289 32.027 c 89.289 34.941 89.074
 38.195 90.914 39.168 c 92.289 39.895 94.07 39.707 95.887 39.707 c 97.766
 39.707 99.344 39.574 100.469 38.824 c 101.27 38.289 102.055 37.316 102.633
 36.41 c 103.102 35.684 103.859 33.789 104.406 33.602 c 105.023 33.395 105.578
 33.688 105.934 34.094 c 105.605 37.164 104.832 39.789 103.816 42.172 c 
95.441 41.922 86.203 42 77.914 42.121 c 77.59 41.824 77.469 41.074 77.668
 40.547 c 78.586 40.008 80.914 40.422 81.605 39.461 c 82.504 38.223 82.199
 35.105 82.199 32.914 c 82.199 28.309 82.199 23.496 82.199 18.633 c 82.199
 16.34 82.543 12.574 81.359 11.688 c 80.973 11.398 80.34 11.293 79.734 11.195
 c 79.25 11.117 78.258 11.039 78.062 10.801 c 77.738 10.414 77.926 9.355
 78.355 9.227 c S Q
119.625 57.447 m 119.117 57.787 118.363 58.486 117.902 58.185 c 115.629
 56.721 114.305 53.666 115.047 50.553 c 115.688 47.853 117.938 45.85 121.055
 45.678 c 124.219 45.502 126.023 47.002 127.504 48.83 c 125.75 52.299 122.887
 55.271 119.625 57.447 c h
122.434 71.482 m 121.117 72.213 119.484 71.514 118.887 70.744 c 116.625
 67.85 119.5 63.557 121.938 62.916 c 123.969 64.252 125.121 69.99 122.434
 71.482 c h
124.203 61.435 m 127.184 59.685 129.41 57.185 131.492 54.541 c 132.699 
56.467 133.633 58.592 134.598 60.943 c 134.816 61.482 135.496 62.623 135.336
 63.357 c 135.246 63.764 134.723 63.951 134.352 64.049 c 133.93 64.158 133.289
 64.084 133.02 64.342 c 132.695 64.658 132.738 65.658 133.117 65.92 c 133.59
 66.244 135.32 66.017 136.172 66.017 c 139.223 66.017 142.32 66.193 145.133
 66.264 c 145.555 65.967 145.688 64.982 145.281 64.639 c 144.977 64.381 
144.285 64.435 143.758 64.342 c 139.898 63.674 138.395 60.31 136.516 57.549
 c 135.332 55.803 134.203 54.045 133.168 52.279 c 134.402 50.428 135.656
 47.764 137.746 46.467 c 139.98 45.08 143.895 45.443 145.875 46.81 c 146.211
 46.611 146.5 46.287 146.465 45.826 c 146.434 45.416 145.648 44.787 145.234
 44.447 c 143.789 43.271 141.992 42.424 139.863 41.986 c 136.484 41.287 
132.168 41.615 130.559 43.611 c 129.816 44.529 129.496 45.389 128.883 46.416
 c 128.238 46.06 127.73 45.471 127.16 44.99 c 125.449 43.541 123.465 42.205
 120.66 41.787 c 114.691 40.9 109.488 43.728 108.445 48.635 c 108.066 50.428
 108.301 52.494 109.035 54.1 c 110.383 57.029 112.918 58.916 115.883 60.158
 c 114.453 61.631 112.945 62.986 112.73 65.475 c 112.312 70.295 116.016 
73.678 120.316 73.994 c 124.949 74.338 129.027 71.65 128.688 66.904 c 128.469
 63.889 126.242 62.818 124.203 61.435 c f
q 1 0 0 -1 0 84.353424 cm
119.625 26.906 m 119.117 26.566 118.363 25.867 117.902 26.168 c 115.629
 27.633 114.305 30.688 115.047 33.801 c 115.688 36.5 117.938 38.504 121.055
 38.676 c 124.219 38.852 126.023 37.352 127.504 35.523 c 125.75 32.055 122.887
 29.082 119.625 26.906 c h
122.434 12.871 m 121.117 12.141 119.484 12.84 118.887 13.609 c 116.625 
16.504 119.5 20.797 121.938 21.438 c 123.969 20.102 125.121 14.363 122.434
 12.871 c h
124.203 22.918 m 127.184 24.668 129.41 27.168 131.492 29.812 c 132.699 
27.887 133.633 25.762 134.598 23.41 c 134.816 22.871 135.496 21.73 135.336
 20.996 c 135.246 20.59 134.723 20.402 134.352 20.305 c 133.93 20.195 133.289
 20.27 133.02 20.012 c 132.695 19.695 132.738 18.695 133.117 18.434 c 133.59
 18.109 135.32 18.336 136.172 18.336 c 139.223 18.336 142.32 18.16 145.133
 18.09 c 145.555 18.387 145.688 19.371 145.281 19.715 c 144.977 19.973 144.285
 19.918 143.758 20.012 c 139.898 20.68 138.395 24.043 136.516 26.805 c 135.332
 28.551 134.203 30.309 133.168 32.074 c 134.402 33.926 135.656 36.59 137.746
 37.887 c 139.98 39.273 143.895 38.91 145.875 37.543 c 146.211 37.742 146.5
 38.066 146.465 38.527 c 146.434 38.938 145.648 39.566 145.234 39.906 c 
143.789 41.082 141.992 41.93 139.863 42.367 c 136.484 43.066 132.168 42.738
 130.559 40.742 c 129.816 39.824 129.496 38.965 128.883 37.938 c 128.238
 38.293 127.73 38.883 127.16 39.363 c 125.449 40.812 123.465 42.148 120.66
 42.566 c 114.691 43.453 109.488 40.625 108.445 35.719 c 108.066 33.926 
108.301 31.859 109.035 30.254 c 110.383 27.324 112.918 25.438 115.883 24.195
 c 114.453 22.723 112.945 21.367 112.73 18.879 c 112.312 14.059 116.016 
10.676 120.316 10.359 c 124.949 10.016 129.027 12.703 128.688 17.449 c 128.469
 20.465 126.242 21.535 124.203 22.918 c S Q
69.836 17.51 m 69.551 16.654 69.074 15.76 69.195 14.803 c 70.039 14.463
 71.316 14.603 72.496 14.603 c 73.672 14.603 74.957 14.459 75.797 14.803
 c 75.898 15.74 75.48 16.623 75.203 17.459 c 74.355 20.053 73.59 22.611 
72.645 25.092 c 72.641 25.123 72.637 25.15 72.594 25.142 c 71.508 22.717
 70.703 20.092 69.836 17.51 c h
75.844 34.205 m 76.898 34.225 76.902 33.307 77.223 32.232 c 78.547 27.807
 80.23 23.428 81.707 19.135 c 82.988 15.4 84.262 11.713 85.594 7.955 c 86.219
 6.201 86.695 4.4 87.812 3.178 c 87.316 2.701 87.156 1.603 87.367 0.717 
c 83.848 0.865 80.027 0.685 76.684 0.666 c 76.234 0.935 76.176 1.881 76.535
 2.291 c 77.43 2.725 79.246 2.357 79.539 3.275 c 79.711 3.822 79.223 4.932
 79.047 5.494 c 78.543 7.076 78.211 8.166 77.715 9.728 c 77.508 10.389 77.254
 11.467 76.93 11.697 c 76.258 12.174 73.703 11.943 72.594 11.943 c 71.938
 11.943 71.152 11.943 70.328 11.943 c 69.652 11.943 68.594 12.041 68.211
 11.795 c 67.844 11.56 67.637 10.498 67.422 9.826 c 66.941 8.291 66.625 
7.279 66.094 5.642 c 65.922 5.107 65.398 4.088 65.602 3.377 c 65.852 2.498
 68.035 2.693 68.902 2.342 c 69.133 1.924 69.215 1.002 68.852 0.666 c 65.281
 0.783 61.344 0.709 57.77 0.666 c 57.379 0.955 57.398 1.932 57.672 2.342
 c 59.508 2.42 60.898 2.846 61.66 4.115 c 62.762 5.947 63.398 8.353 64.223
 10.517 c 66.27 15.889 68.188 21.424 70.328 26.818 c 70.914 28.291 71.496
 29.416 71.512 31.248 c 73.473 31.717 74.629 32.99 75.844 34.205 c f
q 1 0 0 -1 0 84.353424 cm
69.836 66.844 m 69.551 67.699 69.074 68.594 69.195 69.551 c 70.039 69.891
 71.316 69.75 72.496 69.75 c 73.672 69.75 74.957 69.895 75.797 69.551 c 
75.898 68.613 75.48 67.73 75.203 66.895 c 74.355 64.301 73.59 61.742 72.645
 59.262 c 72.641 59.23 72.637 59.203 72.594 59.211 c 71.508 61.637 70.703
 64.262 69.836 66.844 c h
75.844 50.148 m 76.898 50.129 76.902 51.047 77.223 52.121 c 78.547 56.547
 80.23 60.926 81.707 65.219 c 82.988 68.953 84.262 72.641 85.594 76.398 
c 86.219 78.152 86.695 79.953 87.812 81.176 c 87.316 81.652 87.156 82.75
 87.367 83.637 c 83.848 83.488 80.027 83.668 76.684 83.688 c 76.234 83.418
 76.176 82.473 76.535 82.062 c 77.43 81.629 79.246 81.996 79.539 81.078 
c 79.711 80.531 79.223 79.422 79.047 78.859 c 78.543 77.277 78.211 76.188
 77.715 74.625 c 77.508 73.965 77.254 72.887 76.93 72.656 c 76.258 72.18
 73.703 72.41 72.594 72.41 c 71.938 72.41 71.152 72.41 70.328 72.41 c 69.652
 72.41 68.594 72.312 68.211 72.559 c 67.844 72.793 67.637 73.855 67.422 
74.527 c 66.941 76.062 66.625 77.074 66.094 78.711 c 65.922 79.246 65.398
 80.266 65.602 80.977 c 65.852 81.855 68.035 81.66 68.902 82.012 c 69.133
 82.43 69.215 83.352 68.852 83.688 c 65.281 83.57 61.344 83.645 57.77 83.688
 c 57.379 83.398 57.398 82.422 57.672 82.012 c 59.508 81.934 60.898 81.508
 61.66 80.238 c 62.762 78.406 63.398 76 64.223 73.836 c 66.27 68.465 68.188
 62.93 70.328 57.535 c 70.914 56.062 71.496 54.938 71.512 53.105 c 73.473
 52.637 74.629 51.363 75.844 50.148 c S Q
11.332 16.525 m 10.891 15.857 11.137 13.92 11.137 13.373 c 11.137 10.131
 10.77 5.935 12.07 4.162 c 13.715 1.92 18.148 2.775 19.656 4.756 c 20.648
 6.06 21.105 8.037 21.035 10.123 c 20.961 12.236 20.215 13.967 19.164 15.049
 c 17.812 16.432 15.75 17.275 12.316 16.92 c 11.812 16.865 11.582 16.9 11.332
 16.525 c h
14.387 19.182 m 15.387 19.244 16.41 19.533 17.094 19.924 c 19.398 21.236
 20.258 25.072 19.016 27.951 c 18.246 29.725 16.473 31.084 14.188 31.248
 c 13.145 31.326 11.789 31.334 11.383 30.756 c 11.043 30.275 11.137 29.057
 11.137 28.096 c 11.137 27.045 11.137 26.049 11.137 25.193 c 11.137 23.029
 11.023 21.041 11.281 19.478 c 12.258 19.072 13.402 19.123 14.387 19.182
 c h
20.789 18.74 m 21.023 18.295 21.602 18.295 21.969 18.197 c 25.031 17.4 
27.457 15.631 28.371 12.584 c 29.621 8.42 27.691 4.588 25.07 2.834 c 22.305
 0.982 18.051 0.568 13.598 0.568 c 11.402 0.568 9.148 0.764 6.898 0.764 
c 4.637 0.767 2.402 0.627 0.25 0.666 c 0.004 1.017 -0.027 1.889 0.203 2.291
 c 1.258 2.693 3.172 2.642 3.797 3.623 c 4.562 4.822 4.289 8.248 4.289 10.221
 c 4.289 14.935 4.289 19.514 4.289 24.404 c 4.289 26.475 4.586 29.885 3.551
 30.705 c 2.895 31.228 1.441 31.053 0.695 31.396 c 0.398 31.736 0.297 32.654
 0.645 32.975 c 1.023 33.318 2.27 33.185 3.008 33.221 c 5.367 33.33 8.23
 33.408 10.496 33.514 c 16.586 33.799 22.973 33.303 25.465 29.869 c 26.801
 28.029 27.34 24.869 26.156 22.584 c 25.418 21.158 23.961 20.01 22.363 19.432
 c 21.855 19.248 21.16 19.291 20.789 18.74 c f
q 1 0 0 -1 0 84.353424 cm
11.332 67.828 m 10.891 68.496 11.137 70.434 11.137 70.98 c 11.137 74.223
 10.77 78.418 12.07 80.191 c 13.715 82.434 18.148 81.578 19.656 79.598 c
 20.648 78.293 21.105 76.316 21.035 74.23 c 20.961 72.117 20.215 70.387 
19.164 69.305 c 17.812 67.922 15.75 67.078 12.316 67.434 c 11.812 67.488
 11.582 67.453 11.332 67.828 c h
14.387 65.172 m 15.387 65.109 16.41 64.82 17.094 64.43 c 19.398 63.117 
20.258 59.281 19.016 56.402 c 18.246 54.629 16.473 53.27 14.188 53.105 c
 13.145 53.027 11.789 53.02 11.383 53.598 c 11.043 54.078 11.137 55.297 
11.137 56.258 c 11.137 57.309 11.137 58.305 11.137 59.16 c 11.137 61.324
 11.023 63.312 11.281 64.875 c 12.258 65.281 13.402 65.23 14.387 65.172 
c h
20.789 65.613 m 21.023 66.059 21.602 66.059 21.969 66.156 c 25.031 66.953
 27.457 68.723 28.371 71.77 c 29.621 75.934 27.691 79.766 25.07 81.52 c 
22.305 83.371 18.051 83.785 13.598 83.785 c 11.402 83.785 9.148 83.59 6.898
 83.59 c 4.637 83.586 2.402 83.727 0.25 83.688 c 0.004 83.336 -0.027 82.465
 0.203 82.062 c 1.258 81.66 3.172 81.711 3.797 80.73 c 4.562 79.531 4.289
 76.105 4.289 74.133 c 4.289 69.418 4.289 64.84 4.289 59.949 c 4.289 57.879
 4.586 54.469 3.551 53.648 c 2.895 53.125 1.441 53.301 0.695 52.957 c 0.398
 52.617 0.297 51.699 0.645 51.379 c 1.023 51.035 2.27 51.168 3.008 51.133
 c 5.367 51.023 8.23 50.945 10.496 50.84 c 16.586 50.555 22.973 51.051 25.465
 54.484 c 26.801 56.324 27.34 59.484 26.156 61.77 c 25.418 63.195 23.961
 64.344 22.363 64.922 c 21.855 65.105 21.16 65.062 20.789 65.613 c S Q
40.832 30.955 m 40.348 30.416 40.484 28.635 40.484 27.85 c 40.484 25.713
 40.484 23.053 40.484 20.908 c 40.484 19.885 40.367 18.068 40.73 17.658 
c 41.359 16.947 44.535 17.146 45.609 17.51 c 47.945 18.303 49.039 20.873
 49.055 23.713 c 49.082 28.267 46.531 31.916 41.57 31.201 c 41.285 31.158
 40.996 31.139 40.832 30.955 c h
58.363 3.869 m 57.875 3.732 57.453 3.869 57.082 3.721 c 56.312 3.408 55.828
 1.85 56.148 0.619 c 50.719 1.318 48.547 5.639 46.492 9.877 c 46.164 10.557
 45.836 11.31 45.508 12.045 c 45.027 13.115 44.648 14.4 43.59 14.85 c 43.098
 15.06 41.055 15.287 40.633 14.803 c 40.273 14.385 40.484 12.369 40.484 
11.748 c 40.484 10.545 40.484 9.623 40.484 8.596 c 40.484 6.662 40.305 3.912
 41.324 3.131 c 42.113 2.521 43.43 2.721 44.426 2.291 c 44.688 1.877 44.668
 1.041 44.375 0.666 c 39.746 0.779 34.43 0.783 29.797 0.666 c 29.477 0.975
 29.469 1.928 29.75 2.291 c 30.785 2.666 32.668 2.592 33.246 3.572 c 33.969
 4.799 33.688 8.221 33.688 10.17 c 33.688 14.721 33.688 19.502 33.688 24.205
 c 33.688 26.307 33.977 29.658 33.098 30.607 c 32.484 31.275 30.906 31.107
 30.047 31.447 c 29.719 31.935 29.793 32.787 30.145 33.021 c 30.535 33.287
 31.828 33.236 32.457 33.267 c 34.945 33.396 37.383 33.4 39.844 33.514 c
 43.922 33.705 48.262 33.416 51.172 32.283 c 54.254 31.084 56.891 28.264
 56.59 23.764 c 56.363 20.404 54.254 18.56 51.91 17.31 c 51.598 17.142 51.047
 16.939 50.977 16.674 c 50.836 16.15 51.41 15.307 51.664 14.803 c 53.594
 10.959 55.719 6.682 58.363 3.869 c f
q 1 0 0 -1 0 84.353424 cm
40.832 53.398 m 40.348 53.938 40.484 55.719 40.484 56.504 c 40.484 58.641
 40.484 61.301 40.484 63.445 c 40.484 64.469 40.367 66.285 40.73 66.695 
c 41.359 67.406 44.535 67.207 45.609 66.844 c 47.945 66.051 49.039 63.48
 49.055 60.641 c 49.082 56.086 46.531 52.438 41.57 53.152 c 41.285 53.195
 40.996 53.215 40.832 53.398 c h
58.363 80.484 m 57.875 80.621 57.453 80.484 57.082 80.633 c 56.312 80.945
 55.828 82.504 56.148 83.734 c 50.719 83.035 48.547 78.715 46.492 74.477
 c 46.164 73.797 45.836 73.043 45.508 72.309 c 45.027 71.238 44.648 69.953
 43.59 69.504 c 43.098 69.293 41.055 69.066 40.633 69.551 c 40.273 69.969
 40.484 71.984 40.484 72.605 c 40.484 73.809 40.484 74.73 40.484 75.758 
c 40.484 77.691 40.305 80.441 41.324 81.223 c 42.113 81.832 43.43 81.633
 44.426 82.062 c 44.688 82.477 44.668 83.312 44.375 83.688 c 39.746 83.574
 34.43 83.57 29.797 83.688 c 29.477 83.379 29.469 82.426 29.75 82.062 c 
30.785 81.688 32.668 81.762 33.246 80.781 c 33.969 79.555 33.688 76.133 
33.688 74.184 c 33.688 69.633 33.688 64.852 33.688 60.148 c 33.688 58.047
 33.977 54.695 33.098 53.746 c 32.484 53.078 30.906 53.246 30.047 52.906
 c 29.719 52.418 29.793 51.566 30.145 51.332 c 30.535 51.066 31.828 51.117
 32.457 51.086 c 34.945 50.957 37.383 50.953 39.844 50.84 c 43.922 50.648
 48.262 50.938 51.172 52.07 c 54.254 53.27 56.891 56.09 56.59 60.59 c 56.363
 63.949 54.254 65.793 51.91 67.043 c 51.598 67.211 51.047 67.414 50.977 
67.68 c 50.836 68.203 51.41 69.047 51.664 69.551 c 53.594 73.395 55.719 
77.672 58.363 80.484 c S Q
99.828 33.564 m 100.734 31.021 102.434 28.986 104.113 26.916 c 105.52 25.178
 106.98 23.486 108.348 21.892 c 111.266 18.49 113.965 15.06 116.918 11.994
 c 117.176 14.654 117.062 18.057 117.062 21.549 c 117.062 23.127 117.023
 24.705 116.918 26.275 c 116.805 27.924 116.754 29.764 115.98 30.607 c 115.062
 31.615 113.578 31.478 112.09 31.842 c 111.82 32.225 111.828 33.127 112.09
 33.514 c 115.699 33.475 119.836 33.31 123.566 33.514 c 123.379 33.029 123.223
 32.303 123.367 31.642 c 122.387 31.463 121.285 31.068 120.855 30.264 c 
120.055 28.756 120.152 25.764 120.066 23.517 c 119.797 16.295 120.102 7.928
 120.117 1.209 c 119.855 0.842 119.457 0.627 118.938 0.42 c 118.527 0.26
 117.801 -0.049 117.309 0.076 c 116.926 0.174 116.375 1.267 116.031 1.752
 c 113.215 5.674 109.953 9.49 106.969 13.174 c 103.895 16.975 100.965 20.826
 97.758 24.502 c 97.32 25.006 96.902 25.564 96.332 25.881 c 95.992 22.689
 96.133 18.639 96.133 14.506 c 96.133 12.619 96.148 10.779 96.234 8.795 
c 96.305 7.068 96.426 4.65 97.121 3.721 c 97.992 2.545 99.75 2.721 101.207
 2.291 c 101.496 1.873 101.438 1.002 101.156 0.619 c 97.188 0.775 92.895
 0.85 88.945 0.619 c 88.66 0.99 88.598 1.885 88.895 2.291 c 90.164 2.631
 91.93 2.818 92.492 4.014 c 93.098 5.31 93.09 7.959 93.18 9.975 c 93.422
 15.357 93.285 21.068 93.23 26.471 c 93.207 28.35 93.238 30.08 92.195 30.853
 c 91.312 31.51 89.75 31.584 88.598 31.889 c 88.359 32.338 88.336 33.408
 88.895 33.564 c 89.18 33.642 89.828 33.525 90.273 33.514 c 93.211 33.432
 97.055 33.299 99.828 33.564 c f
q 1 0 0 -1 0 84.353424 cm
99.828 50.789 m 100.734 53.332 102.434 55.367 104.113 57.438 c 105.52 59.176
 106.98 60.867 108.348 62.461 c 111.266 65.863 113.965 69.293 116.918 72.359
 c 117.176 69.699 117.062 66.297 117.062 62.805 c 117.062 61.227 117.023
 59.648 116.918 58.078 c 116.805 56.43 116.754 54.59 115.98 53.746 c 115.062
 52.738 113.578 52.875 112.09 52.512 c 111.82 52.129 111.828 51.227 112.09
 50.84 c 115.699 50.879 119.836 51.043 123.566 50.84 c 123.379 51.324 123.223
 52.051 123.367 52.711 c 122.387 52.891 121.285 53.285 120.855 54.09 c 120.055
 55.598 120.152 58.59 120.066 60.836 c 119.797 68.059 120.102 76.426 120.117
 83.145 c 119.855 83.512 119.457 83.727 118.938 83.934 c 118.527 84.094 
117.801 84.402 117.309 84.277 c 116.926 84.18 116.375 83.086 116.031 82.602
 c 113.215 78.68 109.953 74.863 106.969 71.18 c 103.895 67.379 100.965 63.527
 97.758 59.852 c 97.32 59.348 96.902 58.789 96.332 58.473 c 95.992 61.664
 96.133 65.715 96.133 69.848 c 96.133 71.734 96.148 73.574 96.234 75.559
 c 96.305 77.285 96.426 79.703 97.121 80.633 c 97.992 81.809 99.75 81.633
 101.207 82.062 c 101.496 82.48 101.438 83.352 101.156 83.734 c 97.188 83.578
 92.895 83.504 88.945 83.734 c 88.66 83.363 88.598 82.469 88.895 82.062 
c 90.164 81.723 91.93 81.535 92.492 80.34 c 93.098 79.043 93.09 76.395 93.18
 74.379 c 93.422 68.996 93.285 63.285 93.23 57.883 c 93.207 56.004 93.238
 54.273 92.195 53.5 c 91.312 52.844 89.75 52.77 88.598 52.465 c 88.359 52.016
 88.336 50.945 88.895 50.789 c 89.18 50.711 89.828 50.828 90.273 50.84 c
 93.211 50.922 97.055 51.055 99.828 50.789 c S Q
135.777 30.607 m 135.371 30.002 135.48 28.482 135.48 27.557 c 135.48 26.115
 135.48 25.045 135.48 24.158 c 135.48 19.533 135.48 15.291 135.48 10.666
 c 135.48 8.26 135.375 5.916 136.172 4.557 c 137.43 2.416 141.691 2.498 
144.148 3.275 c 149.367 4.932 152.031 10.174 152.027 16.967 c 152.027 21.65
 150.703 25.35 148.387 27.705 c 146.191 29.932 142.312 31.67 137.504 31.201
 c 136.992 31.15 136.066 31.041 135.777 30.607 c h
124.305 0.666 m 123.996 1.201 123.922 1.916 124.203 2.244 c 124.418 2.49
 125.367 2.498 125.879 2.588 c 126.699 2.732 127.469 2.92 127.848 3.424 
c 128.688 4.533 128.391 8.205 128.391 10.123 c 128.391 15.236 128.391 19.326
 128.391 24.553 c 128.391 26.904 128.699 30.31 127.258 31.002 c 126.641 
31.299 125.242 31.123 124.895 31.545 c 124.703 31.779 124.648 32.627 124.895
 32.924 c 125.176 33.26 126.645 33.185 127.406 33.221 c 130.09 33.346 132.602
 33.381 135.48 33.514 c 143.41 33.885 150.539 32.756 154.688 29.182 c 156.723
 27.428 158.508 25.002 159.367 22.139 c 160.281 19.096 160.215 15.189 159.168
 11.943 c 157.301 6.131 152.727 2.56 146.465 1.209 c 143.113 0.482 139.5
 0.361 135.582 0.568 c 131.992 0.76 128.113 0.795 124.305 0.666 c f
q 1 0 0 -1 0 84.353424 cm
135.777 53.746 m 135.371 54.352 135.48 55.871 135.48 56.797 c 135.48 58.238
 135.48 59.309 135.48 60.195 c 135.48 64.82 135.48 69.062 135.48 73.688 
c 135.48 76.094 135.375 78.438 136.172 79.797 c 137.43 81.938 141.691 81.855
 144.148 81.078 c 149.367 79.422 152.031 74.18 152.027 67.387 c 152.027 
62.703 150.703 59.004 148.387 56.648 c 146.191 54.422 142.312 52.684 137.504
 53.152 c 136.992 53.203 136.066 53.312 135.777 53.746 c h
124.305 83.688 m 123.996 83.152 123.922 82.438 124.203 82.109 c 124.418
 81.863 125.367 81.855 125.879 81.766 c 126.699 81.621 127.469 81.434 127.848
 80.93 c 128.688 79.82 128.391 76.148 128.391 74.23 c 128.391 69.117 128.391
 65.027 128.391 59.801 c 128.391 57.449 128.699 54.043 127.258 53.352 c 
126.641 53.055 125.242 53.23 124.895 52.809 c 124.703 52.574 124.648 51.727
 124.895 51.43 c 125.176 51.094 126.645 51.168 127.406 51.133 c 130.09 51.008
 132.602 50.973 135.48 50.84 c 143.41 50.469 150.539 51.598 154.688 55.172
 c 156.723 56.926 158.508 59.352 159.367 62.215 c 160.281 65.258 160.215
 69.164 159.168 72.41 c 157.301 78.223 152.727 81.793 146.465 83.145 c 143.113
 83.871 139.5 83.992 135.582 83.785 c 131.992 83.594 128.113 83.559 124.305
 83.688 c S Q
Q Q
showpage
%%Trailer
end restore
%%EOF
